--- 
http_interactions: 
- request: 
    method: get
    uri: http://viki.com/api/v3/series.json?access_token=1b080a6b3a94ed4503e04e252500ca87f6e7dc55061cec92b627ef1fbec44c70
    body: 
      encoding: US-ASCII
      string: ""
    headers: {}

  response: 
    status: 
      code: 301
      message: Moved Permanently
    headers: 
      Server: 
      - nginx
      Date: 
      - Fri, 15 Jun 2012 09:20:38 GMT
      Content-Type: 
      - text/plain
      Connection: 
      - keep-alive
      Location: 
      - http://www.viki.com/api/v3/series.json?access_token=1b080a6b3a94ed4503e04e252500ca87f6e7dc55061cec92b627ef1fbec44c70
      X-Rack-Cache: 
      - miss
      Content-Length: 
      - "9"
      X-Varnish: 
      - "1486167893"
      Age: 
      - "0"
      Via: 
      - 1.1 varnish
    body: 
      encoding: US-ASCII
      string: "moved to "
    http_version: 
  recorded_at: Fri, 15 Jun 2012 09:20:39 GMT
- request: 
    method: get
    uri: http://www.viki.com/api/v3/series.json?access_token=1b080a6b3a94ed4503e04e252500ca87f6e7dc55061cec92b627ef1fbec44c70
    body: 
      encoding: US-ASCII
      string: ""
    headers: {}

  response: 
    status: 
      code: 200
      message: OK
    headers: 
      Server: 
      - nginx
      Date: 
      - Fri, 15 Jun 2012 09:20:39 GMT
      Content-Type: 
      - application/json; charset=utf-8
      Connection: 
      - keep-alive
      Cache-Control: 
      - public, max-age=3600
      Expires: 
      - Fri, 15 Jun 2012 10:10:38 GMT
      X-Ua-Compatible: 
      - IE=Edge,chrome=1
      Etag: 
      - "\"ebaacdcf6c3fecc582234fac4eb60b05\""
      X-Request-Id: 
      - 3cfa30bf538a1edb4f8d52bc3c2db622
      X-Runtime: 
      - "0.943580"
      X-Content-Digest: 
      - c84704d6c62441bd2cc3de1a48dbb8cfdd712b9a
      X-Rack-Cache: 
      - fresh
      Content-Length: 
      - "22647"
      X-Varnish: 
      - "377380674"
      Age: 
      - "601"
      Via: 
      - 1.1 varnish
    body: 
      encoding: US-ASCII
      string: "{\"count\":315,\"pagination\":{\"previous\":\"\",\"next\":\"http://www.viki.com/api/v3/series.json?page=2\"},\"response\":[{\"id\":8719,\"title\":\"I love Lee Tae Ri\",\"description\":\"Min Soo is a 14-year-old teenager who wakes up one morning to discover that he has been transported into the body of 25-year-old Eun Dong. When he goes to work as an assistant to wealthy heiress Lee Tae Ri, his sweet innocence helps to bring the woman out of her emotional shell after being dumped by her first love. Will Eun Dong be able to discover love in his new identity or will he be able to return to his younger self?\",\"uri\":\"http://www.viki.com/api/v3/series/8719.json\",\"created_at\":\"May 28, 2012 19:45\",\"genres\":[],\"origin_country\":\"Korea\",\"image\":\"http://m2.viki.com/aHR0cDovL2MxLnZpa2lhc3NldHMuY29tL3VwbG9hZHMvY2hhbm5lbC90aHVtYm5haWwvODcxOS8yYjlmYzQ5ZDAzYWVkMjBlMzFkMTcwOWE3YWVhNzM3Y2NhMzg4MjkwLnBuZw==\",\"episodes\":{\"count\":10,\"uri\":\"http://www.viki.com/api/v3/series/8719/episodes.json\"},\"subtitles\":{\"en\":60,\"tl\":2,\"ko\":1}},{\"id\":8112,\"title\":\"Ghost\",\"description\":\"Kim Woo Hyun, an elite police detective in the cyber investigation division, goes after criminals who perpetrate crimes online or try to hide their identities in cyberspace. These cyber-criminals can\\u2019t be seen and are hard to pin down, just like a ghost. Even the police force\\u2019s top brain like Woo Hyun will meet his match as he tries to pursue these dangerous and secretive criminals on the Internet. How will he be able to track the shadows that lurk online?\",\"uri\":\"http://www.viki.com/api/v3/series/8112.json\",\"created_at\":\"May 09, 2012 09:13\",\"genres\":[{\"id\":7,\"name\":\"Crime\"}],\"origin_country\":\"Korea\",\"image\":\"http://m1.viki.com/aHR0cDovL2MxLnZpa2lhc3NldHMuY29tL3VwbG9hZHMvY2hhbm5lbC90aHVtYm5haWwvODExMi8xOTMyYjM0Y2ExNjA5ZTc2ODJjYmE1OWE5OWExYWE2NzY3MDY3ZmUzLmpwZw==\",\"episodes\":{\"count\":6,\"uri\":\"http://www.viki.com/api/v3/series/8112/episodes.json\"},\"subtitles\":{\"ro\":100,\"en\":100,\"es\":100,\"fr\":100,\"tr\":99,\"bg\":85,\"tl\":71,\"sr\":69,\"pt\":68,\"de\":52,\"id\":41,\"he\":15,\"th\":6,\"ja\":2,\"hm\":1,\"ko\":1}},{\"id\":7823,\"title\":\"Queen In Hyun's Man\",\"description\":\"Choi Hee Jin, an actress in Seoul, is preparing to play the role of a lifetime in a television drama \\u2013 that of Queen In Hyun, who was deposed during the Chosun Dynasty. Fate mysteriously transports Kim Boong Do, a scholar from the Chosun era who supported the reinstatement of the real Queen In Hyun, into the modern-day life of Hee Jin as she is preparing for her career-making role. Can Boong Do help Hee Jin become a star by bringing some authenticity to her role as the queen?\",\"uri\":\"http://www.viki.com/api/v3/series/7823.json\",\"created_at\":\"April 08, 2012 08:44\",\"genres\":[{\"id\":18,\"name\":\"Romance\"}],\"origin_country\":\"Korea\",\"image\":\"http://m1.viki.com/aHR0cDovL2MzLnZpa2lhc3NldHMuY29tL3VwbG9hZHMvY2hhbm5lbC90aHVtYm5haWwvNzgyMy82MjI0OTM0ZGQ5NWEwZjg4YzIwZTViOTg1NWQ4NDUxZjAzZTFiYWJiLmpwZw==\",\"episodes\":{\"count\":15,\"uri\":\"http://www.viki.com/api/v3/series/7823/episodes.json\"},\"subtitles\":{}},{\"id\":7687,\"title\":\"Ghar Ki Baat Hai\",\"description\":\"What can you do when your wife\\u2019s family moves in and causes nothing but trouble? For Rajdeep Yagnik, daily life is a little more aggravating because his wife\\u2019s brother lives with them in Mumbai and does nothing all day except find ways to amuse himself. The freeloader seems to get into some kind of mess that requires Rajdeep to fix and clean up. How much longer can he take this craziness?\",\"uri\":\"http://www.viki.com/api/v3/series/7687.json\",\"created_at\":\"March 30, 2012 05:35\",\"genres\":[{\"id\":6,\"name\":\"Comedy\"}],\"origin_country\":\"India\",\"image\":\"http://m0.viki.com/aHR0cDovL2MxLnZpa2lhc3NldHMuY29tL3VwbG9hZHMvY2hhbm5lbC90aHVtYm5haWwvNzY4Ny84YWNlZDQ1YzE0ZmYxYTRjNDgwMmYzYWVhOTNkYmZmZWMyZjQ5YTRkLnBuZw==\",\"episodes\":{\"count\":29,\"uri\":\"http://www.viki.com/api/v3/series/7687/episodes.json\"},\"subtitles\":{}},{\"id\":7630,\"title\":\"The Show 2\",\"description\":\"A place where you can come across music trends first. It's a place where your body can feel every beat and rhythm. It's a music program produced on the concept of a club!\\r\\nA stage is an actual club in Korea where Korea's club culture and the latest KPop groove can be experienced first-hand! In addition to the MC's, the program focuses on the DJ, who will lead the show with a party ambiance, where everyone and anyone can enjoy all the latest beats.\",\"uri\":\"http://www.viki.com/api/v3/series/7630.json\",\"created_at\":\"March 23, 2012 08:18\",\"genres\":[{\"id\":21,\"name\":\"Variety Show\"}],\"origin_country\":\"Korea\",\"image\":\"http://m3.viki.com/aHR0cDovL2MyLnZpa2lhc3NldHMuY29tL3VwbG9hZHMvY2hhbm5lbC90aHVtYm5haWwvNzYzMC82ZjUxNzRlMGFhYzNiYjcyYzA3OWZkYjU1MjQwYmVjM2FlMTkyZTA5LmpwZw==\",\"episodes\":{\"count\":8,\"uri\":\"http://www.viki.com/api/v3/series/7630/episodes.json\"},\"subtitles\":{\"es\":100,\"en\":96,\"fr\":96,\"it\":96,\"no\":96,\"tr\":68,\"nl\":27,\"pl\":27,\"de\":20,\"ko\":3,\"th\":1,\"vi\":1}},{\"id\":7553,\"title\":\"Showbiz - Taiwanese Entertainment News\",\"description\":\"Get the latest news about celebrities, the music scene and all things having to do with the entertainment industry in this one-hour daily entertainment news show. \\u201cShowbiz\\u201d is one of the longest-running Taiwanese entertainment news programs. It is hosted by Sukie Chung and two members of the popular Taiwanese hip hop group Da Mouth: rapper MC40 and male vocalist Harry.\",\"uri\":\"http://www.viki.com/api/v3/series/7553.json\",\"created_at\":\"March 14, 2012 11:01\",\"genres\":[{\"id\":10,\"name\":\"Entertainment\"}],\"origin_country\":\"Taiwan\",\"image\":\"http://m0.viki.com/aHR0cDovL2MyLnZpa2lhc3NldHMuY29tL3VwbG9hZHMvY2hhbm5lbC90aHVtYm5haWwvNzU1My85NDM2OTlmNTZkMGIwY2YxN2RjN2UyNjMyMzMzYmMxMDAzOWY0YThlLmpwZw==\",\"episodes\":{\"count\":71,\"uri\":\"http://www.viki.com/api/v3/series/7553/episodes.json\"},\"subtitles\":{\"en\":96,\"es\":55,\"fr\":31,\"it\":2,\"zh\":1,\"tr\":1}},{\"id\":7468,\"title\":\"Leiji Matsumoto's OZMA (\\u30aa\\u30ba\\u30de)\",\"description\":\"The show unfolds on an arid and devastated future Earth and involves the mysterious, giant and moving \\u201cOZMA.\\u201d An epic space opera that entwines exciting sci-fi action and a suspenseful story, Leiji Matsumoto's OZMA tackles the ultimate question of life and its existence through this story.\",\"uri\":\"http://www.viki.com/api/v3/series/7468.json\",\"created_at\":\"March 07, 2012 09:29\",\"genres\":[{\"id\":2,\"name\":\"Anime\"}],\"origin_country\":\"Japan\",\"image\":\"http://m1.viki.com/aHR0cDovL2MyLnZpa2lhc3NldHMuY29tL3VwbG9hZHMvY2hhbm5lbC90aHVtYm5haWwvNzQ2OC9lZjU2NzI4MGJhYmEwN2U3YmVkOTgwNTFkZDdkYTJlOGEzZTM3OGVkLmpwZw==\",\"episodes\":{\"count\":6,\"uri\":\"http://www.viki.com/api/v3/series/7468/episodes.json\"},\"subtitles\":{\"tr\":100,\"pt\":100,\"pl\":100,\"cs\":100,\"en\":100,\"fr\":100,\"id\":100,\"ro\":99,\"es\":99,\"zh\":99,\"ru\":97,\"de\":92,\"ar\":1,\"ko\":1,\"af\":1}},{\"id\":7372,\"title\":\"2AM SHOW : Live in 3D \",\"description\":\"An intimate look at the K-pop boy band 2AM \\u2013 and everything you wanted to know about the members, Jo Kwon, Jinwoon, Seulong and Changmin \\u2013 in the first concert movie in 3D!\",\"uri\":\"http://www.viki.com/api/v3/series/7372.json\",\"created_at\":\"February 29, 2012 06:23\",\"genres\":[{\"id\":17,\"name\":\"Music\"}],\"origin_country\":\"Korea\",\"image\":\"http://m0.viki.com/aHR0cDovL2MxLnZpa2lhc3NldHMuY29tL3VwbG9hZHMvY2hhbm5lbC90aHVtYm5haWwvNzM3Mi84NWQ3NjQ5MjExNGU0NGU4ODBmZDdhYzIzZWU2NDAzNDc2Nzg2OTkyLmpwZw==\",\"episodes\":{\"count\":1,\"uri\":\"http://www.viki.com/api/v3/series/7372/episodes.json\"},\"subtitles\":{\"en\":100,\"it\":100,\"pt\":100,\"fr\":99,\"es\":88,\"ro\":64,\"th\":33,\"de\":19,\"tr\":1}},{\"id\":7371,\"title\":\"Wheesung : It's Real Concert\",\"description\":\"Wheesung's 'It's Real' concert goes behind the scenes of the making of this movie-concert, from planning meetings to rehearsals, and even let's us in on his trivial daily life at home. He not only reveals himself as a singer, but as a lyricist and just an ordinary man. Let's take an exclusive first look at what Wheesung's everyday life is like and get to know the REAL Wheesung! \",\"uri\":\"http://www.viki.com/api/v3/series/7371.json\",\"created_at\":\"February 29, 2012 06:22\",\"genres\":[{\"id\":21,\"name\":\"Variety Show\"}],\"origin_country\":\"Korea\",\"image\":\"http://m2.viki.com/aHR0cDovL2MyLnZpa2lhc3NldHMuY29tL3VwbG9hZHMvY2hhbm5lbC90aHVtYm5haWwvNzM3MS8xYjMyYmJkZGM1YzAxOGVjMTc0ZTMyNGIzOTAyMDhhZDZiOTk3N2M2LmpwZw==\",\"episodes\":{\"count\":1,\"uri\":\"http://www.viki.com/api/v3/series/7371/episodes.json\"},\"subtitles\":{\"en\":100,\"fr\":100,\"es\":100,\"id\":96,\"ko\":1}},{\"id\":7368,\"title\":\"Inspire Now\",\"description\":\"Inspire Now is a show which deals with overall trends in fashion and beauty industry, culture, and lifestyle. Each episode will show a vivid picture of lives of people in fashion industry. It will also tell a viewer tips and know-hows from designers, fashion editors and stylists.\",\"uri\":\"http://www.viki.com/api/v3/series/7368.json\",\"created_at\":\"February 29, 2012 01:21\",\"genres\":[{\"id\":10,\"name\":\"Entertainment\"}],\"origin_country\":\"Korea\",\"image\":\"http://m1.viki.com/aHR0cDovL2MwLnZpa2lhc3NldHMuY29tL3VwbG9hZHMvY2hhbm5lbC90aHVtYm5haWwvNzM2OC8zZTQ5NGExZjBmNmJkMjllMmE3YWQ4ODJlMWJlYzg0YTY3ZTA5ODI5LmpwZw==\",\"episodes\":{\"count\":18,\"uri\":\"http://www.viki.com/api/v3/series/7368/episodes.json\"},\"subtitles\":{\"en\":100,\"fr\":38}},{\"id\":7367,\"title\":\"Unbelievable Outing\",\"description\":\"In this real variety show \\u201cUnbelievable Outing\\u201d, six comedians go on a trip for two days together and show their unrevealed talent. With uncommon games and penalties, they offer big laughs.\\r\\n\\r\\n\\r\\n\",\"uri\":\"http://www.viki.com/api/v3/series/7367.json\",\"created_at\":\"February 29, 2012 01:19\",\"genres\":[{\"id\":21,\"name\":\"Variety Show\"}],\"origin_country\":\"Korea\",\"image\":\"http://m3.viki.com/aHR0cDovL2MyLnZpa2lhc3NldHMuY29tL3VwbG9hZHMvY2hhbm5lbC90aHVtYm5haWwvNzM2Ny83YTkzY2U5NmE4YWI1YjQzOWVjM2Q1NzFlY2FmY2UwMGQxYzJiNTIyLmpwZw==\",\"episodes\":{\"count\":13,\"uri\":\"http://www.viki.com/api/v3/series/7367/episodes.json\"},\"subtitles\":{\"ko\":24,\"en\":20,\"es\":6,\"fr\":1}},{\"id\":7366,\"title\":\"Star Velo\",\"description\":\"This is one of representative shows of Elle TV, a fashion TV channel. This show is a bicycle travelogue of earth-loving and eco-friendly celebrities. Viewers can enjoy two episodes-- an episode of Ha Ji Won and Kim Myoung Min's trip in Amsterdam and the other of Song Joong Ki's trip in Australia.\",\"uri\":\"http://www.viki.com/api/v3/series/7366.json\",\"created_at\":\"February 29, 2012 01:18\",\"genres\":[{\"id\":8,\"name\":\"Documentary\"}],\"origin_country\":\"Korea\",\"image\":\"http://m1.viki.com/aHR0cDovL2MzLnZpa2lhc3NldHMuY29tL3VwbG9hZHMvY2hhbm5lbC90aHVtYm5haWwvNzM2Ni84ZWJkMWMwZjllYmU2ZDg2NTg1ZTA5Mjc4YjEzY2UyYTU3Nzk4NzMzLmpwZw==\",\"episodes\":{\"count\":2,\"uri\":\"http://www.viki.com/api/v3/series/7366/episodes.json\"},\"subtitles\":{\"en\":100,\"fr\":15,\"es\":11,\"ro\":10,\"tr\":1}},{\"id\":7365,\"title\":\"It Travel\",\"description\":\"A show that brings you to the places around the world with your favorite Hallyu stars. Start your journey with the stars here!\",\"uri\":\"http://www.viki.com/api/v3/series/7365.json\",\"created_at\":\"February 29, 2012 01:17\",\"genres\":[{\"id\":8,\"name\":\"Documentary\"}],\"origin_country\":\"Korea\",\"image\":\"http://m0.viki.com/aHR0cDovL2MyLnZpa2lhc3NldHMuY29tL3VwbG9hZHMvY2hhbm5lbC90aHVtYm5haWwvNzM2NS9hODQ1ZjZhY2VkYmNkNTczZGM3NDQyNTc5ODFkMmFiZjZjMzk3NWMyLmpwZw==\",\"episodes\":{\"count\":6,\"uri\":\"http://www.viki.com/api/v3/series/7365/episodes.json\"},\"subtitles\":{\"es\":100,\"ro\":100,\"en\":100,\"fr\":100,\"cs\":99,\"vi\":27,\"tr\":22,\"ko\":1,\"zh\":1}},{\"id\":7360,\"title\":\"Immortal Classic\",\"description\":\"A secret recipe book for making great kimchee has been passed down from generation to generation in the same family for hundreds of years. The current protector of the recipes, Park Gye Hyang, is the national cultural asset for cooking in Korea. One remote restaurant is famed for serving kimchee that tastes better than Gye Hyang\\u2019s. The two families may be linked by the same secret recipes, and others want to get their hands on them for their own personal gain. Whose kimchee will prevail?\",\"uri\":\"http://www.viki.com/api/v3/series/7360.json\",\"created_at\":\"February 28, 2012 08:32\",\"genres\":[],\"origin_country\":\"Korea\",\"image\":\"http://m0.viki.com/aHR0cDovL2MzLnZpa2lhc3NldHMuY29tL3VwbG9hZHMvY2hhbm5lbC90aHVtYm5haWwvNzM2MC9mZWMxYzI2ZTQzNDZhMGU5MjA2YmM5ZWE4MjM0NDhkNmZjZDRlMjZhLmpwZw==\",\"episodes\":{\"count\":20,\"uri\":\"http://www.viki.com/api/v3/series/7360/episodes.json\"},\"subtitles\":{\"en\":100,\"es\":100,\"tr\":99,\"ro\":99,\"de\":99,\"fr\":96,\"ar\":82,\"id\":22,\"gl\":1,\"pl\":1,\"bg\":1,\"ko\":1}},{\"id\":7359,\"title\":\"Big\",\"description\":\"After a tragic car accident, 18-year-old Kang Gyung Joon discovers that his spirit has been transported to the body of 30-year-old Seo Yoon Jae. Yoon Jae is a successful doctor who is engaged to high school teacher Gil Da Ran. But Da Ran just so happens to be Gyung Joon\\u2019s teacher. What is a boy to do when he discovers that he has become his own teacher\\u2019s fianc\\u00e9 by a freak of nature? Will he be able to return to his own normal life or is he doomed to live out the older man\\u2019s instead?\",\"uri\":\"http://www.viki.com/api/v3/series/7359.json\",\"created_at\":\"February 28, 2012 04:56\",\"genres\":[],\"origin_country\":\"Korea\",\"image\":\"http://m2.viki.com/aHR0cDovL2MzLnZpa2lhc3NldHMuY29tL3VwbG9hZHMvY2hhbm5lbC90aHVtYm5haWwvNzM1OS82ZTQ2N2M5OWJmZWQyNGNkYjgxZGUzNjczMmY4ODFlNjNlOGQzYTNkLmpwZw==\",\"episodes\":{\"count\":4,\"uri\":\"http://www.viki.com/api/v3/series/7359/episodes.json\"},\"subtitles\":{\"ar\":100,\"ro\":100,\"en\":100,\"fr\":100,\"it\":100,\"tr\":100,\"es\":99,\"el\":99,\"pt\":99,\"tl\":65,\"de\":57,\"ja\":32,\"id\":23,\"bg\":12,\"ko\":9,\"sh\":6,\"th\":5,\"ru\":2,\"la\":1}},{\"id\":7324,\"title\":\"The Wedding Scheme\",\"description\":\"A drama about a mother who plans to get married to her four daughters.\",\"uri\":\"http://www.viki.com/api/v3/series/7324.json\",\"created_at\":\"February 25, 2012 01:30\",\"genres\":[{\"id\":6,\"name\":\"Comedy\"},{\"id\":9,\"name\":\"Drama\"}],\"origin_country\":\"Korea\",\"image\":\"http://m2.viki.com/aHR0cDovL2MwLnZpa2lhc3NldHMuY29tL3VwbG9hZHMvY2hhbm5lbC90aHVtYm5haWwvNzMyNC8wZWVhMTNmOTdmNDk2NTFiM2EzNTAxMzA2OWVmYzM5MmI3NjNlMTNmLmpwZw==\",\"episodes\":{\"count\":7,\"uri\":\"http://www.viki.com/api/v3/series/7324/episodes.json\"},\"subtitles\":{}},{\"id\":7258,\"title\":\"Lady Gaga: One Sequin At A Time\",\"description\":\"'Lady Gaga: One Sequin at a Time\\\" traces the behind-the-scenes story of her meteoric rise to fame, sweeping from her childhood in New York, through her struggles to make it to the top, to the peak of her worldwide acclaim.\",\"uri\":\"http://www.viki.com/api/v3/series/7258.json\",\"created_at\":\"February 22, 2012 06:09\",\"genres\":[],\"origin_country\":\"United States\",\"image\":\"http://m1.viki.com/aHR0cDovL2MyLnZpa2lhc3NldHMuY29tL3VwbG9hZHMvY2hhbm5lbC90aHVtYm5haWwvNzI1OC9iODRkOWIzZWRhYjViZTUzYmZjMjI1MWRjMDJmNmE5YmRjZTQ0ODVlLmpwZw==\",\"episodes\":{\"count\":1,\"uri\":\"http://www.viki.com/api/v3/series/7258/episodes.json\"},\"subtitles\":{}},{\"id\":7238,\"title\":\"Dr. Jin\",\"description\":\"Dr. Jin Hyuk, a renowned modern-day neurosurgeon, is transported back 150 years to the Chosun Dynasty and forced to practice medicine during a much more primitive era. He meets Hong Young Rae, a nobleman\\u2019s daughter bearing a striking resemblance to his lost love, who is caught in the midst of a power struggle between the royal family and members of the most powerful Ahn Dong Kim family. Will Dr. Jin be able to survive his new surroundings and find his way back to his own time period?\",\"uri\":\"http://www.viki.com/api/v3/series/7238.json\",\"created_at\":\"February 20, 2012 22:52\",\"genres\":[{\"id\":18,\"name\":\"Romance\"}],\"origin_country\":\"Korea\",\"image\":\"http://m0.viki.com/aHR0cDovL2MzLnZpa2lhc3NldHMuY29tL3VwbG9hZHMvY2hhbm5lbC90aHVtYm5haWwvNzIzOC8yNmU4YmI1OTQ4ODA4N2FhYTYwOWFiMDI1MzM2MGY5OGFjNWU0ZmUxLmpwZw==\",\"episodes\":{\"count\":6,\"uri\":\"http://www.viki.com/api/v3/series/7238/episodes.json\"},\"subtitles\":{\"tr\":99,\"pl\":99,\"pt\":99,\"en\":99,\"fr\":99,\"de\":99,\"es\":99,\"ro\":99,\"it\":99,\"sr\":99,\"id\":99,\"fa\":94,\"zh\":57,\"nl\":54,\"bg\":52,\"ms\":24,\"tl\":13,\"th\":10,\"ko\":9,\"ja\":6,\"se\":1,\"hm\":1}},{\"id\":7209,\"title\":\"K-POP Extreme Survival\",\"description\":\"Ji Seung Yeon dreams of becoming a Korean pop idol and will do anything to achieve her goal. When a popular K-pop group holds open auditions to recruit new members, Seung Yeon decides it\\u2019s her best shot at breaking into the industry. The hitch is that it\\u2019s a boy band, and she would need to dress up like a guy to try out. Just how far will Seung Yeon go to get what she wants \\u2013 and will she make the cut?\",\"uri\":\"http://www.viki.com/api/v3/series/7209.json\",\"created_at\":\"February 18, 2012 02:48\",\"genres\":[{\"id\":9,\"name\":\"Drama\"}],\"origin_country\":\"Korea\",\"image\":\"http://m0.viki.com/aHR0cDovL2MxLnZpa2lhc3NldHMuY29tL3VwbG9hZHMvY2hhbm5lbC90aHVtYm5haWwvNzIwOS82MmI3MDJhYWFlNzVhYzJjYjkxMzUwYzk1OWM4NWE1ZWJkYWVhMjMyLmpwZw==\",\"episodes\":{\"count\":14,\"uri\":\"http://www.viki.com/api/v3/series/7209/episodes.json\"},\"subtitles\":{\"ar\":100,\"tr\":100,\"nl\":99,\"hr\":99,\"ro\":99,\"bg\":99,\"sk\":99,\"en\":99,\"pt\":99,\"fr\":99,\"de\":99,\"pl\":99,\"es\":99,\"it\":97,\"no\":96,\"he\":96,\"cs\":61,\"sv\":60,\"id\":50,\"ru\":48,\"lt\":29,\"fi\":12,\"zh\":11,\"ko\":6,\"vi\":6,\"th\":6,\"da\":4,\"tl\":1}},{\"id\":7188,\"title\":\"Peeping Life \",\"description\":\"Peeping Life is the 5 minutes sketched series that portray the silliness and weird happenings in every day life conversations. Take a break from the stress of everyday life. Sit back and peep at how people around you live their days. You may enjoy it, laugh and maybe even feel the love. Peeping Life will deliver you fun and cute entertainment to your every day life! \",\"uri\":\"http://www.viki.com/api/v3/series/7188.json\",\"created_at\":\"February 16, 2012 05:42\",\"genres\":[{\"id\":2,\"name\":\"Anime\"}],\"origin_country\":\"Japan\",\"image\":\"http://m0.viki.com/aHR0cDovL2MyLnZpa2lhc3NldHMuY29tL3VwbG9hZHMvY2hhbm5lbC90aHVtYm5haWwvNzE4OC8wZTY1OGJjZTkxYzU2YzhmMWQ4MzVmZGM5MjNmZjdhNzA2OTBlNzYzLmpwZw==\",\"episodes\":{\"count\":40,\"uri\":\"http://www.viki.com/api/v3/series/7188/episodes.json\"},\"subtitles\":{\"en\":100}},{\"id\":7099,\"title\":\"The Two Coreys\",\"description\":\"Corey Feldman and Corey Haim are both former child actors who starred together in a string of hit movies starting with 1987\\u2019s \\u201cThe Lost Boys.\\u201d At the height of their teen idol fame, they were known as \\u201cThe Two Coreys.\\u201d But both faced drug abuse problems that stalled their careers. Feldman overcame them and turned his life around while Haim continued to be plagued by his demons until he became broke and homeless. Feldman took Haim into his home and they become a pair once again.\",\"uri\":\"http://www.viki.com/api/v3/series/7099.json\",\"created_at\":\"February 07, 2012 12:25\",\"genres\":[{\"id\":8,\"name\":\"Documentary\"}],\"origin_country\":\"United States\",\"image\":\"http://m1.viki.com/aHR0cDovL2MxLnZpa2lhc3NldHMuY29tL3VwbG9hZHMvY2hhbm5lbC90aHVtYm5haWwvNzA5OS8wMjE4YjEwNTdiZTJmZTA0ODk3ZTZjOTUzOGYyYjI5NzVjYWY2YjE2LmpwZw==\",\"episodes\":{\"count\":9,\"uri\":\"http://www.viki.com/api/v3/series/7099/episodes.json\"},\"subtitles\":{}},{\"id\":7098,\"title\":\"Spying on Myself\",\"description\":\"Participants in this reality show transform themselves to go undercover and discover what their family, friends and coworkers really think of them. A team of experts use the latest technology to change hairstyles, body types and even gender, and then give them acting and voice training to help participants walk and talk in their disguised personas. Will they achieve what they set out to learn or will the people they approach discover their real identities?\",\"uri\":\"http://www.viki.com/api/v3/series/7098.json\",\"created_at\":\"February 07, 2012 12:09\",\"genres\":[{\"id\":8,\"name\":\"Documentary\"}],\"origin_country\":\"United States\",\"image\":\"http://m0.viki.com/aHR0cDovL2MwLnZpa2lhc3NldHMuY29tL3VwbG9hZHMvY2hhbm5lbC90aHVtYm5haWwvNzA5OC9hNzYzN2MxMjhjMjQyMzY5NTYxYTM5OTQ0MWIxNGQ2NDUzMjI1OGI0LmpwZw==\",\"episodes\":{\"count\":8,\"uri\":\"http://www.viki.com/api/v3/series/7098/episodes.json\"},\"subtitles\":{}},{\"id\":7097,\"title\":\"Move This House\",\"description\":\"You've found your dream home, but now it's the dreaded moving day. Boxes and lifting and cleaning and getting the place ready for a brand new family. For the average person, moving day can be a stressful, messy ordeal! There's never enough time, manpower or money to make the move easy and seamless. This series will change all that. With the help of a designer and host, our new homeowners will be moved into the house of their dreams in days.\",\"uri\":\"http://www.viki.com/api/v3/series/7097.json\",\"created_at\":\"February 07, 2012 12:08\",\"genres\":[{\"id\":8,\"name\":\"Documentary\"}],\"origin_country\":\"United States\",\"image\":\"http://m3.viki.com/aHR0cDovL2MxLnZpa2lhc3NldHMuY29tL3VwbG9hZHMvY2hhbm5lbC90aHVtYm5haWwvNzA5Ny9lODc2MTg0NDVjZjg1Y2M0MWY2NjY3ZGE3ZTZhYmQxNmU3Y2RhYmE0LmpwZw==\",\"episodes\":{\"count\":9,\"uri\":\"http://www.viki.com/api/v3/series/7097/episodes.json\"},\"subtitles\":{}},{\"id\":7096,\"title\":\"Makeover Mamas\",\"description\":\"Two mothers-in-law receive $1,500 and two days to completely make over a room in their children's home. With the help of a professional interior designer, the moms do most of the work and take all of the credit--or blame--if the kids don't like the results! Host Stephanie Lydecker settles decorating disputes with the \\\"Mother-in-Law Challenge\\\"--a Q&A about the kids' private lives, and the Mama whose answer more closely matches the couple's answer wins, and her choice prevails. \",\"uri\":\"http://www.viki.com/api/v3/series/7096.json\",\"created_at\":\"February 07, 2012 12:07\",\"genres\":[{\"id\":8,\"name\":\"Documentary\"}],\"origin_country\":\"United States\",\"image\":\"http://m2.viki.com/aHR0cDovL2MyLnZpa2lhc3NldHMuY29tL3VwbG9hZHMvY2hhbm5lbC90aHVtYm5haWwvNzA5Ni80MzMzMTc5NzBlMmQ0OGIzODg3NDE4MGUwZTdlMDhiNWU1MmE4OGJhLmpwZw==\",\"episodes\":{\"count\":14,\"uri\":\"http://www.viki.com/api/v3/series/7096/episodes.json\"},\"subtitles\":{}},{\"id\":7095,\"title\":\"King of Cars\",\"description\":\"King of Cars is a raucous, behind the scenes look at the fast-talking world of car sales. The series follows 30-year-old Chop, a.k.a., the \\\"King of Cars.\\\" Chop runs a hugely successful auto empire in Nevada, while he balances his other real life roles as father, rap impresario, radio host, Vegas player and TV infomercial star and producer. The show follows his sales team as they struggle to seal their deals and showcase the production of \\\"The Chop Show\\\" \",\"uri\":\"http://www.viki.com/api/v3/series/7095.json\",\"created_at\":\"February 07, 2012 12:04\",\"genres\":[{\"id\":8,\"name\":\"Documentary\"}],\"origin_country\":\"United States\",\"image\":\"http://m0.viki.com/aHR0cDovL2MzLnZpa2lhc3NldHMuY29tL3VwbG9hZHMvY2hhbm5lbC90aHVtYm5haWwvNzA5NS83MTczOTcxYjZiOTc2N2NhMjExZWM5N2FhZDk0MWNkOGE4OWJkMjg0LmpwZw==\",\"episodes\":{\"count\":10,\"uri\":\"http://www.viki.com/api/v3/series/7095/episodes.json\"},\"subtitles\":{}}]}"
    http_version: 
  recorded_at: Fri, 15 Jun 2012 09:20:41 GMT
recorded_with: VCR 2.2.1
