--- 
http_interactions: 
- request: 
    method: get
    uri: http://viki.com/api/v3/series.json?access_token=1b080a6b3a94ed4503e04e252500ca87f6e7dc55061cec92b627ef1fbec44c70&origin_country=kr
    body: 
      encoding: US-ASCII
      string: ""
    headers: {}

  response: 
    status: 
      code: 301
      message: Moved Permanently
    headers: 
      Server: 
      - nginx
      Date: 
      - Fri, 15 Jun 2012 08:13:50 GMT
      Content-Type: 
      - text/plain
      Connection: 
      - keep-alive
      Location: 
      - http://www.viki.com/api/v3/series.json?origin_country=kr&access_token=1b080a6b3a94ed4503e04e252500ca87f6e7dc55061cec92b627ef1fbec44c70
      X-Rack-Cache: 
      - miss
      Content-Length: 
      - "9"
      X-Varnish: 
      - "848057575"
      Age: 
      - "0"
      Via: 
      - 1.1 varnish
    body: 
      encoding: US-ASCII
      string: "moved to "
    http_version: 
  recorded_at: Fri, 15 Jun 2012 08:13:50 GMT
- request: 
    method: get
    uri: http://www.viki.com/api/v3/series.json?access_token=1b080a6b3a94ed4503e04e252500ca87f6e7dc55061cec92b627ef1fbec44c70&origin_country=kr
    body: 
      encoding: US-ASCII
      string: ""
    headers: {}

  response: 
    status: 
      code: 200
      message: OK
    headers: 
      Server: 
      - nginx
      Date: 
      - Fri, 15 Jun 2012 08:13:51 GMT
      Content-Type: 
      - application/json; charset=utf-8
      Connection: 
      - keep-alive
      Cache-Control: 
      - public, max-age=3600
      Expires: 
      - Fri, 15 Jun 2012 09:13:51 GMT
      X-Ua-Compatible: 
      - IE=Edge,chrome=1
      Etag: 
      - "\"83415c210529ac8fe5984f4fd59dedc6\""
      X-Request-Id: 
      - 21ef6594d412ea5413858d0a4bcd0621
      X-Runtime: 
      - "0.500158"
      X-Content-Digest: 
      - af5773ae006642b965eed6778664d714a1e751f9
      X-Rack-Cache: 
      - miss, ignore, store
      Content-Length: 
      - "23002"
      X-Varnish: 
      - "1409834661"
      Age: 
      - "0"
      Via: 
      - 1.1 varnish
    body: 
      encoding: US-ASCII
      string: "{\"count\":155,\"pagination\":{\"previous\":\"\",\"next\":\"http://www.viki.com/api/v3/series.json?origin_country=kr&page=2\"},\"response\":[{\"id\":8719,\"title\":\"I love Lee Tae Ri\",\"description\":\"Min Soo is a 14-year-old teenager who wakes up one morning to discover that he has been transported into the body of 25-year-old Eun Dong. When he goes to work as an assistant to wealthy heiress Lee Tae Ri, his sweet innocence helps to bring the woman out of her emotional shell after being dumped by her first love. Will Eun Dong be able to discover love in his new identity or will he be able to return to his younger self?\",\"uri\":\"http://www.viki.com/api/v3/series/8719.json\",\"created_at\":\"May 28, 2012 19:45\",\"genres\":[],\"origin_country\":\"Korea\",\"image\":\"http://m3.viki.com/aHR0cDovL2MyLnZpa2lhc3NldHMuY29tL3VwbG9hZHMvY2hhbm5lbC90aHVtYm5haWwvODcxOS8yYjlmYzQ5ZDAzYWVkMjBlMzFkMTcwOWE3YWVhNzM3Y2NhMzg4MjkwLnBuZw==\",\"episodes\":{\"count\":6,\"uri\":\"http://www.viki.com/api/v3/series/8719/episodes.json\"},\"subtitles\":{\"en\":60,\"tl\":2,\"ko\":1}},{\"id\":8112,\"title\":\"Ghost\",\"description\":\"Kim Woo Hyun, an elite police detective in the cyber investigation division, goes after criminals who perpetrate crimes online or try to hide their identities in cyberspace. These cyber-criminals can\\u2019t be seen and are hard to pin down, just like a ghost. Even the police force\\u2019s top brain like Woo Hyun will meet his match as he tries to pursue these dangerous and secretive criminals on the Internet. How will he be able to track the shadows that lurk online?\",\"uri\":\"http://www.viki.com/api/v3/series/8112.json\",\"created_at\":\"May 09, 2012 09:13\",\"genres\":[{\"id\":7,\"name\":\"Crime\"}],\"origin_country\":\"Korea\",\"image\":\"http://m0.viki.com/aHR0cDovL2MwLnZpa2lhc3NldHMuY29tL3VwbG9hZHMvY2hhbm5lbC90aHVtYm5haWwvODExMi8xOTMyYjM0Y2ExNjA5ZTc2ODJjYmE1OWE5OWExYWE2NzY3MDY3ZmUzLmpwZw==\",\"episodes\":{\"count\":6,\"uri\":\"http://www.viki.com/api/v3/series/8112/episodes.json\"},\"subtitles\":{\"ro\":100,\"en\":100,\"es\":100,\"fr\":100,\"tr\":99,\"bg\":85,\"tl\":71,\"sr\":69,\"pt\":68,\"de\":52,\"id\":41,\"he\":15,\"th\":6,\"ja\":2,\"hm\":1,\"ko\":1}},{\"id\":7823,\"title\":\"Queen In Hyun's Man\",\"description\":\"Choi Hee Jin, an actress in Seoul, is preparing to play the role of a lifetime in a television drama \\u2013 that of Queen In Hyun, who was deposed during the Chosun Dynasty. Fate mysteriously transports Kim Boong Do, a scholar from the Chosun era who supported the reinstatement of the real Queen In Hyun, into the modern-day life of Hee Jin as she is preparing for her career-making role. Can Boong Do help Hee Jin become a star by bringing some authenticity to her role as the queen?\",\"uri\":\"http://www.viki.com/api/v3/series/7823.json\",\"created_at\":\"April 08, 2012 08:44\",\"genres\":[{\"id\":18,\"name\":\"Romance\"}],\"origin_country\":\"Korea\",\"image\":\"http://m2.viki.com/aHR0cDovL2MwLnZpa2lhc3NldHMuY29tL3VwbG9hZHMvY2hhbm5lbC90aHVtYm5haWwvNzgyMy82MjI0OTM0ZGQ5NWEwZjg4YzIwZTViOTg1NWQ4NDUxZjAzZTFiYWJiLmpwZw==\",\"episodes\":{\"count\":16,\"uri\":\"http://www.viki.com/api/v3/series/7823/episodes.json\"},\"subtitles\":{\"ko\":1}},{\"id\":7630,\"title\":\"The Show 2\",\"description\":\"A place where you can come across music trends first. It's a place where your body can feel every beat and rhythm. It's a music program produced on the concept of a club!\\r\\nA stage is an actual club in Korea where Korea's club culture and the latest KPop groove can be experienced first-hand! In addition to the MC's, the program focuses on the DJ, who will lead the show with a party ambiance, where everyone and anyone can enjoy all the latest beats.\",\"uri\":\"http://www.viki.com/api/v3/series/7630.json\",\"created_at\":\"March 23, 2012 08:18\",\"genres\":[{\"id\":21,\"name\":\"Variety Show\"}],\"origin_country\":\"Korea\",\"image\":\"http://m0.viki.com/aHR0cDovL2MzLnZpa2lhc3NldHMuY29tL3VwbG9hZHMvY2hhbm5lbC90aHVtYm5haWwvNzYzMC82ZjUxNzRlMGFhYzNiYjcyYzA3OWZkYjU1MjQwYmVjM2FlMTkyZTA5LmpwZw==\",\"episodes\":{\"count\":8,\"uri\":\"http://www.viki.com/api/v3/series/7630/episodes.json\"},\"subtitles\":{\"es\":100,\"en\":96,\"fr\":96,\"it\":96,\"no\":96,\"tr\":68,\"nl\":27,\"pl\":27,\"de\":20,\"ko\":3,\"th\":1,\"vi\":1}},{\"id\":7372,\"title\":\"2AM SHOW : Live in 3D \",\"description\":\"An intimate look at the K-pop boy band 2AM \\u2013 and everything you wanted to know about the members, Jo Kwon, Jinwoon, Seulong and Changmin \\u2013 in the first concert movie in 3D!\",\"uri\":\"http://www.viki.com/api/v3/series/7372.json\",\"created_at\":\"February 29, 2012 06:23\",\"genres\":[{\"id\":17,\"name\":\"Music\"}],\"origin_country\":\"Korea\",\"image\":\"http://m0.viki.com/aHR0cDovL2MxLnZpa2lhc3NldHMuY29tL3VwbG9hZHMvY2hhbm5lbC90aHVtYm5haWwvNzM3Mi84NWQ3NjQ5MjExNGU0NGU4ODBmZDdhYzIzZWU2NDAzNDc2Nzg2OTkyLmpwZw==\",\"episodes\":{\"count\":1,\"uri\":\"http://www.viki.com/api/v3/series/7372/episodes.json\"},\"subtitles\":{\"en\":100,\"it\":100,\"pt\":100,\"fr\":99,\"es\":88,\"ro\":64,\"th\":33,\"de\":19,\"tr\":1}},{\"id\":7371,\"title\":\"Wheesung : It's Real Concert\",\"description\":\"Wheesung's 'It's Real' concert goes behind the scenes of the making of this movie-concert, from planning meetings to rehearsals, and even let's us in on his trivial daily life at home. He not only reveals himself as a singer, but as a lyricist and just an ordinary man. Let's take an exclusive first look at what Wheesung's everyday life is like and get to know the REAL Wheesung! \",\"uri\":\"http://www.viki.com/api/v3/series/7371.json\",\"created_at\":\"February 29, 2012 06:22\",\"genres\":[{\"id\":21,\"name\":\"Variety Show\"}],\"origin_country\":\"Korea\",\"image\":\"http://m3.viki.com/aHR0cDovL2MzLnZpa2lhc3NldHMuY29tL3VwbG9hZHMvY2hhbm5lbC90aHVtYm5haWwvNzM3MS8xYjMyYmJkZGM1YzAxOGVjMTc0ZTMyNGIzOTAyMDhhZDZiOTk3N2M2LmpwZw==\",\"episodes\":{\"count\":1,\"uri\":\"http://www.viki.com/api/v3/series/7371/episodes.json\"},\"subtitles\":{\"en\":100,\"fr\":100,\"es\":100,\"id\":96,\"ko\":1}},{\"id\":7368,\"title\":\"Inspire Now\",\"description\":\"Inspire Now is a show which deals with overall trends in fashion and beauty industry, culture, and lifestyle. Each episode will show a vivid picture of lives of people in fashion industry. It will also tell a viewer tips and know-hows from designers, fashion editors and stylists.\",\"uri\":\"http://www.viki.com/api/v3/series/7368.json\",\"created_at\":\"February 29, 2012 01:21\",\"genres\":[{\"id\":10,\"name\":\"Entertainment\"}],\"origin_country\":\"Korea\",\"image\":\"http://m3.viki.com/aHR0cDovL2MyLnZpa2lhc3NldHMuY29tL3VwbG9hZHMvY2hhbm5lbC90aHVtYm5haWwvNzM2OC8zZTQ5NGExZjBmNmJkMjllMmE3YWQ4ODJlMWJlYzg0YTY3ZTA5ODI5LmpwZw==\",\"episodes\":{\"count\":18,\"uri\":\"http://www.viki.com/api/v3/series/7368/episodes.json\"},\"subtitles\":{\"en\":100,\"fr\":38}},{\"id\":7367,\"title\":\"Unbelievable Outing\",\"description\":\"In this real variety show \\u201cUnbelievable Outing\\u201d, six comedians go on a trip for two days together and show their unrevealed talent. With uncommon games and penalties, they offer big laughs.\\r\\n\\r\\n\\r\\n\",\"uri\":\"http://www.viki.com/api/v3/series/7367.json\",\"created_at\":\"February 29, 2012 01:19\",\"genres\":[{\"id\":21,\"name\":\"Variety Show\"}],\"origin_country\":\"Korea\",\"image\":\"http://m3.viki.com/aHR0cDovL2MyLnZpa2lhc3NldHMuY29tL3VwbG9hZHMvY2hhbm5lbC90aHVtYm5haWwvNzM2Ny83YTkzY2U5NmE4YWI1YjQzOWVjM2Q1NzFlY2FmY2UwMGQxYzJiNTIyLmpwZw==\",\"episodes\":{\"count\":13,\"uri\":\"http://www.viki.com/api/v3/series/7367/episodes.json\"},\"subtitles\":{\"ko\":24,\"en\":20,\"es\":6,\"fr\":1}},{\"id\":7366,\"title\":\"Star Velo\",\"description\":\"This is one of representative shows of Elle TV, a fashion TV channel. This show is a bicycle travelogue of earth-loving and eco-friendly celebrities. Viewers can enjoy two episodes-- an episode of Ha Ji Won and Kim Myoung Min's trip in Amsterdam and the other of Song Joong Ki's trip in Australia.\",\"uri\":\"http://www.viki.com/api/v3/series/7366.json\",\"created_at\":\"February 29, 2012 01:18\",\"genres\":[{\"id\":8,\"name\":\"Documentary\"}],\"origin_country\":\"Korea\",\"image\":\"http://m3.viki.com/aHR0cDovL2MxLnZpa2lhc3NldHMuY29tL3VwbG9hZHMvY2hhbm5lbC90aHVtYm5haWwvNzM2Ni84ZWJkMWMwZjllYmU2ZDg2NTg1ZTA5Mjc4YjEzY2UyYTU3Nzk4NzMzLmpwZw==\",\"episodes\":{\"count\":2,\"uri\":\"http://www.viki.com/api/v3/series/7366/episodes.json\"},\"subtitles\":{\"en\":100,\"fr\":15,\"es\":11,\"ro\":10,\"tr\":1}},{\"id\":7365,\"title\":\"It Travel\",\"description\":\"A show that brings you to the places around the world with your favorite Hallyu stars. Start your journey with the stars here!\",\"uri\":\"http://www.viki.com/api/v3/series/7365.json\",\"created_at\":\"February 29, 2012 01:17\",\"genres\":[{\"id\":8,\"name\":\"Documentary\"}],\"origin_country\":\"Korea\",\"image\":\"http://m3.viki.com/aHR0cDovL2MxLnZpa2lhc3NldHMuY29tL3VwbG9hZHMvY2hhbm5lbC90aHVtYm5haWwvNzM2NS9hODQ1ZjZhY2VkYmNkNTczZGM3NDQyNTc5ODFkMmFiZjZjMzk3NWMyLmpwZw==\",\"episodes\":{\"count\":6,\"uri\":\"http://www.viki.com/api/v3/series/7365/episodes.json\"},\"subtitles\":{\"es\":100,\"ro\":100,\"en\":100,\"fr\":100,\"cs\":99,\"vi\":27,\"tr\":22,\"ko\":1,\"zh\":1}},{\"id\":7360,\"title\":\"Immortal Classic\",\"description\":\"A secret recipe book for making great kimchee has been passed down from generation to generation in the same family for hundreds of years. The current protector of the recipes, Park Gye Hyang, is the national cultural asset for cooking in Korea. One remote restaurant is famed for serving kimchee that tastes better than Gye Hyang\\u2019s. The two families may be linked by the same secret recipes, and others want to get their hands on them for their own personal gain. Whose kimchee will prevail?\",\"uri\":\"http://www.viki.com/api/v3/series/7360.json\",\"created_at\":\"February 28, 2012 08:32\",\"genres\":[],\"origin_country\":\"Korea\",\"image\":\"http://m2.viki.com/aHR0cDovL2MxLnZpa2lhc3NldHMuY29tL3VwbG9hZHMvY2hhbm5lbC90aHVtYm5haWwvNzM2MC9mZWMxYzI2ZTQzNDZhMGU5MjA2YmM5ZWE4MjM0NDhkNmZjZDRlMjZhLmpwZw==\",\"episodes\":{\"count\":20,\"uri\":\"http://www.viki.com/api/v3/series/7360/episodes.json\"},\"subtitles\":{\"en\":100,\"es\":100,\"tr\":99,\"ro\":99,\"de\":99,\"fr\":96,\"ar\":82,\"id\":22,\"gl\":1,\"pl\":1,\"bg\":1,\"ko\":1}},{\"id\":7359,\"title\":\"Big\",\"description\":\"After a tragic car accident, 18-year-old Kang Gyung Joon discovers that his spirit has been transported to the body of 30-year-old Seo Yoon Jae. Yoon Jae is a successful doctor who is engaged to high school teacher Gil Da Ran. But Da Ran just so happens to be Gyung Joon\\u2019s teacher. What is a boy to do when he discovers that he has become his own teacher\\u2019s fianc\\u00e9 by a freak of nature? Will he be able to return to his own normal life or is he doomed to live out the older man\\u2019s instead?\",\"uri\":\"http://www.viki.com/api/v3/series/7359.json\",\"created_at\":\"February 28, 2012 04:56\",\"genres\":[],\"origin_country\":\"Korea\",\"image\":\"http://m1.viki.com/aHR0cDovL2MyLnZpa2lhc3NldHMuY29tL3VwbG9hZHMvY2hhbm5lbC90aHVtYm5haWwvNzM1OS82ZTQ2N2M5OWJmZWQyNGNkYjgxZGUzNjczMmY4ODFlNjNlOGQzYTNkLmpwZw==\",\"episodes\":{\"count\":4,\"uri\":\"http://www.viki.com/api/v3/series/7359/episodes.json\"},\"subtitles\":{\"ar\":100,\"ro\":100,\"en\":100,\"fr\":100,\"it\":100,\"tr\":100,\"es\":99,\"el\":99,\"pt\":99,\"tl\":65,\"de\":57,\"ja\":32,\"id\":23,\"bg\":12,\"ko\":9,\"sh\":6,\"th\":5,\"ru\":2,\"la\":1}},{\"id\":7324,\"title\":\"The Wedding Scheme\",\"description\":\"A drama about a mother who plans to get married to her four daughters.\",\"uri\":\"http://www.viki.com/api/v3/series/7324.json\",\"created_at\":\"February 25, 2012 01:30\",\"genres\":[{\"id\":6,\"name\":\"Comedy\"},{\"id\":9,\"name\":\"Drama\"}],\"origin_country\":\"Korea\",\"image\":\"http://m3.viki.com/aHR0cDovL2MxLnZpa2lhc3NldHMuY29tL3VwbG9hZHMvY2hhbm5lbC90aHVtYm5haWwvNzMyNC8wZWVhMTNmOTdmNDk2NTFiM2EzNTAxMzA2OWVmYzM5MmI3NjNlMTNmLmpwZw==\",\"episodes\":{\"count\":7,\"uri\":\"http://www.viki.com/api/v3/series/7324/episodes.json\"},\"subtitles\":{}},{\"id\":7238,\"title\":\"Dr. Jin\",\"description\":\"Dr. Jin Hyuk, a renowned modern-day neurosurgeon, is transported back 150 years to the Chosun Dynasty and forced to practice medicine during a much more primitive era. He meets Hong Young Rae, a nobleman\\u2019s daughter bearing a striking resemblance to his lost love, who is caught in the midst of a power struggle between the royal family and members of the most powerful Ahn Dong Kim family. Will Dr. Jin be able to survive his new surroundings and find his way back to his own time period?\",\"uri\":\"http://www.viki.com/api/v3/series/7238.json\",\"created_at\":\"February 20, 2012 22:52\",\"genres\":[{\"id\":18,\"name\":\"Romance\"}],\"origin_country\":\"Korea\",\"image\":\"http://m0.viki.com/aHR0cDovL2MzLnZpa2lhc3NldHMuY29tL3VwbG9hZHMvY2hhbm5lbC90aHVtYm5haWwvNzIzOC8yNmU4YmI1OTQ4ODA4N2FhYTYwOWFiMDI1MzM2MGY5OGFjNWU0ZmUxLmpwZw==\",\"episodes\":{\"count\":6,\"uri\":\"http://www.viki.com/api/v3/series/7238/episodes.json\"},\"subtitles\":{\"tr\":99,\"pl\":99,\"pt\":99,\"en\":99,\"fr\":99,\"de\":99,\"es\":99,\"ro\":99,\"it\":99,\"sr\":99,\"id\":99,\"fa\":94,\"zh\":57,\"nl\":54,\"bg\":52,\"ms\":24,\"tl\":13,\"th\":10,\"ko\":9,\"ja\":6,\"se\":1,\"hm\":1}},{\"id\":7209,\"title\":\"K-POP Extreme Survival\",\"description\":\"Ji Seung Yeon dreams of becoming a Korean pop idol and will do anything to achieve her goal. When a popular K-pop group holds open auditions to recruit new members, Seung Yeon decides it\\u2019s her best shot at breaking into the industry. The hitch is that it\\u2019s a boy band, and she would need to dress up like a guy to try out. Just how far will Seung Yeon go to get what she wants \\u2013 and will she make the cut?\",\"uri\":\"http://www.viki.com/api/v3/series/7209.json\",\"created_at\":\"February 18, 2012 02:48\",\"genres\":[{\"id\":9,\"name\":\"Drama\"}],\"origin_country\":\"Korea\",\"image\":\"http://m2.viki.com/aHR0cDovL2MzLnZpa2lhc3NldHMuY29tL3VwbG9hZHMvY2hhbm5lbC90aHVtYm5haWwvNzIwOS82MmI3MDJhYWFlNzVhYzJjYjkxMzUwYzk1OWM4NWE1ZWJkYWVhMjMyLmpwZw==\",\"episodes\":{\"count\":14,\"uri\":\"http://www.viki.com/api/v3/series/7209/episodes.json\"},\"subtitles\":{\"ar\":100,\"tr\":100,\"nl\":99,\"hr\":99,\"ro\":99,\"bg\":99,\"sk\":99,\"en\":99,\"pt\":99,\"fr\":99,\"de\":99,\"pl\":99,\"es\":99,\"it\":97,\"no\":96,\"he\":96,\"cs\":61,\"sv\":60,\"id\":50,\"ru\":48,\"lt\":29,\"fi\":12,\"zh\":11,\"ko\":6,\"vi\":6,\"th\":6,\"da\":4,\"tl\":1}},{\"id\":6998,\"title\":\"Twelve Men in a Year\",\"description\":\"It tells the history of a on the relations of above to below of a 29-year-old woman.\",\"uri\":\"http://www.viki.com/api/v3/series/6998.json\",\"created_at\":\"January 28, 2012 06:33\",\"genres\":[{\"id\":18,\"name\":\"Romance\"}],\"origin_country\":\"Korea\",\"image\":\"http://m1.viki.com/aHR0cDovL2MyLnZpa2lhc3NldHMuY29tL3VwbG9hZHMvY2hhbm5lbC90aHVtYm5haWwvNjk5OC84ZTFjMjZiZTQ0MDg0YjdiZjcyZGQ4MTgxM2Y5YTNlNTE0YWYzZTkyLmpwZw==\",\"episodes\":{\"count\":4,\"uri\":\"http://www.viki.com/api/v3/series/6998/episodes.json\"},\"subtitles\":{}},{\"id\":6784,\"title\":\"Rooftop Prince (\\uc625\\ud0d1\\ubc29 \\uc655\\uc138\\uc790)\",\"description\":\"Crown Prince Yi Gak finds that he has been transported from the Chosun Dynasty to modern-day Seoul. He meets Hong Se Na, who bears a striking resemblance to his dead wife, and is determined to solve the 300-year-old mystery of her death. With his own resemblance to the CEO\\u2019s grandson at the company where Se Na works, Gak assumes the identity of the young man to stay close to her. Can the Crown Prince navigate a modern corporation to find clues to his own time period?\",\"uri\":\"http://www.viki.com/api/v3/series/6784.json\",\"created_at\":\"January 06, 2012 00:28\",\"genres\":[{\"id\":6,\"name\":\"Comedy\"},{\"id\":9,\"name\":\"Drama\"},{\"id\":18,\"name\":\"Romance\"},{\"id\":19,\"name\":\"SciFi & Fantasy\"}],\"origin_country\":\"Korea\",\"image\":\"http://m1.viki.com/aHR0cDovL2MyLnZpa2lhc3NldHMuY29tL3VwbG9hZHMvY2hhbm5lbC90aHVtYm5haWwvNjc4NC85ZmFmNGUxMjEzNzNlOWY2ZDMyZDViOTBlNjgzYTNlM2ZkZjI5NWQ3LmpwZw==\",\"episodes\":{\"count\":20,\"uri\":\"http://www.viki.com/api/v3/series/6784/episodes.json\"},\"subtitles\":{\"pl\":100,\"tr\":100,\"pt\":100,\"es\":100,\"en\":100,\"fr\":100,\"de\":100,\"it\":100,\"ro\":100,\"sr\":100,\"el\":100,\"id\":99,\"hm\":98,\"th\":98,\"ms\":97,\"ar\":96,\"ko\":94,\"ja\":62,\"tl\":50,\"zh\":36,\"fa\":30,\"vi\":26,\"hy\":10,\"ru\":8,\"km\":5,\"se\":1}},{\"id\":6766,\"title\":\"God's Quiz 3\",\"description\":\"Han Jin Woo, South Korea\\u2019s top medical examiner, he leads a team of forensic medicine experts as they try to solve hard-to-crack homicides and other major crimes and put the perpetrators behind bars. But can Jin Woo solve all of the tough cases that come before him or will a case be too difficult even for him to solve?\",\"uri\":\"http://www.viki.com/api/v3/series/6766.json\",\"created_at\":\"January 03, 2012 19:31\",\"genres\":[],\"origin_country\":\"Korea\",\"image\":\"http://m3.viki.com/aHR0cDovL2MzLnZpa2lhc3NldHMuY29tL3VwbG9hZHMvY2hhbm5lbC90aHVtYm5haWwvNjc2Ni9lY2Q0ZDc5M2JlNjJjOWM0ZjQwNzU0NjVjYWFjNWE5YzgxYjhlZDVlLmpwZw==\",\"episodes\":{\"count\":4,\"uri\":\"http://www.viki.com/api/v3/series/6766/episodes.json\"},\"subtitles\":{}},{\"id\":6669,\"title\":\"Heaven's Garden\",\"description\":\"Jung Jae In renounced her family to marry a divorced man with a young daughter. For a while, they lived an idyllic life in Seoul, until her husband\\u2019s business goes bankrupt and he is imprisoned. Desperate, she packs up her stepdaughter and daughter and returns to her family home in the picturesque Kangwon Province mountainside and asks the father who disowned her for help. Can Jae In mend the fractured relationship with her father and salvage her own family?\",\"uri\":\"http://www.viki.com/api/v3/series/6669.json\",\"created_at\":\"December 22, 2011 07:02\",\"genres\":[{\"id\":9,\"name\":\"Drama\"}],\"origin_country\":\"Korea\",\"image\":\"http://m2.viki.com/aHR0cDovL2MyLnZpa2lhc3NldHMuY29tL3VwbG9hZHMvY2hhbm5lbC90aHVtYm5haWwvNjY2OS8wMTg4NWI1NzZiZDRlODI4MGI0OTJmZTMwYjY4OGIwNzA5ZmZjOGYwLmpwZw==\",\"episodes\":{\"count\":30,\"uri\":\"http://www.viki.com/api/v3/series/6669/episodes.json\"},\"subtitles\":{\"es\":100,\"en\":100,\"fr\":99,\"ro\":99,\"tr\":87,\"id\":57,\"ar\":13,\"de\":6,\"hi\":6,\"pl\":1,\"tl\":1,\"ko\":1}},{\"id\":6625,\"title\":\"I do, I do\",\"description\":\"Hwang Ji An is the top shoe designer in a major shoe company. She is in her 30s, successful and single. One night, she makes a horrible mistake and sleeps with Park Tae Gang, a good-looking new employee in her company, and she finds out she is pregnant. Ji An\\u2019s hard-earned career and her stylish lifestyle threatens to implode as a result of her one-night-stand mistake. Will Ji An be forced to give up everything and live with the consequences of her mistake?\",\"uri\":\"http://www.viki.com/api/v3/series/6625.json\",\"created_at\":\"December 20, 2011 03:01\",\"genres\":[{\"id\":18,\"name\":\"Romance\"}],\"origin_country\":\"Korea\",\"image\":\"http://m0.viki.com/aHR0cDovL2MzLnZpa2lhc3NldHMuY29tL3VwbG9hZHMvY2hhbm5lbC90aHVtYm5haWwvNjYyNS81ZjZjM2I3ZTFjNDg1N2EwNjY4MmJkZDljNDNjOTFmMzRkMWUyNDFkLnBuZw==\",\"episodes\":{\"count\":6,\"uri\":\"http://www.viki.com/api/v3/series/6625/episodes.json\"},\"subtitles\":{\"fr\":100,\"tr\":100,\"id\":100,\"en\":100,\"ar\":99,\"ro\":99,\"es\":99,\"de\":98,\"ms\":98,\"ko\":97,\"pl\":45,\"vi\":43,\"it\":23,\"pt\":18,\"sh\":8,\"th\":5,\"bg\":5,\"nl\":4,\"ja\":4,\"tl\":1}},{\"id\":6604,\"title\":\"Fashion King\",\"description\":\"Kang Young Gul works his humble stall at the Dongdaemun Market, a crowded fashion district in Seoul known for its cheap clothing and wannabe designers. But he aspires to become a famous fashion designer one day. He gets the support he needs from Lee Ga Young, a confident young woman who shares his aspirations. Will they be able to go from their humble beginnings and achieve success in the dog-eat-dog world of the fashion industry? \",\"uri\":\"http://www.viki.com/api/v3/series/6604.json\",\"created_at\":\"December 15, 2011 12:47\",\"genres\":[{\"id\":9,\"name\":\"Drama\"}],\"origin_country\":\"Korea\",\"image\":\"http://m3.viki.com/aHR0cDovL2MxLnZpa2lhc3NldHMuY29tL3VwbG9hZHMvY2hhbm5lbC90aHVtYm5haWwvNjYwNC9lZGM1ZTMyNDhkZmU5YjZkN2JkM2IxNTkzMDRmYzUwNzkxZmRlYTY5LnBuZw==\",\"episodes\":{\"count\":20,\"uri\":\"http://www.viki.com/api/v3/series/6604/episodes.json\"},\"subtitles\":{\"vi\":100,\"tr\":100,\"en\":100,\"fr\":100,\"th\":100,\"es\":100,\"ro\":100,\"pt\":100,\"bg\":99,\"de\":70,\"zh\":37,\"id\":18,\"ja\":11,\"ko\":1}},{\"id\":6438,\"title\":\"Feast of the Gods\",\"description\":\"The true heir to a culinary dynasty was lost as a child but still discovered the love of cooking in the school of hard knocks. An orphaned girl was raised by a master chef in the place of her lost daughter and trained from a young age to follow in the family tradition. When these two women are brought together by fate to face each other in a cooking competition, will natural talent or meticulous training emerge victorious?\",\"uri\":\"http://www.viki.com/api/v3/series/6438.json\",\"created_at\":\"November 30, 2011 13:38\",\"genres\":[],\"origin_country\":\"Korea\",\"image\":\"http://m1.viki.com/aHR0cDovL2MyLnZpa2lhc3NldHMuY29tL3VwbG9hZHMvY2hhbm5lbC90aHVtYm5haWwvNjQzOC8yMjEzMDg1MjhlNjQ1OTNhNjkyY2I3YmFkYzE4YTMyN2JjNGQ5YTk0LmpwZw==\",\"episodes\":{\"count\":32,\"uri\":\"http://www.viki.com/api/v3/series/6438/episodes.json\"},\"subtitles\":{\"it\":100,\"fr\":100,\"es\":100,\"en\":99,\"ms\":99,\"id\":99,\"ja\":24,\"tl\":18,\"pt\":1}},{\"id\":6431,\"title\":\"The Show \",\"description\":\"\\\"The Show\\\" is a new form of music show. Through three sections called 'The Hot Singer', 'Super Rookie', and 'Comeback Stage', you are able to enjoy the performances of various artists. 'Special Unit' section will provide a unique entertainment and anticipation to the viewers. Outstandingly lively ' secret\\u2019s Hyo Sung' and 'f(x)\\u2019s Luna' as the main MCs will be the hosts, and viewers will be able to feel a more refreshing and vibrant atmosphere than any other shows.\\r\\n\",\"uri\":\"http://www.viki.com/api/v3/series/6431.json\",\"created_at\":\"November 29, 2011 08:18\",\"genres\":[{\"id\":17,\"name\":\"Music\"}],\"origin_country\":\"Korea\",\"image\":\"http://m0.viki.com/aHR0cDovL2MxLnZpa2lhc3NldHMuY29tL3VwbG9hZHMvY2hhbm5lbC90aHVtYm5haWwvNjQzMS84OWU5NDQyYWFhNWQ2MDRhYmVkMTk2NjY4ODgwZDM1NWQ3YjZhZTY3LmpwZw==\",\"episodes\":{\"count\":34,\"uri\":\"http://www.viki.com/api/v3/series/6431/episodes.json\"},\"subtitles\":{\"en\":100,\"it\":100,\"fr\":95,\"es\":95,\"tr\":4}},{\"id\":6344,\"title\":\"The Beauty's Taming The Idol Stars\",\"description\":\"Cheondung of MBLAQ wants to improve his physique through yoga. Key of Shinee wants to learn to cook. Shin Dong Ho of UKISS wants to improve his English. The three South Korean singing idols are challenged to learn each of these skills from beautiful female teachers. Will the idols be able to buckle down to achieve their goals?\",\"uri\":\"http://www.viki.com/api/v3/series/6344.json\",\"created_at\":\"November 21, 2011 07:28\",\"genres\":[{\"id\":21,\"name\":\"Variety Show\"}],\"origin_country\":\"Korea\",\"image\":\"http://m3.viki.com/aHR0cDovL2MzLnZpa2lhc3NldHMuY29tL3VwbG9hZHMvY2hhbm5lbC90aHVtYm5haWwvNjM0NC85NTM2ZWQ2YjE5NDc3NTQ2NTk1ZDg0MGIyYjRlZGU2ODIyYmE3NDFiLmpwZw==\",\"episodes\":{\"count\":8,\"uri\":\"http://www.viki.com/api/v3/series/6344/episodes.json\"},\"subtitles\":{\"ar\":100,\"pt\":100,\"tl\":100,\"en\":100,\"fr\":100,\"es\":100,\"ro\":99,\"tr\":74,\"nl\":37,\"ko\":20,\"de\":18,\"vi\":8,\"pl\":7,\"zh\":2}},{\"id\":6343,\"title\":\"Special D-day: KARA\",\"description\":\"Watch as the famous Korean girl group, KARA, show you their day to day lives. Step foot into their photo shoots and watch in-depth interviews about the joys and difficulties of being a group.\",\"uri\":\"http://www.viki.com/api/v3/series/6343.json\",\"created_at\":\"November 21, 2011 07:14\",\"genres\":[{\"id\":8,\"name\":\"Documentary\"}],\"origin_country\":\"Korea\",\"image\":\"http://m3.viki.com/aHR0cDovL2MwLnZpa2lhc3NldHMuY29tL3VwbG9hZHMvY2hhbm5lbC90aHVtYm5haWwvNjM0My83ZmEwYTllZDBlODdmOWUyYzI2MzBkZTQzYmM3Yzk1ZTBhMDJlMGFhLmpwZw==\",\"episodes\":{\"count\":2,\"uri\":\"http://www.viki.com/api/v3/series/6343/episodes.json\"},\"subtitles\":{\"en\":100,\"fr\":100,\"id\":99,\"tr\":23,\"ro\":10,\"ja\":9,\"es\":8}}]}"
    http_version: 
  recorded_at: Fri, 15 Jun 2012 08:13:52 GMT
recorded_with: VCR 2.2.1
