--- 
http_interactions: 
- request: 
    method: get
    uri: http://viki.com/api/v3/series.json?access_token=1b080a6b3a94ed4503e04e252500ca87f6e7dc55061cec92b627ef1fbec44c70&platform=mobile&watchable_in=sg
    body: 
      encoding: US-ASCII
      string: ""
    headers: {}

  response: 
    status: 
      code: 301
      message: Moved Permanently
    headers: 
      Server: 
      - nginx
      Date: 
      - Fri, 15 Jun 2012 08:13:53 GMT
      Content-Type: 
      - text/plain
      Connection: 
      - keep-alive
      Location: 
      - http://www.viki.com/api/v3/series.json?platform=mobile&watchable_in=sg&access_token=1b080a6b3a94ed4503e04e252500ca87f6e7dc55061cec92b627ef1fbec44c70
      X-Rack-Cache: 
      - miss
      Content-Length: 
      - "9"
      X-Varnish: 
      - "607804285"
      Age: 
      - "0"
      Via: 
      - 1.1 varnish
    body: 
      encoding: US-ASCII
      string: "moved to "
    http_version: 
  recorded_at: Fri, 15 Jun 2012 08:13:54 GMT
- request: 
    method: get
    uri: http://www.viki.com/api/v3/series.json?access_token=1b080a6b3a94ed4503e04e252500ca87f6e7dc55061cec92b627ef1fbec44c70&platform=mobile&watchable_in=sg
    body: 
      encoding: US-ASCII
      string: ""
    headers: {}

  response: 
    status: 
      code: 200
      message: OK
    headers: 
      Server: 
      - nginx
      Date: 
      - Fri, 15 Jun 2012 08:13:59 GMT
      Content-Type: 
      - application/json; charset=utf-8
      Connection: 
      - keep-alive
      Cache-Control: 
      - public, max-age=3600
      Expires: 
      - Fri, 15 Jun 2012 09:13:59 GMT
      X-Ua-Compatible: 
      - IE=Edge,chrome=1
      Etag: 
      - "\"7c79c06f94e9e361560b71975fdbe82a\""
      X-Request-Id: 
      - 22f41d30a7dfae7ef15ea095b773241c
      X-Runtime: 
      - "3.149489"
      X-Content-Digest: 
      - 321183925a46584f93414e0a7469d08eadbcfe02
      X-Rack-Cache: 
      - miss, ignore, store
      Content-Length: 
      - "21398"
      X-Varnish: 
      - "609601074"
      Age: 
      - "0"
      Via: 
      - 1.1 varnish
    body: 
      encoding: US-ASCII
      string: "{\"count\":117,\"pagination\":{\"previous\":\"\",\"next\":\"http://www.viki.com/api/v3/series.json?page=2&platform=mobile&watchable_in=sg\"},\"response\":[{\"id\":7687,\"title\":\"Ghar Ki Baat Hai\",\"description\":\"What can you do when your wife\\u2019s family moves in and causes nothing but trouble? For Rajdeep Yagnik, daily life is a little more aggravating because his wife\\u2019s brother lives with them in Mumbai and does nothing all day except find ways to amuse himself. The freeloader seems to get into some kind of mess that requires Rajdeep to fix and clean up. How much longer can he take this craziness?\",\"uri\":\"http://www.viki.com/api/v3/series/7687.json\",\"created_at\":\"March 30, 2012 05:35\",\"genres\":[{\"id\":6,\"name\":\"Comedy\"}],\"origin_country\":\"India\",\"image\":\"http://m3.viki.com/aHR0cDovL2MwLnZpa2lhc3NldHMuY29tL3VwbG9hZHMvY2hhbm5lbC90aHVtYm5haWwvNzY4Ny84YWNlZDQ1YzE0ZmYxYTRjNDgwMmYzYWVhOTNkYmZmZWMyZjQ5YTRkLnBuZw==\",\"episodes\":{\"count\":29,\"uri\":\"http://www.viki.com/api/v3/series/7687/episodes.json\"},\"subtitles\":{}},{\"id\":7630,\"title\":\"The Show 2\",\"description\":\"A place where you can come across music trends first. It's a place where your body can feel every beat and rhythm. It's a music program produced on the concept of a club!\\r\\nA stage is an actual club in Korea where Korea's club culture and the latest KPop groove can be experienced first-hand! In addition to the MC's, the program focuses on the DJ, who will lead the show with a party ambiance, where everyone and anyone can enjoy all the latest beats.\",\"uri\":\"http://www.viki.com/api/v3/series/7630.json\",\"created_at\":\"March 23, 2012 08:18\",\"genres\":[{\"id\":21,\"name\":\"Variety Show\"}],\"origin_country\":\"Korea\",\"image\":\"http://m0.viki.com/aHR0cDovL2MzLnZpa2lhc3NldHMuY29tL3VwbG9hZHMvY2hhbm5lbC90aHVtYm5haWwvNzYzMC82ZjUxNzRlMGFhYzNiYjcyYzA3OWZkYjU1MjQwYmVjM2FlMTkyZTA5LmpwZw==\",\"episodes\":{\"count\":8,\"uri\":\"http://www.viki.com/api/v3/series/7630/episodes.json\"},\"subtitles\":{\"es\":100,\"en\":96,\"fr\":96,\"it\":96,\"no\":96,\"tr\":68,\"nl\":27,\"pl\":27,\"de\":20,\"ko\":3,\"th\":1,\"vi\":1}},{\"id\":7553,\"title\":\"Showbiz - Taiwanese Entertainment News\",\"description\":\"Get the latest news about celebrities, the music scene and all things having to do with the entertainment industry in this one-hour daily entertainment news show. \\u201cShowbiz\\u201d is one of the longest-running Taiwanese entertainment news programs. It is hosted by Sukie Chung and two members of the popular Taiwanese hip hop group Da Mouth: rapper MC40 and male vocalist Harry.\",\"uri\":\"http://www.viki.com/api/v3/series/7553.json\",\"created_at\":\"March 14, 2012 11:01\",\"genres\":[{\"id\":10,\"name\":\"Entertainment\"}],\"origin_country\":\"Taiwan\",\"image\":\"http://m0.viki.com/aHR0cDovL2MyLnZpa2lhc3NldHMuY29tL3VwbG9hZHMvY2hhbm5lbC90aHVtYm5haWwvNzU1My85NDM2OTlmNTZkMGIwY2YxN2RjN2UyNjMyMzMzYmMxMDAzOWY0YThlLmpwZw==\",\"episodes\":{\"count\":71,\"uri\":\"http://www.viki.com/api/v3/series/7553/episodes.json\"},\"subtitles\":{\"en\":96,\"es\":55,\"fr\":31,\"it\":2,\"zh\":1,\"tr\":1}},{\"id\":7468,\"title\":\"Leiji Matsumoto's OZMA (\\u30aa\\u30ba\\u30de)\",\"description\":\"The show unfolds on an arid and devastated future Earth and involves the mysterious, giant and moving \\u201cOZMA.\\u201d An epic space opera that entwines exciting sci-fi action and a suspenseful story, Leiji Matsumoto's OZMA tackles the ultimate question of life and its existence through this story.\",\"uri\":\"http://www.viki.com/api/v3/series/7468.json\",\"created_at\":\"March 07, 2012 09:29\",\"genres\":[{\"id\":2,\"name\":\"Anime\"}],\"origin_country\":\"Japan\",\"image\":\"http://m3.viki.com/aHR0cDovL2MwLnZpa2lhc3NldHMuY29tL3VwbG9hZHMvY2hhbm5lbC90aHVtYm5haWwvNzQ2OC9lZjU2NzI4MGJhYmEwN2U3YmVkOTgwNTFkZDdkYTJlOGEzZTM3OGVkLmpwZw==\",\"episodes\":{\"count\":6,\"uri\":\"http://www.viki.com/api/v3/series/7468/episodes.json\"},\"subtitles\":{\"tr\":100,\"pt\":100,\"pl\":100,\"cs\":100,\"en\":100,\"fr\":100,\"id\":100,\"ro\":99,\"es\":99,\"zh\":99,\"ru\":97,\"de\":92,\"ar\":1,\"ko\":1,\"af\":1}},{\"id\":7371,\"title\":\"Wheesung : It's Real Concert\",\"description\":\"Wheesung's 'It's Real' concert goes behind the scenes of the making of this movie-concert, from planning meetings to rehearsals, and even let's us in on his trivial daily life at home. He not only reveals himself as a singer, but as a lyricist and just an ordinary man. Let's take an exclusive first look at what Wheesung's everyday life is like and get to know the REAL Wheesung! \",\"uri\":\"http://www.viki.com/api/v3/series/7371.json\",\"created_at\":\"February 29, 2012 06:22\",\"genres\":[{\"id\":21,\"name\":\"Variety Show\"}],\"origin_country\":\"Korea\",\"image\":\"http://m3.viki.com/aHR0cDovL2MzLnZpa2lhc3NldHMuY29tL3VwbG9hZHMvY2hhbm5lbC90aHVtYm5haWwvNzM3MS8xYjMyYmJkZGM1YzAxOGVjMTc0ZTMyNGIzOTAyMDhhZDZiOTk3N2M2LmpwZw==\",\"episodes\":{\"count\":1,\"uri\":\"http://www.viki.com/api/v3/series/7371/episodes.json\"},\"subtitles\":{\"en\":100,\"fr\":100,\"es\":100,\"id\":96,\"ko\":1}},{\"id\":7368,\"title\":\"Inspire Now\",\"description\":\"Inspire Now is a show which deals with overall trends in fashion and beauty industry, culture, and lifestyle. Each episode will show a vivid picture of lives of people in fashion industry. It will also tell a viewer tips and know-hows from designers, fashion editors and stylists.\",\"uri\":\"http://www.viki.com/api/v3/series/7368.json\",\"created_at\":\"February 29, 2012 01:21\",\"genres\":[{\"id\":10,\"name\":\"Entertainment\"}],\"origin_country\":\"Korea\",\"image\":\"http://m3.viki.com/aHR0cDovL2MyLnZpa2lhc3NldHMuY29tL3VwbG9hZHMvY2hhbm5lbC90aHVtYm5haWwvNzM2OC8zZTQ5NGExZjBmNmJkMjllMmE3YWQ4ODJlMWJlYzg0YTY3ZTA5ODI5LmpwZw==\",\"episodes\":{\"count\":18,\"uri\":\"http://www.viki.com/api/v3/series/7368/episodes.json\"},\"subtitles\":{\"en\":100,\"fr\":38}},{\"id\":7367,\"title\":\"Unbelievable Outing\",\"description\":\"In this real variety show \\u201cUnbelievable Outing\\u201d, six comedians go on a trip for two days together and show their unrevealed talent. With uncommon games and penalties, they offer big laughs.\\r\\n\\r\\n\\r\\n\",\"uri\":\"http://www.viki.com/api/v3/series/7367.json\",\"created_at\":\"February 29, 2012 01:19\",\"genres\":[{\"id\":21,\"name\":\"Variety Show\"}],\"origin_country\":\"Korea\",\"image\":\"http://m2.viki.com/aHR0cDovL2MxLnZpa2lhc3NldHMuY29tL3VwbG9hZHMvY2hhbm5lbC90aHVtYm5haWwvNzM2Ny83YTkzY2U5NmE4YWI1YjQzOWVjM2Q1NzFlY2FmY2UwMGQxYzJiNTIyLmpwZw==\",\"episodes\":{\"count\":13,\"uri\":\"http://www.viki.com/api/v3/series/7367/episodes.json\"},\"subtitles\":{\"ko\":24,\"en\":20,\"es\":6,\"fr\":1}},{\"id\":7366,\"title\":\"Star Velo\",\"description\":\"This is one of representative shows of Elle TV, a fashion TV channel. This show is a bicycle travelogue of earth-loving and eco-friendly celebrities. Viewers can enjoy two episodes-- an episode of Ha Ji Won and Kim Myoung Min's trip in Amsterdam and the other of Song Joong Ki's trip in Australia.\",\"uri\":\"http://www.viki.com/api/v3/series/7366.json\",\"created_at\":\"February 29, 2012 01:18\",\"genres\":[{\"id\":8,\"name\":\"Documentary\"}],\"origin_country\":\"Korea\",\"image\":\"http://m3.viki.com/aHR0cDovL2MxLnZpa2lhc3NldHMuY29tL3VwbG9hZHMvY2hhbm5lbC90aHVtYm5haWwvNzM2Ni84ZWJkMWMwZjllYmU2ZDg2NTg1ZTA5Mjc4YjEzY2UyYTU3Nzk4NzMzLmpwZw==\",\"episodes\":{\"count\":2,\"uri\":\"http://www.viki.com/api/v3/series/7366/episodes.json\"},\"subtitles\":{\"en\":100,\"fr\":15,\"es\":11,\"ro\":10,\"tr\":1}},{\"id\":7365,\"title\":\"It Travel\",\"description\":\"A show that brings you to the places around the world with your favorite Hallyu stars. Start your journey with the stars here!\",\"uri\":\"http://www.viki.com/api/v3/series/7365.json\",\"created_at\":\"February 29, 2012 01:17\",\"genres\":[{\"id\":8,\"name\":\"Documentary\"}],\"origin_country\":\"Korea\",\"image\":\"http://m1.viki.com/aHR0cDovL2MzLnZpa2lhc3NldHMuY29tL3VwbG9hZHMvY2hhbm5lbC90aHVtYm5haWwvNzM2NS9hODQ1ZjZhY2VkYmNkNTczZGM3NDQyNTc5ODFkMmFiZjZjMzk3NWMyLmpwZw==\",\"episodes\":{\"count\":6,\"uri\":\"http://www.viki.com/api/v3/series/7365/episodes.json\"},\"subtitles\":{\"es\":100,\"ro\":100,\"en\":100,\"fr\":100,\"cs\":99,\"vi\":27,\"tr\":22,\"ko\":1,\"zh\":1}},{\"id\":7258,\"title\":\"Lady Gaga: One Sequin At A Time\",\"description\":\"'Lady Gaga: One Sequin at a Time\\\" traces the behind-the-scenes story of her meteoric rise to fame, sweeping from her childhood in New York, through her struggles to make it to the top, to the peak of her worldwide acclaim.\",\"uri\":\"http://www.viki.com/api/v3/series/7258.json\",\"created_at\":\"February 22, 2012 06:09\",\"genres\":[],\"origin_country\":\"United States\",\"image\":\"http://m1.viki.com/aHR0cDovL2MyLnZpa2lhc3NldHMuY29tL3VwbG9hZHMvY2hhbm5lbC90aHVtYm5haWwvNzI1OC9iODRkOWIzZWRhYjViZTUzYmZjMjI1MWRjMDJmNmE5YmRjZTQ0ODVlLmpwZw==\",\"episodes\":{\"count\":1,\"uri\":\"http://www.viki.com/api/v3/series/7258/episodes.json\"},\"subtitles\":{}},{\"id\":7188,\"title\":\"Peeping Life \",\"description\":\"Peeping Life is the 5 minutes sketched series that portray the silliness and weird happenings in every day life conversations. Take a break from the stress of everyday life. Sit back and peep at how people around you live their days. You may enjoy it, laugh and maybe even feel the love. Peeping Life will deliver you fun and cute entertainment to your every day life! \",\"uri\":\"http://www.viki.com/api/v3/series/7188.json\",\"created_at\":\"February 16, 2012 05:42\",\"genres\":[{\"id\":2,\"name\":\"Anime\"}],\"origin_country\":\"Japan\",\"image\":\"http://m1.viki.com/aHR0cDovL2MzLnZpa2lhc3NldHMuY29tL3VwbG9hZHMvY2hhbm5lbC90aHVtYm5haWwvNzE4OC8wZTY1OGJjZTkxYzU2YzhmMWQ4MzVmZGM5MjNmZjdhNzA2OTBlNzYzLmpwZw==\",\"episodes\":{\"count\":40,\"uri\":\"http://www.viki.com/api/v3/series/7188/episodes.json\"},\"subtitles\":{\"en\":100}},{\"id\":7099,\"title\":\"The Two Coreys\",\"description\":\"Corey Feldman and Corey Haim are both former child actors who starred together in a string of hit movies starting with 1987\\u2019s \\u201cThe Lost Boys.\\u201d At the height of their teen idol fame, they were known as \\u201cThe Two Coreys.\\u201d But both faced drug abuse problems that stalled their careers. Feldman overcame them and turned his life around while Haim continued to be plagued by his demons until he became broke and homeless. Feldman took Haim into his home and they become a pair once again.\",\"uri\":\"http://www.viki.com/api/v3/series/7099.json\",\"created_at\":\"February 07, 2012 12:25\",\"genres\":[{\"id\":8,\"name\":\"Documentary\"}],\"origin_country\":\"United States\",\"image\":\"http://m2.viki.com/aHR0cDovL2MyLnZpa2lhc3NldHMuY29tL3VwbG9hZHMvY2hhbm5lbC90aHVtYm5haWwvNzA5OS8wMjE4YjEwNTdiZTJmZTA0ODk3ZTZjOTUzOGYyYjI5NzVjYWY2YjE2LmpwZw==\",\"episodes\":{\"count\":9,\"uri\":\"http://www.viki.com/api/v3/series/7099/episodes.json\"},\"subtitles\":{}},{\"id\":7098,\"title\":\"Spying on Myself\",\"description\":\"Participants in this reality show transform themselves to go undercover and discover what their family, friends and coworkers really think of them. A team of experts use the latest technology to change hairstyles, body types and even gender, and then give them acting and voice training to help participants walk and talk in their disguised personas. Will they achieve what they set out to learn or will the people they approach discover their real identities?\",\"uri\":\"http://www.viki.com/api/v3/series/7098.json\",\"created_at\":\"February 07, 2012 12:09\",\"genres\":[{\"id\":8,\"name\":\"Documentary\"}],\"origin_country\":\"United States\",\"image\":\"http://m2.viki.com/aHR0cDovL2MyLnZpa2lhc3NldHMuY29tL3VwbG9hZHMvY2hhbm5lbC90aHVtYm5haWwvNzA5OC9hNzYzN2MxMjhjMjQyMzY5NTYxYTM5OTQ0MWIxNGQ2NDUzMjI1OGI0LmpwZw==\",\"episodes\":{\"count\":8,\"uri\":\"http://www.viki.com/api/v3/series/7098/episodes.json\"},\"subtitles\":{}},{\"id\":7097,\"title\":\"Move This House\",\"description\":\"You've found your dream home, but now it's the dreaded moving day. Boxes and lifting and cleaning and getting the place ready for a brand new family. For the average person, moving day can be a stressful, messy ordeal! There's never enough time, manpower or money to make the move easy and seamless. This series will change all that. With the help of a designer and host, our new homeowners will be moved into the house of their dreams in days.\",\"uri\":\"http://www.viki.com/api/v3/series/7097.json\",\"created_at\":\"February 07, 2012 12:08\",\"genres\":[{\"id\":8,\"name\":\"Documentary\"}],\"origin_country\":\"United States\",\"image\":\"http://m3.viki.com/aHR0cDovL2MxLnZpa2lhc3NldHMuY29tL3VwbG9hZHMvY2hhbm5lbC90aHVtYm5haWwvNzA5Ny9lODc2MTg0NDVjZjg1Y2M0MWY2NjY3ZGE3ZTZhYmQxNmU3Y2RhYmE0LmpwZw==\",\"episodes\":{\"count\":9,\"uri\":\"http://www.viki.com/api/v3/series/7097/episodes.json\"},\"subtitles\":{}},{\"id\":7096,\"title\":\"Makeover Mamas\",\"description\":\"Two mothers-in-law receive $1,500 and two days to completely make over a room in their children's home. With the help of a professional interior designer, the moms do most of the work and take all of the credit--or blame--if the kids don't like the results! Host Stephanie Lydecker settles decorating disputes with the \\\"Mother-in-Law Challenge\\\"--a Q&A about the kids' private lives, and the Mama whose answer more closely matches the couple's answer wins, and her choice prevails. \",\"uri\":\"http://www.viki.com/api/v3/series/7096.json\",\"created_at\":\"February 07, 2012 12:07\",\"genres\":[{\"id\":8,\"name\":\"Documentary\"}],\"origin_country\":\"United States\",\"image\":\"http://m1.viki.com/aHR0cDovL2MxLnZpa2lhc3NldHMuY29tL3VwbG9hZHMvY2hhbm5lbC90aHVtYm5haWwvNzA5Ni80MzMzMTc5NzBlMmQ0OGIzODg3NDE4MGUwZTdlMDhiNWU1MmE4OGJhLmpwZw==\",\"episodes\":{\"count\":14,\"uri\":\"http://www.viki.com/api/v3/series/7096/episodes.json\"},\"subtitles\":{}},{\"id\":7095,\"title\":\"King of Cars\",\"description\":\"King of Cars is a raucous, behind the scenes look at the fast-talking world of car sales. The series follows 30-year-old Chop, a.k.a., the \\\"King of Cars.\\\" Chop runs a hugely successful auto empire in Nevada, while he balances his other real life roles as father, rap impresario, radio host, Vegas player and TV infomercial star and producer. The show follows his sales team as they struggle to seal their deals and showcase the production of \\\"The Chop Show\\\" \",\"uri\":\"http://www.viki.com/api/v3/series/7095.json\",\"created_at\":\"February 07, 2012 12:04\",\"genres\":[{\"id\":8,\"name\":\"Documentary\"}],\"origin_country\":\"United States\",\"image\":\"http://m3.viki.com/aHR0cDovL2MyLnZpa2lhc3NldHMuY29tL3VwbG9hZHMvY2hhbm5lbC90aHVtYm5haWwvNzA5NS83MTczOTcxYjZiOTc2N2NhMjExZWM5N2FhZDk0MWNkOGE4OWJkMjg0LmpwZw==\",\"episodes\":{\"count\":10,\"uri\":\"http://www.viki.com/api/v3/series/7095/episodes.json\"},\"subtitles\":{}},{\"id\":6664,\"title\":\"Mysteries of The Bible\",\"description\":\"How true are the stories from the Bible? Did the cities of evil, Sodom and Gomorrah, really exist? Do the magic and miracles of the Old Testament actually occur? This series unearths the historical, scientific and archaeological investigations that surround the Bible's most captivating mysteries. \",\"uri\":\"http://www.viki.com/api/v3/series/6664.json\",\"created_at\":\"December 21, 2011 10:02\",\"genres\":[{\"id\":8,\"name\":\"Documentary\"}],\"origin_country\":\"United States\",\"image\":\"http://m3.viki.com/aHR0cDovL2MyLnZpa2lhc3NldHMuY29tL3VwbG9hZHMvY2hhbm5lbC90aHVtYm5haWwvNjY2NC80NzI5OWFlYmMxY2I1MTQ4YjJmZmVkY2RjOWI3MDNhNmZhOTJlNjg2LmpwZw==\",\"episodes\":{\"count\":2,\"uri\":\"http://www.viki.com/api/v3/series/6664/episodes.json\"},\"subtitles\":{}},{\"id\":6663,\"title\":\"Ancient Mysteries\",\"description\":\"Explore the intriguing mysteries of old-world civilizations such as ANCIENT ROME AND ITS MYSTERIOUS CITIES. Experience the horrors of THE BLACK DEATH. Reveal the legends of ORIGINS OF THE VAMPIRE. These and other ANCIENT MYSTERIES, including ATLANTIS: THE LOST CIVILIZATION, LOST MUMMIES OF THE INCA, and THE LOST ARK are guaranteed to intrigue audiences around the globe. \",\"uri\":\"http://www.viki.com/api/v3/series/6663.json\",\"created_at\":\"December 21, 2011 10:01\",\"genres\":[{\"id\":9,\"name\":\"Drama\"}],\"origin_country\":\"United States\",\"image\":\"http://m0.viki.com/aHR0cDovL2MyLnZpa2lhc3NldHMuY29tL3VwbG9hZHMvY2hhbm5lbC90aHVtYm5haWwvNjY2My84ZGRhY2Q2OGI5MmM3YTRmOThjOTE3NDAzNzljMTRiNzczMjdkMjY0LmpwZw==\",\"episodes\":{\"count\":1,\"uri\":\"http://www.viki.com/api/v3/series/6663/episodes.json\"},\"subtitles\":{}},{\"id\":6662,\"title\":\"Biography (Historical Profiles)\",\"description\":\"From the world leaders whose names are splashed across headlines to Hollywood's brightest stars, the Emmy Award-winning series BIOGRAPHY\\u00ae delivers engaging and in-depth profiles of the people who have captured our imagination. \",\"uri\":\"http://www.viki.com/api/v3/series/6662.json\",\"created_at\":\"December 21, 2011 10:01\",\"genres\":[{\"id\":8,\"name\":\"Documentary\"}],\"origin_country\":\"United States\",\"image\":\"http://m3.viki.com/aHR0cDovL2MxLnZpa2lhc3NldHMuY29tL3VwbG9hZHMvY2hhbm5lbC90aHVtYm5haWwvNjY2Mi9jZmFjOTc0N2M1ZjkyODdkYjUzZDViMmVlMjRhMWQ2MGQ4MGJjMjcwLmpwZw==\",\"episodes\":{\"count\":20,\"uri\":\"http://www.viki.com/api/v3/series/6662/episodes.json\"},\"subtitles\":{}},{\"id\":6661,\"title\":\"Biography (Contemporary Profiles)\",\"description\":\"From the world leaders whose names are splashed across headlines to Hollywood's brightest stars, the Emmy Award-winning series BIOGRAPHY\\u00ae delivers engaging and in-depth profiles of the people who have captured our imagination. Whether you want to learn more about Marilyn Monroe, Mark Twain, Jacqueline Kennedy Onassis, Pope John Paul II, Selena or even Santa Claus, the place to turn is BIOGRAPHY\\u00ae. \",\"uri\":\"http://www.viki.com/api/v3/series/6661.json\",\"created_at\":\"December 21, 2011 10:01\",\"genres\":[{\"id\":8,\"name\":\"Documentary\"}],\"origin_country\":\"United States\",\"image\":\"http://m3.viki.com/aHR0cDovL2MzLnZpa2lhc3NldHMuY29tL3VwbG9hZHMvY2hhbm5lbC90aHVtYm5haWwvNjY2MS9jZmFjOTc0N2M1ZjkyODdkYjUzZDViMmVlMjRhMWQ2MGQ4MGJjMjcwLmpwZw==\",\"episodes\":{\"count\":13,\"uri\":\"http://www.viki.com/api/v3/series/6661/episodes.json\"},\"subtitles\":{}},{\"id\":6659,\"title\":\"Investigative Reports\",\"description\":\"These contemporary hard-news documentaries explore the stories that touch people's lives - from around the corner and around the world. This series delivers penetrating and informative reports on hot-button issues\",\"uri\":\"http://www.viki.com/api/v3/series/6659.json\",\"created_at\":\"December 21, 2011 10:00\",\"genres\":[{\"id\":8,\"name\":\"Documentary\"}],\"origin_country\":\"United States\",\"image\":\"http://m0.viki.com/aHR0cDovL2MwLnZpa2lhc3NldHMuY29tL3VwbG9hZHMvY2hhbm5lbC90aHVtYm5haWwvNjY1OS8wY2YxNDNhNGI1Y2ZiNjcyMTY1YzkzMzAwMDRmZTRkMTQwY2FlMWZjLnBuZw==\",\"episodes\":{\"count\":14,\"uri\":\"http://www.viki.com/api/v3/series/6659/episodes.json\"},\"subtitles\":{}},{\"id\":6649,\"title\":\"Weapons At War\",\"description\":\"From man's earliest battles to the combat visions of the future, these documentaries richly illustrate the history of weaponry throughout the ages - and what weapons will be in the future.\\r\\n\",\"uri\":\"http://www.viki.com/api/v3/series/6649.json\",\"created_at\":\"December 21, 2011 09:58\",\"genres\":[{\"id\":9,\"name\":\"Drama\"}],\"origin_country\":\"United States\",\"image\":\"http://m0.viki.com/aHR0cDovL2MyLnZpa2lhc3NldHMuY29tL3VwbG9hZHMvY2hhbm5lbC90aHVtYm5haWwvNjY0OS9lMDNlMmFlNDY3NTkzY2M4ODM0NGUwZDU0MjY4ZGY4OGMxZDk5ZWE1LmpwZw==\",\"episodes\":{\"count\":13,\"uri\":\"http://www.viki.com/api/v3/series/6649/episodes.json\"},\"subtitles\":{}},{\"id\":6644,\"title\":\"Military History One-Off Programs\",\"description\":\"Military History features programming that looks back at some of the great battles of yesteryear as well as programs that profile key individuals such as generals, soldiers and spies. Documentaries and series give the viewer an insight into how battles were fought and the lives of those who fought them. \",\"uri\":\"http://www.viki.com/api/v3/series/6644.json\",\"created_at\":\"December 21, 2011 09:56\",\"genres\":[{\"id\":8,\"name\":\"Documentary\"}],\"origin_country\":\"United States\",\"image\":\"http://m2.viki.com/aHR0cDovL2MzLnZpa2lhc3NldHMuY29tL3VwbG9hZHMvY2hhbm5lbC90aHVtYm5haWwvNjY0NC8yMzAxYjRlNTYxY2FiOTdiMDdjNzYxZmIwYmJlMWY1NDk2N2ExNGQ3LmpwZw==\",\"episodes\":{\"count\":14,\"uri\":\"http://www.viki.com/api/v3/series/6644/episodes.json\"},\"subtitles\":{}},{\"id\":6637,\"title\":\"UFO Files\",\"description\":\"Investigate the facts and myths surrounding UFO sightings in every corner of the world. Examine evidence and eyewitness accounts and explore the mystery of what happened - or what didn't happen. Find out why so many people around the world believe that we have neighbors, and that they have come knocking on our door. Episodes include Black Box UFO Secrets and The Pacific Bermuda Triangle. \",\"uri\":\"http://www.viki.com/api/v3/series/6637.json\",\"created_at\":\"December 21, 2011 09:55\",\"genres\":[{\"id\":8,\"name\":\"Documentary\"}],\"origin_country\":\"United States\",\"image\":\"http://m2.viki.com/aHR0cDovL2MyLnZpa2lhc3NldHMuY29tL3VwbG9hZHMvY2hhbm5lbC90aHVtYm5haWwvNjYzNy80ZTI1NzJjYjdkYzczMzg4M2U3MjIyNTdkODhhODFmZmU4MDM2MDJmLmpwZw==\",\"episodes\":{\"count\":12,\"uri\":\"http://www.viki.com/api/v3/series/6637/episodes.json\"},\"subtitles\":{}},{\"id\":6636,\"title\":\"Paranormal State\",\"description\":\"See ghosts in your home? Feel an unexplained presence? Hear voices from the dead? The Paranormal Research Society, a student-led club at Pennsylvania State University, are on the case to investigate the truth behind unexplained, paranormal mysteries, such as poltergeist, hauntings and other eerie events. Ryan Buell, founder and leader of the group, and other student members manage their studies and busy college lives as they explore haunted locations and ghostly sightings.\",\"uri\":\"http://www.viki.com/api/v3/series/6636.json\",\"created_at\":\"December 21, 2011 09:55\",\"genres\":[{\"id\":8,\"name\":\"Documentary\"}],\"origin_country\":\"United States\",\"image\":\"http://m1.viki.com/aHR0cDovL2MwLnZpa2lhc3NldHMuY29tL3VwbG9hZHMvY2hhbm5lbC90aHVtYm5haWwvNjYzNi85NzhhMjUwNTNmNGRlYTY4ZDA0ZmQ2MDJlN2ExODAxNzc3ZDllNTE1LmpwZw==\",\"episodes\":{\"count\":20,\"uri\":\"http://www.viki.com/api/v3/series/6636/episodes.json\"},\"subtitles\":{}}]}"
    http_version: 
  recorded_at: Fri, 15 Jun 2012 08:14:00 GMT
recorded_with: VCR 2.2.1
