--- 
http_interactions: 
- request: 
    method: get
    uri: http://viki.com/api/v3/series.json?access_token=1b080a6b3a94ed4503e04e252500ca87f6e7dc55061cec92b627ef1fbec44c70&subtitle_language=fr
    body: 
      encoding: US-ASCII
      string: ""
    headers: {}

  response: 
    status: 
      code: 301
      message: Moved Permanently
    headers: 
      Server: 
      - nginx
      Date: 
      - Fri, 15 Jun 2012 08:13:40 GMT
      Content-Type: 
      - text/plain
      Connection: 
      - keep-alive
      Location: 
      - http://www.viki.com/api/v3/series.json?subtitle_language=fr&access_token=1b080a6b3a94ed4503e04e252500ca87f6e7dc55061cec92b627ef1fbec44c70
      X-Rack-Cache: 
      - miss
      Content-Length: 
      - "9"
      X-Varnish: 
      - "537850359"
      Age: 
      - "0"
      Via: 
      - 1.1 varnish
    body: 
      encoding: US-ASCII
      string: "moved to "
    http_version: 
  recorded_at: Fri, 15 Jun 2012 08:13:40 GMT
- request: 
    method: get
    uri: http://www.viki.com/api/v3/series.json?access_token=1b080a6b3a94ed4503e04e252500ca87f6e7dc55061cec92b627ef1fbec44c70&subtitle_language=fr
    body: 
      encoding: US-ASCII
      string: ""
    headers: {}

  response: 
    status: 
      code: 200
      message: OK
    headers: 
      Server: 
      - nginx
      Date: 
      - Fri, 15 Jun 2012 08:13:41 GMT
      Content-Type: 
      - application/json; charset=utf-8
      Connection: 
      - keep-alive
      Cache-Control: 
      - public, max-age=3600
      Expires: 
      - Fri, 15 Jun 2012 09:13:41 GMT
      X-Ua-Compatible: 
      - IE=Edge,chrome=1
      Etag: 
      - "\"dbf9f3bd34e6ea38edc673ac5a852587\""
      X-Request-Id: 
      - 017a6741c4087bac587fa5e5bfd144d3
      X-Runtime: 
      - "0.493224"
      X-Content-Digest: 
      - 3b9b2e81aa7e07ec0243e7eb95cdda12003f29e6
      X-Rack-Cache: 
      - miss, ignore, store
      Content-Length: 
      - "24753"
      X-Varnish: 
      - "1237251315"
      Age: 
      - "0"
      Via: 
      - 1.1 varnish
    body: 
      encoding: US-ASCII
      string: "{\"count\":2119,\"pagination\":{\"previous\":\"\",\"next\":\"http://www.viki.com/api/v3/series.json?page=2&subtitle_language=fr\"},\"response\":[{\"id\":8112,\"title\":\"Ghost\",\"description\":\"Kim Woo Hyun, an elite police detective in the cyber investigation division, goes after criminals who perpetrate crimes online or try to hide their identities in cyberspace. These cyber-criminals can\\u2019t be seen and are hard to pin down, just like a ghost. Even the police force\\u2019s top brain like Woo Hyun will meet his match as he tries to pursue these dangerous and secretive criminals on the Internet. How will he be able to track the shadows that lurk online?\",\"uri\":\"http://www.viki.com/api/v3/series/8112.json\",\"created_at\":\"May 09, 2012 09:13\",\"genres\":[{\"id\":7,\"name\":\"Crime\"}],\"origin_country\":\"Korea\",\"image\":\"http://m0.viki.com/aHR0cDovL2MwLnZpa2lhc3NldHMuY29tL3VwbG9hZHMvY2hhbm5lbC90aHVtYm5haWwvODExMi8xOTMyYjM0Y2ExNjA5ZTc2ODJjYmE1OWE5OWExYWE2NzY3MDY3ZmUzLmpwZw==\",\"episodes\":{\"count\":6,\"uri\":\"http://www.viki.com/api/v3/series/8112/episodes.json\"},\"subtitles\":{\"ro\":100,\"en\":100,\"es\":100,\"fr\":100,\"tr\":99,\"bg\":85,\"tl\":71,\"sr\":69,\"pt\":68,\"de\":52,\"id\":41,\"he\":15,\"th\":6,\"ja\":2,\"hm\":1,\"ko\":1}},{\"id\":8112,\"title\":\"Ghost\",\"description\":\"Kim Woo Hyun, an elite police detective in the cyber investigation division, goes after criminals who perpetrate crimes online or try to hide their identities in cyberspace. These cyber-criminals can\\u2019t be seen and are hard to pin down, just like a ghost. Even the police force\\u2019s top brain like Woo Hyun will meet his match as he tries to pursue these dangerous and secretive criminals on the Internet. How will he be able to track the shadows that lurk online?\",\"uri\":\"http://www.viki.com/api/v3/series/8112.json\",\"created_at\":\"May 09, 2012 09:13\",\"genres\":[{\"id\":7,\"name\":\"Crime\"}],\"origin_country\":\"Korea\",\"image\":\"http://m0.viki.com/aHR0cDovL2MwLnZpa2lhc3NldHMuY29tL3VwbG9hZHMvY2hhbm5lbC90aHVtYm5haWwvODExMi8xOTMyYjM0Y2ExNjA5ZTc2ODJjYmE1OWE5OWExYWE2NzY3MDY3ZmUzLmpwZw==\",\"episodes\":{\"count\":6,\"uri\":\"http://www.viki.com/api/v3/series/8112/episodes.json\"},\"subtitles\":{\"ro\":100,\"en\":100,\"es\":100,\"fr\":100,\"tr\":99,\"bg\":85,\"tl\":71,\"sr\":69,\"pt\":68,\"de\":52,\"id\":41,\"he\":15,\"th\":6,\"ja\":2,\"hm\":1,\"ko\":1}},{\"id\":8112,\"title\":\"Ghost\",\"description\":\"Kim Woo Hyun, an elite police detective in the cyber investigation division, goes after criminals who perpetrate crimes online or try to hide their identities in cyberspace. These cyber-criminals can\\u2019t be seen and are hard to pin down, just like a ghost. Even the police force\\u2019s top brain like Woo Hyun will meet his match as he tries to pursue these dangerous and secretive criminals on the Internet. How will he be able to track the shadows that lurk online?\",\"uri\":\"http://www.viki.com/api/v3/series/8112.json\",\"created_at\":\"May 09, 2012 09:13\",\"genres\":[{\"id\":7,\"name\":\"Crime\"}],\"origin_country\":\"Korea\",\"image\":\"http://m0.viki.com/aHR0cDovL2MwLnZpa2lhc3NldHMuY29tL3VwbG9hZHMvY2hhbm5lbC90aHVtYm5haWwvODExMi8xOTMyYjM0Y2ExNjA5ZTc2ODJjYmE1OWE5OWExYWE2NzY3MDY3ZmUzLmpwZw==\",\"episodes\":{\"count\":6,\"uri\":\"http://www.viki.com/api/v3/series/8112/episodes.json\"},\"subtitles\":{\"ro\":100,\"en\":100,\"es\":100,\"fr\":100,\"tr\":99,\"bg\":85,\"tl\":71,\"sr\":69,\"pt\":68,\"de\":52,\"id\":41,\"he\":15,\"th\":6,\"ja\":2,\"hm\":1,\"ko\":1}},{\"id\":8112,\"title\":\"Ghost\",\"description\":\"Kim Woo Hyun, an elite police detective in the cyber investigation division, goes after criminals who perpetrate crimes online or try to hide their identities in cyberspace. These cyber-criminals can\\u2019t be seen and are hard to pin down, just like a ghost. Even the police force\\u2019s top brain like Woo Hyun will meet his match as he tries to pursue these dangerous and secretive criminals on the Internet. How will he be able to track the shadows that lurk online?\",\"uri\":\"http://www.viki.com/api/v3/series/8112.json\",\"created_at\":\"May 09, 2012 09:13\",\"genres\":[{\"id\":7,\"name\":\"Crime\"}],\"origin_country\":\"Korea\",\"image\":\"http://m0.viki.com/aHR0cDovL2MwLnZpa2lhc3NldHMuY29tL3VwbG9hZHMvY2hhbm5lbC90aHVtYm5haWwvODExMi8xOTMyYjM0Y2ExNjA5ZTc2ODJjYmE1OWE5OWExYWE2NzY3MDY3ZmUzLmpwZw==\",\"episodes\":{\"count\":6,\"uri\":\"http://www.viki.com/api/v3/series/8112/episodes.json\"},\"subtitles\":{\"ro\":100,\"en\":100,\"es\":100,\"fr\":100,\"tr\":99,\"bg\":85,\"tl\":71,\"sr\":69,\"pt\":68,\"de\":52,\"id\":41,\"he\":15,\"th\":6,\"ja\":2,\"hm\":1,\"ko\":1}},{\"id\":7630,\"title\":\"The Show 2\",\"description\":\"A place where you can come across music trends first. It's a place where your body can feel every beat and rhythm. It's a music program produced on the concept of a club!\\r\\nA stage is an actual club in Korea where Korea's club culture and the latest KPop groove can be experienced first-hand! In addition to the MC's, the program focuses on the DJ, who will lead the show with a party ambiance, where everyone and anyone can enjoy all the latest beats.\",\"uri\":\"http://www.viki.com/api/v3/series/7630.json\",\"created_at\":\"March 23, 2012 08:18\",\"genres\":[{\"id\":21,\"name\":\"Variety Show\"}],\"origin_country\":\"Korea\",\"image\":\"http://m0.viki.com/aHR0cDovL2MzLnZpa2lhc3NldHMuY29tL3VwbG9hZHMvY2hhbm5lbC90aHVtYm5haWwvNzYzMC82ZjUxNzRlMGFhYzNiYjcyYzA3OWZkYjU1MjQwYmVjM2FlMTkyZTA5LmpwZw==\",\"episodes\":{\"count\":8,\"uri\":\"http://www.viki.com/api/v3/series/7630/episodes.json\"},\"subtitles\":{\"es\":100,\"en\":96,\"fr\":96,\"it\":96,\"no\":96,\"tr\":68,\"nl\":27,\"pl\":27,\"de\":20,\"ko\":3,\"th\":1,\"vi\":1}},{\"id\":7468,\"title\":\"Leiji Matsumoto's OZMA (\\u30aa\\u30ba\\u30de)\",\"description\":\"The show unfolds on an arid and devastated future Earth and involves the mysterious, giant and moving \\u201cOZMA.\\u201d An epic space opera that entwines exciting sci-fi action and a suspenseful story, Leiji Matsumoto's OZMA tackles the ultimate question of life and its existence through this story.\",\"uri\":\"http://www.viki.com/api/v3/series/7468.json\",\"created_at\":\"March 07, 2012 09:29\",\"genres\":[{\"id\":2,\"name\":\"Anime\"}],\"origin_country\":\"Japan\",\"image\":\"http://m0.viki.com/aHR0cDovL2MxLnZpa2lhc3NldHMuY29tL3VwbG9hZHMvY2hhbm5lbC90aHVtYm5haWwvNzQ2OC9lZjU2NzI4MGJhYmEwN2U3YmVkOTgwNTFkZDdkYTJlOGEzZTM3OGVkLmpwZw==\",\"episodes\":{\"count\":6,\"uri\":\"http://www.viki.com/api/v3/series/7468/episodes.json\"},\"subtitles\":{\"tr\":100,\"pt\":100,\"pl\":100,\"cs\":100,\"en\":100,\"fr\":100,\"id\":100,\"ro\":99,\"es\":99,\"zh\":99,\"ru\":97,\"de\":92,\"ar\":1,\"ko\":1,\"af\":1}},{\"id\":7468,\"title\":\"Leiji Matsumoto's OZMA (\\u30aa\\u30ba\\u30de)\",\"description\":\"The show unfolds on an arid and devastated future Earth and involves the mysterious, giant and moving \\u201cOZMA.\\u201d An epic space opera that entwines exciting sci-fi action and a suspenseful story, Leiji Matsumoto's OZMA tackles the ultimate question of life and its existence through this story.\",\"uri\":\"http://www.viki.com/api/v3/series/7468.json\",\"created_at\":\"March 07, 2012 09:29\",\"genres\":[{\"id\":2,\"name\":\"Anime\"}],\"origin_country\":\"Japan\",\"image\":\"http://m0.viki.com/aHR0cDovL2MxLnZpa2lhc3NldHMuY29tL3VwbG9hZHMvY2hhbm5lbC90aHVtYm5haWwvNzQ2OC9lZjU2NzI4MGJhYmEwN2U3YmVkOTgwNTFkZDdkYTJlOGEzZTM3OGVkLmpwZw==\",\"episodes\":{\"count\":6,\"uri\":\"http://www.viki.com/api/v3/series/7468/episodes.json\"},\"subtitles\":{\"tr\":100,\"pt\":100,\"pl\":100,\"cs\":100,\"en\":100,\"fr\":100,\"id\":100,\"ro\":99,\"es\":99,\"zh\":99,\"ru\":97,\"de\":92,\"ar\":1,\"ko\":1,\"af\":1}},{\"id\":7468,\"title\":\"Leiji Matsumoto's OZMA (\\u30aa\\u30ba\\u30de)\",\"description\":\"The show unfolds on an arid and devastated future Earth and involves the mysterious, giant and moving \\u201cOZMA.\\u201d An epic space opera that entwines exciting sci-fi action and a suspenseful story, Leiji Matsumoto's OZMA tackles the ultimate question of life and its existence through this story.\",\"uri\":\"http://www.viki.com/api/v3/series/7468.json\",\"created_at\":\"March 07, 2012 09:29\",\"genres\":[{\"id\":2,\"name\":\"Anime\"}],\"origin_country\":\"Japan\",\"image\":\"http://m0.viki.com/aHR0cDovL2MxLnZpa2lhc3NldHMuY29tL3VwbG9hZHMvY2hhbm5lbC90aHVtYm5haWwvNzQ2OC9lZjU2NzI4MGJhYmEwN2U3YmVkOTgwNTFkZDdkYTJlOGEzZTM3OGVkLmpwZw==\",\"episodes\":{\"count\":6,\"uri\":\"http://www.viki.com/api/v3/series/7468/episodes.json\"},\"subtitles\":{\"tr\":100,\"pt\":100,\"pl\":100,\"cs\":100,\"en\":100,\"fr\":100,\"id\":100,\"ro\":99,\"es\":99,\"zh\":99,\"ru\":97,\"de\":92,\"ar\":1,\"ko\":1,\"af\":1}},{\"id\":7468,\"title\":\"Leiji Matsumoto's OZMA (\\u30aa\\u30ba\\u30de)\",\"description\":\"The show unfolds on an arid and devastated future Earth and involves the mysterious, giant and moving \\u201cOZMA.\\u201d An epic space opera that entwines exciting sci-fi action and a suspenseful story, Leiji Matsumoto's OZMA tackles the ultimate question of life and its existence through this story.\",\"uri\":\"http://www.viki.com/api/v3/series/7468.json\",\"created_at\":\"March 07, 2012 09:29\",\"genres\":[{\"id\":2,\"name\":\"Anime\"}],\"origin_country\":\"Japan\",\"image\":\"http://m0.viki.com/aHR0cDovL2MxLnZpa2lhc3NldHMuY29tL3VwbG9hZHMvY2hhbm5lbC90aHVtYm5haWwvNzQ2OC9lZjU2NzI4MGJhYmEwN2U3YmVkOTgwNTFkZDdkYTJlOGEzZTM3OGVkLmpwZw==\",\"episodes\":{\"count\":6,\"uri\":\"http://www.viki.com/api/v3/series/7468/episodes.json\"},\"subtitles\":{\"tr\":100,\"pt\":100,\"pl\":100,\"cs\":100,\"en\":100,\"fr\":100,\"id\":100,\"ro\":99,\"es\":99,\"zh\":99,\"ru\":97,\"de\":92,\"ar\":1,\"ko\":1,\"af\":1}},{\"id\":7468,\"title\":\"Leiji Matsumoto's OZMA (\\u30aa\\u30ba\\u30de)\",\"description\":\"The show unfolds on an arid and devastated future Earth and involves the mysterious, giant and moving \\u201cOZMA.\\u201d An epic space opera that entwines exciting sci-fi action and a suspenseful story, Leiji Matsumoto's OZMA tackles the ultimate question of life and its existence through this story.\",\"uri\":\"http://www.viki.com/api/v3/series/7468.json\",\"created_at\":\"March 07, 2012 09:29\",\"genres\":[{\"id\":2,\"name\":\"Anime\"}],\"origin_country\":\"Japan\",\"image\":\"http://m0.viki.com/aHR0cDovL2MxLnZpa2lhc3NldHMuY29tL3VwbG9hZHMvY2hhbm5lbC90aHVtYm5haWwvNzQ2OC9lZjU2NzI4MGJhYmEwN2U3YmVkOTgwNTFkZDdkYTJlOGEzZTM3OGVkLmpwZw==\",\"episodes\":{\"count\":6,\"uri\":\"http://www.viki.com/api/v3/series/7468/episodes.json\"},\"subtitles\":{\"tr\":100,\"pt\":100,\"pl\":100,\"cs\":100,\"en\":100,\"fr\":100,\"id\":100,\"ro\":99,\"es\":99,\"zh\":99,\"ru\":97,\"de\":92,\"ar\":1,\"ko\":1,\"af\":1}},{\"id\":7468,\"title\":\"Leiji Matsumoto's OZMA (\\u30aa\\u30ba\\u30de)\",\"description\":\"The show unfolds on an arid and devastated future Earth and involves the mysterious, giant and moving \\u201cOZMA.\\u201d An epic space opera that entwines exciting sci-fi action and a suspenseful story, Leiji Matsumoto's OZMA tackles the ultimate question of life and its existence through this story.\",\"uri\":\"http://www.viki.com/api/v3/series/7468.json\",\"created_at\":\"March 07, 2012 09:29\",\"genres\":[{\"id\":2,\"name\":\"Anime\"}],\"origin_country\":\"Japan\",\"image\":\"http://m0.viki.com/aHR0cDovL2MxLnZpa2lhc3NldHMuY29tL3VwbG9hZHMvY2hhbm5lbC90aHVtYm5haWwvNzQ2OC9lZjU2NzI4MGJhYmEwN2U3YmVkOTgwNTFkZDdkYTJlOGEzZTM3OGVkLmpwZw==\",\"episodes\":{\"count\":6,\"uri\":\"http://www.viki.com/api/v3/series/7468/episodes.json\"},\"subtitles\":{\"tr\":100,\"pt\":100,\"pl\":100,\"cs\":100,\"en\":100,\"fr\":100,\"id\":100,\"ro\":99,\"es\":99,\"zh\":99,\"ru\":97,\"de\":92,\"ar\":1,\"ko\":1,\"af\":1}},{\"id\":7372,\"title\":\"2AM SHOW : Live in 3D \",\"description\":\"An intimate look at the K-pop boy band 2AM \\u2013 and everything you wanted to know about the members, Jo Kwon, Jinwoon, Seulong and Changmin \\u2013 in the first concert movie in 3D!\",\"uri\":\"http://www.viki.com/api/v3/series/7372.json\",\"created_at\":\"February 29, 2012 06:23\",\"genres\":[{\"id\":17,\"name\":\"Music\"}],\"origin_country\":\"Korea\",\"image\":\"http://m0.viki.com/aHR0cDovL2MxLnZpa2lhc3NldHMuY29tL3VwbG9hZHMvY2hhbm5lbC90aHVtYm5haWwvNzM3Mi84NWQ3NjQ5MjExNGU0NGU4ODBmZDdhYzIzZWU2NDAzNDc2Nzg2OTkyLmpwZw==\",\"episodes\":{\"count\":1,\"uri\":\"http://www.viki.com/api/v3/series/7372/episodes.json\"},\"subtitles\":{\"en\":100,\"it\":100,\"pt\":100,\"fr\":99,\"es\":88,\"ro\":64,\"th\":33,\"de\":19,\"tr\":1}},{\"id\":7371,\"title\":\"Wheesung : It's Real Concert\",\"description\":\"Wheesung's 'It's Real' concert goes behind the scenes of the making of this movie-concert, from planning meetings to rehearsals, and even let's us in on his trivial daily life at home. He not only reveals himself as a singer, but as a lyricist and just an ordinary man. Let's take an exclusive first look at what Wheesung's everyday life is like and get to know the REAL Wheesung! \",\"uri\":\"http://www.viki.com/api/v3/series/7371.json\",\"created_at\":\"February 29, 2012 06:22\",\"genres\":[{\"id\":21,\"name\":\"Variety Show\"}],\"origin_country\":\"Korea\",\"image\":\"http://m3.viki.com/aHR0cDovL2MzLnZpa2lhc3NldHMuY29tL3VwbG9hZHMvY2hhbm5lbC90aHVtYm5haWwvNzM3MS8xYjMyYmJkZGM1YzAxOGVjMTc0ZTMyNGIzOTAyMDhhZDZiOTk3N2M2LmpwZw==\",\"episodes\":{\"count\":1,\"uri\":\"http://www.viki.com/api/v3/series/7371/episodes.json\"},\"subtitles\":{\"en\":100,\"fr\":100,\"es\":100,\"id\":96,\"ko\":1}},{\"id\":7365,\"title\":\"It Travel\",\"description\":\"A show that brings you to the places around the world with your favorite Hallyu stars. Start your journey with the stars here!\",\"uri\":\"http://www.viki.com/api/v3/series/7365.json\",\"created_at\":\"February 29, 2012 01:17\",\"genres\":[{\"id\":8,\"name\":\"Documentary\"}],\"origin_country\":\"Korea\",\"image\":\"http://m3.viki.com/aHR0cDovL2MxLnZpa2lhc3NldHMuY29tL3VwbG9hZHMvY2hhbm5lbC90aHVtYm5haWwvNzM2NS9hODQ1ZjZhY2VkYmNkNTczZGM3NDQyNTc5ODFkMmFiZjZjMzk3NWMyLmpwZw==\",\"episodes\":{\"count\":6,\"uri\":\"http://www.viki.com/api/v3/series/7365/episodes.json\"},\"subtitles\":{\"es\":100,\"ro\":100,\"en\":100,\"fr\":100,\"cs\":99,\"vi\":27,\"tr\":22,\"ko\":1,\"zh\":1}},{\"id\":7365,\"title\":\"It Travel\",\"description\":\"A show that brings you to the places around the world with your favorite Hallyu stars. Start your journey with the stars here!\",\"uri\":\"http://www.viki.com/api/v3/series/7365.json\",\"created_at\":\"February 29, 2012 01:17\",\"genres\":[{\"id\":8,\"name\":\"Documentary\"}],\"origin_country\":\"Korea\",\"image\":\"http://m3.viki.com/aHR0cDovL2MxLnZpa2lhc3NldHMuY29tL3VwbG9hZHMvY2hhbm5lbC90aHVtYm5haWwvNzM2NS9hODQ1ZjZhY2VkYmNkNTczZGM3NDQyNTc5ODFkMmFiZjZjMzk3NWMyLmpwZw==\",\"episodes\":{\"count\":6,\"uri\":\"http://www.viki.com/api/v3/series/7365/episodes.json\"},\"subtitles\":{\"es\":100,\"ro\":100,\"en\":100,\"fr\":100,\"cs\":99,\"vi\":27,\"tr\":22,\"ko\":1,\"zh\":1}},{\"id\":7360,\"title\":\"Immortal Classic\",\"description\":\"A secret recipe book for making great kimchee has been passed down from generation to generation in the same family for hundreds of years. The current protector of the recipes, Park Gye Hyang, is the national cultural asset for cooking in Korea. One remote restaurant is famed for serving kimchee that tastes better than Gye Hyang\\u2019s. The two families may be linked by the same secret recipes, and others want to get their hands on them for their own personal gain. Whose kimchee will prevail?\",\"uri\":\"http://www.viki.com/api/v3/series/7360.json\",\"created_at\":\"February 28, 2012 08:32\",\"genres\":[],\"origin_country\":\"Korea\",\"image\":\"http://m2.viki.com/aHR0cDovL2MxLnZpa2lhc3NldHMuY29tL3VwbG9hZHMvY2hhbm5lbC90aHVtYm5haWwvNzM2MC9mZWMxYzI2ZTQzNDZhMGU5MjA2YmM5ZWE4MjM0NDhkNmZjZDRlMjZhLmpwZw==\",\"episodes\":{\"count\":20,\"uri\":\"http://www.viki.com/api/v3/series/7360/episodes.json\"},\"subtitles\":{\"en\":100,\"es\":100,\"tr\":99,\"ro\":99,\"de\":99,\"fr\":96,\"ar\":82,\"id\":22,\"gl\":1,\"pl\":1,\"bg\":1,\"ko\":1}},{\"id\":7360,\"title\":\"Immortal Classic\",\"description\":\"A secret recipe book for making great kimchee has been passed down from generation to generation in the same family for hundreds of years. The current protector of the recipes, Park Gye Hyang, is the national cultural asset for cooking in Korea. One remote restaurant is famed for serving kimchee that tastes better than Gye Hyang\\u2019s. The two families may be linked by the same secret recipes, and others want to get their hands on them for their own personal gain. Whose kimchee will prevail?\",\"uri\":\"http://www.viki.com/api/v3/series/7360.json\",\"created_at\":\"February 28, 2012 08:32\",\"genres\":[],\"origin_country\":\"Korea\",\"image\":\"http://m2.viki.com/aHR0cDovL2MxLnZpa2lhc3NldHMuY29tL3VwbG9hZHMvY2hhbm5lbC90aHVtYm5haWwvNzM2MC9mZWMxYzI2ZTQzNDZhMGU5MjA2YmM5ZWE4MjM0NDhkNmZjZDRlMjZhLmpwZw==\",\"episodes\":{\"count\":20,\"uri\":\"http://www.viki.com/api/v3/series/7360/episodes.json\"},\"subtitles\":{\"en\":100,\"es\":100,\"tr\":99,\"ro\":99,\"de\":99,\"fr\":96,\"ar\":82,\"id\":22,\"gl\":1,\"pl\":1,\"bg\":1,\"ko\":1}},{\"id\":7360,\"title\":\"Immortal Classic\",\"description\":\"A secret recipe book for making great kimchee has been passed down from generation to generation in the same family for hundreds of years. The current protector of the recipes, Park Gye Hyang, is the national cultural asset for cooking in Korea. One remote restaurant is famed for serving kimchee that tastes better than Gye Hyang\\u2019s. The two families may be linked by the same secret recipes, and others want to get their hands on them for their own personal gain. Whose kimchee will prevail?\",\"uri\":\"http://www.viki.com/api/v3/series/7360.json\",\"created_at\":\"February 28, 2012 08:32\",\"genres\":[],\"origin_country\":\"Korea\",\"image\":\"http://m2.viki.com/aHR0cDovL2MxLnZpa2lhc3NldHMuY29tL3VwbG9hZHMvY2hhbm5lbC90aHVtYm5haWwvNzM2MC9mZWMxYzI2ZTQzNDZhMGU5MjA2YmM5ZWE4MjM0NDhkNmZjZDRlMjZhLmpwZw==\",\"episodes\":{\"count\":20,\"uri\":\"http://www.viki.com/api/v3/series/7360/episodes.json\"},\"subtitles\":{\"en\":100,\"es\":100,\"tr\":99,\"ro\":99,\"de\":99,\"fr\":96,\"ar\":82,\"id\":22,\"gl\":1,\"pl\":1,\"bg\":1,\"ko\":1}},{\"id\":7359,\"title\":\"Big\",\"description\":\"After a tragic car accident, 18-year-old Kang Gyung Joon discovers that his spirit has been transported to the body of 30-year-old Seo Yoon Jae. Yoon Jae is a successful doctor who is engaged to high school teacher Gil Da Ran. But Da Ran just so happens to be Gyung Joon\\u2019s teacher. What is a boy to do when he discovers that he has become his own teacher\\u2019s fianc\\u00e9 by a freak of nature? Will he be able to return to his own normal life or is he doomed to live out the older man\\u2019s instead?\",\"uri\":\"http://www.viki.com/api/v3/series/7359.json\",\"created_at\":\"February 28, 2012 04:56\",\"genres\":[],\"origin_country\":\"Korea\",\"image\":\"http://m1.viki.com/aHR0cDovL2MyLnZpa2lhc3NldHMuY29tL3VwbG9hZHMvY2hhbm5lbC90aHVtYm5haWwvNzM1OS82ZTQ2N2M5OWJmZWQyNGNkYjgxZGUzNjczMmY4ODFlNjNlOGQzYTNkLmpwZw==\",\"episodes\":{\"count\":4,\"uri\":\"http://www.viki.com/api/v3/series/7359/episodes.json\"},\"subtitles\":{\"ar\":100,\"ro\":100,\"en\":100,\"fr\":100,\"it\":100,\"tr\":100,\"es\":99,\"el\":99,\"pt\":99,\"tl\":65,\"de\":57,\"ja\":32,\"id\":23,\"bg\":12,\"ko\":9,\"sh\":6,\"th\":5,\"ru\":2,\"la\":1}},{\"id\":7359,\"title\":\"Big\",\"description\":\"After a tragic car accident, 18-year-old Kang Gyung Joon discovers that his spirit has been transported to the body of 30-year-old Seo Yoon Jae. Yoon Jae is a successful doctor who is engaged to high school teacher Gil Da Ran. But Da Ran just so happens to be Gyung Joon\\u2019s teacher. What is a boy to do when he discovers that he has become his own teacher\\u2019s fianc\\u00e9 by a freak of nature? Will he be able to return to his own normal life or is he doomed to live out the older man\\u2019s instead?\",\"uri\":\"http://www.viki.com/api/v3/series/7359.json\",\"created_at\":\"February 28, 2012 04:56\",\"genres\":[],\"origin_country\":\"Korea\",\"image\":\"http://m1.viki.com/aHR0cDovL2MyLnZpa2lhc3NldHMuY29tL3VwbG9hZHMvY2hhbm5lbC90aHVtYm5haWwvNzM1OS82ZTQ2N2M5OWJmZWQyNGNkYjgxZGUzNjczMmY4ODFlNjNlOGQzYTNkLmpwZw==\",\"episodes\":{\"count\":4,\"uri\":\"http://www.viki.com/api/v3/series/7359/episodes.json\"},\"subtitles\":{\"ar\":100,\"ro\":100,\"en\":100,\"fr\":100,\"it\":100,\"tr\":100,\"es\":99,\"el\":99,\"pt\":99,\"tl\":65,\"de\":57,\"ja\":32,\"id\":23,\"bg\":12,\"ko\":9,\"sh\":6,\"th\":5,\"ru\":2,\"la\":1}},{\"id\":7359,\"title\":\"Big\",\"description\":\"After a tragic car accident, 18-year-old Kang Gyung Joon discovers that his spirit has been transported to the body of 30-year-old Seo Yoon Jae. Yoon Jae is a successful doctor who is engaged to high school teacher Gil Da Ran. But Da Ran just so happens to be Gyung Joon\\u2019s teacher. What is a boy to do when he discovers that he has become his own teacher\\u2019s fianc\\u00e9 by a freak of nature? Will he be able to return to his own normal life or is he doomed to live out the older man\\u2019s instead?\",\"uri\":\"http://www.viki.com/api/v3/series/7359.json\",\"created_at\":\"February 28, 2012 04:56\",\"genres\":[],\"origin_country\":\"Korea\",\"image\":\"http://m1.viki.com/aHR0cDovL2MyLnZpa2lhc3NldHMuY29tL3VwbG9hZHMvY2hhbm5lbC90aHVtYm5haWwvNzM1OS82ZTQ2N2M5OWJmZWQyNGNkYjgxZGUzNjczMmY4ODFlNjNlOGQzYTNkLmpwZw==\",\"episodes\":{\"count\":4,\"uri\":\"http://www.viki.com/api/v3/series/7359/episodes.json\"},\"subtitles\":{\"ar\":100,\"ro\":100,\"en\":100,\"fr\":100,\"it\":100,\"tr\":100,\"es\":99,\"el\":99,\"pt\":99,\"tl\":65,\"de\":57,\"ja\":32,\"id\":23,\"bg\":12,\"ko\":9,\"sh\":6,\"th\":5,\"ru\":2,\"la\":1}},{\"id\":7359,\"title\":\"Big\",\"description\":\"After a tragic car accident, 18-year-old Kang Gyung Joon discovers that his spirit has been transported to the body of 30-year-old Seo Yoon Jae. Yoon Jae is a successful doctor who is engaged to high school teacher Gil Da Ran. But Da Ran just so happens to be Gyung Joon\\u2019s teacher. What is a boy to do when he discovers that he has become his own teacher\\u2019s fianc\\u00e9 by a freak of nature? Will he be able to return to his own normal life or is he doomed to live out the older man\\u2019s instead?\",\"uri\":\"http://www.viki.com/api/v3/series/7359.json\",\"created_at\":\"February 28, 2012 04:56\",\"genres\":[],\"origin_country\":\"Korea\",\"image\":\"http://m1.viki.com/aHR0cDovL2MyLnZpa2lhc3NldHMuY29tL3VwbG9hZHMvY2hhbm5lbC90aHVtYm5haWwvNzM1OS82ZTQ2N2M5OWJmZWQyNGNkYjgxZGUzNjczMmY4ODFlNjNlOGQzYTNkLmpwZw==\",\"episodes\":{\"count\":4,\"uri\":\"http://www.viki.com/api/v3/series/7359/episodes.json\"},\"subtitles\":{\"ar\":100,\"ro\":100,\"en\":100,\"fr\":100,\"it\":100,\"tr\":100,\"es\":99,\"el\":99,\"pt\":99,\"tl\":65,\"de\":57,\"ja\":32,\"id\":23,\"bg\":12,\"ko\":9,\"sh\":6,\"th\":5,\"ru\":2,\"la\":1}},{\"id\":7238,\"title\":\"Dr. Jin\",\"description\":\"Dr. Jin Hyuk, a renowned modern-day neurosurgeon, is transported back 150 years to the Chosun Dynasty and forced to practice medicine during a much more primitive era. He meets Hong Young Rae, a nobleman\\u2019s daughter bearing a striking resemblance to his lost love, who is caught in the midst of a power struggle between the royal family and members of the most powerful Ahn Dong Kim family. Will Dr. Jin be able to survive his new surroundings and find his way back to his own time period?\",\"uri\":\"http://www.viki.com/api/v3/series/7238.json\",\"created_at\":\"February 20, 2012 22:52\",\"genres\":[{\"id\":18,\"name\":\"Romance\"}],\"origin_country\":\"Korea\",\"image\":\"http://m0.viki.com/aHR0cDovL2MzLnZpa2lhc3NldHMuY29tL3VwbG9hZHMvY2hhbm5lbC90aHVtYm5haWwvNzIzOC8yNmU4YmI1OTQ4ODA4N2FhYTYwOWFiMDI1MzM2MGY5OGFjNWU0ZmUxLmpwZw==\",\"episodes\":{\"count\":6,\"uri\":\"http://www.viki.com/api/v3/series/7238/episodes.json\"},\"subtitles\":{\"tr\":99,\"pl\":99,\"pt\":99,\"en\":99,\"fr\":99,\"de\":99,\"es\":99,\"ro\":99,\"it\":99,\"sr\":99,\"id\":99,\"fa\":94,\"zh\":57,\"nl\":54,\"bg\":52,\"ms\":24,\"tl\":13,\"th\":10,\"ko\":9,\"ja\":6,\"se\":1,\"hm\":1}},{\"id\":7238,\"title\":\"Dr. Jin\",\"description\":\"Dr. Jin Hyuk, a renowned modern-day neurosurgeon, is transported back 150 years to the Chosun Dynasty and forced to practice medicine during a much more primitive era. He meets Hong Young Rae, a nobleman\\u2019s daughter bearing a striking resemblance to his lost love, who is caught in the midst of a power struggle between the royal family and members of the most powerful Ahn Dong Kim family. Will Dr. Jin be able to survive his new surroundings and find his way back to his own time period?\",\"uri\":\"http://www.viki.com/api/v3/series/7238.json\",\"created_at\":\"February 20, 2012 22:52\",\"genres\":[{\"id\":18,\"name\":\"Romance\"}],\"origin_country\":\"Korea\",\"image\":\"http://m0.viki.com/aHR0cDovL2MzLnZpa2lhc3NldHMuY29tL3VwbG9hZHMvY2hhbm5lbC90aHVtYm5haWwvNzIzOC8yNmU4YmI1OTQ4ODA4N2FhYTYwOWFiMDI1MzM2MGY5OGFjNWU0ZmUxLmpwZw==\",\"episodes\":{\"count\":6,\"uri\":\"http://www.viki.com/api/v3/series/7238/episodes.json\"},\"subtitles\":{\"tr\":99,\"pl\":99,\"pt\":99,\"en\":99,\"fr\":99,\"de\":99,\"es\":99,\"ro\":99,\"it\":99,\"sr\":99,\"id\":99,\"fa\":94,\"zh\":57,\"nl\":54,\"bg\":52,\"ms\":24,\"tl\":13,\"th\":10,\"ko\":9,\"ja\":6,\"se\":1,\"hm\":1}},{\"id\":7238,\"title\":\"Dr. Jin\",\"description\":\"Dr. Jin Hyuk, a renowned modern-day neurosurgeon, is transported back 150 years to the Chosun Dynasty and forced to practice medicine during a much more primitive era. He meets Hong Young Rae, a nobleman\\u2019s daughter bearing a striking resemblance to his lost love, who is caught in the midst of a power struggle between the royal family and members of the most powerful Ahn Dong Kim family. Will Dr. Jin be able to survive his new surroundings and find his way back to his own time period?\",\"uri\":\"http://www.viki.com/api/v3/series/7238.json\",\"created_at\":\"February 20, 2012 22:52\",\"genres\":[{\"id\":18,\"name\":\"Romance\"}],\"origin_country\":\"Korea\",\"image\":\"http://m0.viki.com/aHR0cDovL2MzLnZpa2lhc3NldHMuY29tL3VwbG9hZHMvY2hhbm5lbC90aHVtYm5haWwvNzIzOC8yNmU4YmI1OTQ4ODA4N2FhYTYwOWFiMDI1MzM2MGY5OGFjNWU0ZmUxLmpwZw==\",\"episodes\":{\"count\":6,\"uri\":\"http://www.viki.com/api/v3/series/7238/episodes.json\"},\"subtitles\":{\"tr\":99,\"pl\":99,\"pt\":99,\"en\":99,\"fr\":99,\"de\":99,\"es\":99,\"ro\":99,\"it\":99,\"sr\":99,\"id\":99,\"fa\":94,\"zh\":57,\"nl\":54,\"bg\":52,\"ms\":24,\"tl\":13,\"th\":10,\"ko\":9,\"ja\":6,\"se\":1,\"hm\":1}}]}"
    http_version: 
  recorded_at: Fri, 15 Jun 2012 08:13:42 GMT
recorded_with: VCR 2.2.1
