--- 
http_interactions: 
- request: 
    method: get
    uri: http://viki.com/api/v3//coming_soon/movies.json?access_token=1b080a6b3a94ed4503e04e252500ca87f6e7dc55061cec92b627ef1fbec44c70
    body: 
      encoding: US-ASCII
      string: ""
    headers: {}

  response: 
    status: 
      code: 301
      message: Moved Permanently
    headers: 
      Server: 
      - nginx
      Date: 
      - Mon, 18 Jun 2012 08:44:49 GMT
      Content-Type: 
      - text/plain
      Connection: 
      - keep-alive
      Location: 
      - http://www.viki.com/api/v3//coming_soon/movies.json?access_token=1b080a6b3a94ed4503e04e252500ca87f6e7dc55061cec92b627ef1fbec44c70
      X-Rack-Cache: 
      - miss
      Content-Length: 
      - "9"
      X-Varnish: 
      - "1690985991"
      Age: 
      - "0"
      Via: 
      - 1.1 varnish
    body: 
      encoding: US-ASCII
      string: "moved to "
    http_version: 
  recorded_at: Mon, 18 Jun 2012 08:44:49 GMT
- request: 
    method: get
    uri: http://www.viki.com/api/v3//coming_soon/movies.json?access_token=1b080a6b3a94ed4503e04e252500ca87f6e7dc55061cec92b627ef1fbec44c70
    body: 
      encoding: US-ASCII
      string: ""
    headers: {}

  response: 
    status: 
      code: 200
      message: OK
    headers: 
      Server: 
      - nginx
      Date: 
      - Mon, 18 Jun 2012 08:44:51 GMT
      Content-Type: 
      - application/json; charset=utf-8
      Connection: 
      - keep-alive
      Cache-Control: 
      - public, max-age=3600
      Expires: 
      - Mon, 18 Jun 2012 09:35:26 GMT
      X-Ua-Compatible: 
      - IE=Edge,chrome=1
      Etag: 
      - "\"f2b3d324166106c5108dee940b00fd04\""
      X-Request-Id: 
      - 92ab4b4d42015783d7a6d55f0ae812c9
      X-Runtime: 
      - "1.564189"
      X-Content-Digest: 
      - d2fb8589e99132bb7436b9fad639c59270b555eb
      X-Rack-Cache: 
      - fresh
      Content-Length: 
      - "9380"
      X-Varnish: 
      - "503338354"
      Age: 
      - "565"
      Via: 
      - 1.1 varnish
    body: 
      encoding: US-ASCII
      string: "{\"count\":826,\"pagination\":{\"previous\":\"\",\"next\":\"http://www.viki.com/api/v3/coming_soon/movies.json?page=2\"},\"response\":[{\"id\":8932,\"title\":\"4th Period Murder Mystery\",\"description\":\" During fourth period, high schooler Da-jeong finds his classmate Tae-gyu dead in a classroom and Jeong-hun standing in front of him with blood on his clothes. In order to stop Jeong-hun from becoming the prime suspect, Da-jeong must help him find the real murderer, who is still inside the school building, under 40 minutes before period four ends\",\"created_at\":\"June 17, 2012 15:08\",\"genres\":[],\"origin_country\":\"Korea\",\"image\":\"http://m0.viki.com/aHR0cDovL3d3dy52aWtpLmNvbS9pbWFnZXMvY2hhbm5lbF9kZWZhdWx0X21lZGl1bS5wbmc=\"},{\"id\":8915,\"title\":\"May your love bloom a hundred years\",\"description\":\"Sae (Yui Aragaki) is a high school student who is studying hard for her college entrance exams. She lost her father when she was very young and so lives her mother in Hokkaido, Japan.She meets Kouhei (Toma Ikuta), who attends a specialized high school teaching fishery. \",\"created_at\":\"June 16, 2012 15:54\",\"genres\":[{\"id\":18,\"name\":\"Romance\"}],\"origin_country\":\"Japan\",\"image\":\"http://m2.viki.com/aHR0cDovL2MwLnZpa2lhc3NldHMuY29tL3VwbG9hZHMvY2hhbm5lbC90aHVtYm5haWwvODkxNS85ZDg2Y2YzODcyZWExNDA0Zjg0Y2RiMGFlMjYzYTQ1Y2U0N2UxMzA4LmpwZw==\"},{\"id\":8861,\"title\":\"The False Heart\",\"description\":\"The False Heart is loosely based on historical facts as recorded in source documents. The film reveals not only the rituals, rites and human sacrifices carried out by the P\\u00f6schlians, but also the sect\\u2019s fanatical mindset. Cajetan Jacob spent three years working on the screenplay, weaving the historical facts into a fictional story of lesbian love. The result is an appeal for tolerance that is as profound as it is spectacular.\",\"created_at\":\"June 11, 2012 15:36\",\"genres\":[{\"id\":5,\"name\":\"Classic & Period\"}],\"origin_country\":\"Austria\",\"image\":\"http://m0.viki.com/aHR0cDovL3d3dy52aWtpLmNvbS9pbWFnZXMvY2hhbm5lbF9kZWZhdWx0X21lZGl1bS5wbmc=\"},{\"id\":8854,\"title\":\"Adventures and Fun-tasy\",\"description\":\"Action and fantasy movies \",\"created_at\":\"June 11, 2012 03:38\",\"genres\":[{\"id\":1,\"name\":\"Action & Adventure\"}],\"origin_country\":\"Various Countries\",\"image\":\"http://m0.viki.com/aHR0cDovL3d3dy52aWtpLmNvbS9pbWFnZXMvY2hhbm5lbF9kZWZhdWx0X21lZGl1bS5wbmc=\"},{\"id\":8848,\"title\":\"Zozo\",\"description\":\"Zozo is a common Lebanese boy growing up in war-torn Beirut, Lebanon. He lives a fairly normal life with friends and family. One day the war affects him personally and Zozos only recourse is to try to get to Sweden - a country which for him is completely unknown.\",\"created_at\":\"June 10, 2012 12:58\",\"genres\":[],\"origin_country\":\"Sweden\",\"image\":\"http://m0.viki.com/aHR0cDovL3d3dy52aWtpLmNvbS9pbWFnZXMvY2hhbm5lbF9kZWZhdWx0X21lZGl1bS5wbmc=\"},{\"id\":8841,\"title\":\"indonesia\",\"description\":null,\"created_at\":\"June 09, 2012 20:15\",\"genres\":[{\"id\":18,\"name\":\"Romance\"}],\"origin_country\":\"Korea\",\"image\":\"http://m0.viki.com/aHR0cDovL3d3dy52aWtpLmNvbS9pbWFnZXMvY2hhbm5lbF9kZWZhdWx0X21lZGl1bS5wbmc=\"},{\"id\":8825,\"title\":\"korean.moviez\",\"description\":\"this is a free channel please enjoy watching \",\"created_at\":\"June 08, 2012 10:58\",\"genres\":[{\"id\":18,\"name\":\"Romance\"}],\"origin_country\":\"Korea\",\"image\":\"http://m0.viki.com/aHR0cDovL3d3dy52aWtpLmNvbS9pbWFnZXMvY2hhbm5lbF9kZWZhdWx0X21lZGl1bS5wbmc=\"},{\"id\":8816,\"title\":\"sanci\",\"description\":\"se1234567\\r\\n\",\"created_at\":\"June 07, 2012 05:01\",\"genres\":[{\"id\":9,\"name\":\"Drama\"}],\"origin_country\":\"Bosnia and Herzegovina\",\"image\":\"http://m0.viki.com/aHR0cDovL3d3dy52aWtpLmNvbS9pbWFnZXMvY2hhbm5lbF9kZWZhdWx0X21lZGl1bS5wbmc=\"},{\"id\":8815,\"title\":\"sanela habib\",\"description\":null,\"created_at\":\"June 07, 2012 04:56\",\"genres\":[{\"id\":1,\"name\":\"Action & Adventure\"}],\"origin_country\":\"Bosnia and Herzegovina\",\"image\":\"http://m0.viki.com/aHR0cDovL3d3dy52aWtpLmNvbS9pbWFnZXMvY2hhbm5lbF9kZWZhdWx0X21lZGl1bS5wbmc=\"},{\"id\":8811,\"title\":\"I Do\",\"description\":\"Mayumi (Erich Gonzales) is a girl with a happy disposition in life who dreams of meeting her \\\"the one\\\" someday. She has been dreaming of meeting her \\\"the one\\\" and having the perfect wedding ever since she was a little girl. When she meets Lance (Enchong Dee), a Chinese descendant, in a wedding, she immediately knows that he is \\\"the one\\\" she is waiting for, her faith and destiny. The two of them become lovers despite the unwillingness of their families to their relationship...\",\"created_at\":\"June 06, 2012 21:41\",\"genres\":[{\"id\":6,\"name\":\"Comedy\"},{\"id\":18,\"name\":\"Romance\"}],\"origin_country\":\"Philippines\",\"image\":\"http://m0.viki.com/aHR0cDovL3d3dy52aWtpLmNvbS9pbWFnZXMvY2hhbm5lbF9kZWZhdWx0X21lZGl1bS5wbmc=\"},{\"id\":8807,\"title\":\"HBO\",\"description\":\"English\",\"created_at\":\"June 06, 2012 12:10\",\"genres\":[{\"id\":16,\"name\":\"Live Action\"}],\"origin_country\":\"United States\",\"image\":\"http://m0.viki.com/aHR0cDovL3d3dy52aWtpLmNvbS9pbWFnZXMvY2hhbm5lbF9kZWZhdWx0X21lZGl1bS5wbmc=\"},{\"id\":8789,\"title\":\"english\",\"description\":null,\"created_at\":\"June 05, 2012 21:28\",\"genres\":[],\"origin_country\":\"France\",\"image\":\"http://m0.viki.com/aHR0cDovL3d3dy52aWtpLmNvbS9pbWFnZXMvY2hhbm5lbF9kZWZhdWx0X21lZGl1bS5wbmc=\"},{\"id\":8784,\"title\":\" Geon-chook-hak-gae-ron / Arquitectura 101 / Architecture 101\",\"description\":\"Titulo original: \\uac74\\ucd95\\ud559\\uac1c\\ub860 / Geon-chook-hak-gae-ron\\r\\nAnteriormente conocida como: An Introduction to Architecture\\r\\n\\r\\n\\r\\nUna historia que comienza cuando el arquitecto Seung Min es visitado por su primer amor durante sus a\\u00f1os universitarios, Seo Yeon. Todo sucede cuando Seo Yeon le pide re-construir su antigua casa\\r\\n\\r\\n\",\"created_at\":\"June 05, 2012 04:02\",\"genres\":[{\"id\":18,\"name\":\"Romance\"}],\"origin_country\":\"Korea\",\"image\":\"http://m0.viki.com/aHR0cDovL3d3dy52aWtpLmNvbS9pbWFnZXMvY2hhbm5lbF9kZWZhdWx0X21lZGl1bS5wbmc=\"},{\"id\":8781,\"title\":\"Movies\",\"description\":\"New Movies\",\"created_at\":\"June 05, 2012 00:06\",\"genres\":[{\"id\":1,\"name\":\"Action & Adventure\"}],\"origin_country\":\"Various Countries\",\"image\":\"http://m0.viki.com/aHR0cDovL3d3dy52aWtpLmNvbS9pbWFnZXMvY2hhbm5lbF9kZWZhdWx0X21lZGl1bS5wbmc=\"},{\"id\":8776,\"title\":\"suckseed\",\"description\":null,\"created_at\":\"June 04, 2012 03:45\",\"genres\":[{\"id\":9,\"name\":\"Drama\"}],\"origin_country\":\"Thailand\",\"image\":\"http://m0.viki.com/aHR0cDovL3d3dy52aWtpLmNvbS9pbWFnZXMvY2hhbm5lbF9kZWZhdWx0X21lZGl1bS5wbmc=\"},{\"id\":8758,\"title\":\"english\",\"description\":null,\"created_at\":\"June 02, 2012 07:29\",\"genres\":[{\"id\":1,\"name\":\"Action & Adventure\"}],\"origin_country\":\"United States\",\"image\":\"http://m0.viki.com/aHR0cDovL3d3dy52aWtpLmNvbS9pbWFnZXMvY2hhbm5lbF9kZWZhdWx0X21lZGl1bS5wbmc=\"},{\"id\":8757,\"title\":\"sikkin\",\"description\":\"jus mine\",\"created_at\":\"June 02, 2012 06:52\",\"genres\":[{\"id\":6,\"name\":\"Comedy\"}],\"origin_country\":\"Nepal\",\"image\":\"http://m0.viki.com/aHR0cDovL3d3dy52aWtpLmNvbS9pbWFnZXMvY2hhbm5lbF9kZWZhdWx0X21lZGl1bS5wbmc=\"},{\"id\":8750,\"title\":\"HBO\",\"description\":null,\"created_at\":\"May 31, 2012 16:23\",\"genres\":[{\"id\":1,\"name\":\"Action & Adventure\"}],\"origin_country\":\"Romania\",\"image\":\"http://m0.viki.com/aHR0cDovL3d3dy52aWtpLmNvbS9pbWFnZXMvY2hhbm5lbF9kZWZhdWx0X21lZGl1bS5wbmc=\"},{\"id\":8747,\"title\":\"Box Office Movie Trailer\",\"description\":\"All About Movie Trailers\",\"created_at\":\"May 31, 2012 07:17\",\"genres\":[{\"id\":21,\"name\":\"Variety Show\"}],\"origin_country\":\"Various Countries\",\"image\":\"http://m0.viki.com/aHR0cDovL3d3dy52aWtpLmNvbS9pbWFnZXMvY2hhbm5lbF9kZWZhdWx0X21lZGl1bS5wbmc=\"},{\"id\":8738,\"title\":\"horror\",\"description\":null,\"created_at\":\"May 30, 2012 13:03\",\"genres\":[{\"id\":12,\"name\":\"Horror & Supernatural\"}],\"origin_country\":\"France\",\"image\":\"http://m0.viki.com/aHR0cDovL3d3dy52aWtpLmNvbS9pbWFnZXMvY2hhbm5lbF9kZWZhdWx0X21lZGl1bS5wbmc=\"},{\"id\":8732,\"title\":\"sealed with a kiss\",\"description\":null,\"created_at\":\"May 29, 2012 20:01\",\"genres\":[{\"id\":9,\"name\":\"Drama\"}],\"origin_country\":\"China\",\"image\":\"http://m0.viki.com/aHR0cDovL3d3dy52aWtpLmNvbS9pbWFnZXMvY2hhbm5lbF9kZWZhdWx0X21lZGl1bS5wbmc=\"},{\"id\":8728,\"title\":\"indonesia\",\"description\":null,\"created_at\":\"May 29, 2012 14:41\",\"genres\":[],\"origin_country\":\"Indonesia\",\"image\":\"http://m0.viki.com/aHR0cDovL3d3dy52aWtpLmNvbS9pbWFnZXMvY2hhbm5lbF9kZWZhdWx0X21lZGl1bS5wbmc=\"},{\"id\":8726,\"title\":\"crying free man\",\"description\":null,\"created_at\":\"May 29, 2012 10:03\",\"genres\":[{\"id\":2,\"name\":\"Anime\"}],\"origin_country\":\"Various\",\"image\":\"http://m0.viki.com/aHR0cDovL3d3dy52aWtpLmNvbS9pbWFnZXMvY2hhbm5lbF9kZWZhdWx0X21lZGl1bS5wbmc=\"},{\"id\":8724,\"title\":\"realistic\",\"description\":\"relationship\",\"created_at\":\"May 29, 2012 01:53\",\"genres\":[{\"id\":10,\"name\":\"Entertainment\"}],\"origin_country\":\"United Kingdom\",\"image\":\"http://m0.viki.com/aHR0cDovL3d3dy52aWtpLmNvbS9pbWFnZXMvY2hhbm5lbF9kZWZhdWx0X21lZGl1bS5wbmc=\"},{\"id\":8718,\"title\":\"I LOVE Lee Tae Ri\",\"description\":\"Updated cast for the upcoming Korean drama \\u201cI Love Italy\\u201d (2012)Directed by Kim Do-hyeokWritten by Moon Ji-yeongNetwork : tvNWith Kim Ki-beom, Park Ye-jin, Yang Jin-woo, Jubi, Im Ho, Soy,\\u2026 More16 episodes \\u2013 Mon, Tue 23:00Synopsis\\u201dI Love Italy\\u201d is a romantic comedy about middle school student aged 14 who suddenly becomes a grown up and becomes an assistant to a plutocrat heiress Lee Tae-ri \",\"created_at\":\"May 28, 2012 19:35\",\"genres\":[{\"id\":6,\"name\":\"Comedy\"}],\"origin_country\":\"Korea\",\"image\":\"http://m0.viki.com/aHR0cDovL3d3dy52aWtpLmNvbS9pbWFnZXMvY2hhbm5lbF9kZWZhdWx0X21lZGl1bS5wbmc=\"}]}"
    http_version: 
  recorded_at: Mon, 18 Jun 2012 08:44:51 GMT
recorded_with: VCR 2.2.1
