--- 
http_interactions: 
- request: 
    method: get
    uri: http://viki.com/api/v3/music_videos.json?access_token=1b080a6b3a94ed4503e04e252500ca87f6e7dc55061cec92b627ef1fbec44c70&watchable_in=sg
    body: 
      encoding: US-ASCII
      string: ""
    headers: {}

  response: 
    status: 
      code: 301
      message: Moved Permanently
    headers: 
      Server: 
      - nginx
      Date: 
      - Mon, 18 Jun 2012 06:42:05 GMT
      Content-Type: 
      - text/plain
      Connection: 
      - keep-alive
      Location: 
      - http://www.viki.com/api/v3/music_videos.json?watchable_in=sg&access_token=1b080a6b3a94ed4503e04e252500ca87f6e7dc55061cec92b627ef1fbec44c70
      X-Rack-Cache: 
      - miss
      Content-Length: 
      - "9"
      X-Varnish: 
      - "820888370"
      Age: 
      - "0"
      Via: 
      - 1.1 varnish
    body: 
      encoding: US-ASCII
      string: "moved to "
    http_version: 
  recorded_at: Mon, 18 Jun 2012 06:42:05 GMT
- request: 
    method: get
    uri: http://www.viki.com/api/v3/music_videos.json?access_token=1b080a6b3a94ed4503e04e252500ca87f6e7dc55061cec92b627ef1fbec44c70&watchable_in=sg
    body: 
      encoding: US-ASCII
      string: ""
    headers: {}

  response: 
    status: 
      code: 200
      message: OK
    headers: 
      Server: 
      - nginx
      Date: 
      - Mon, 18 Jun 2012 06:42:08 GMT
      Content-Type: 
      - application/json; charset=utf-8
      Connection: 
      - keep-alive
      Cache-Control: 
      - public, max-age=3600
      Expires: 
      - Mon, 18 Jun 2012 07:42:08 GMT
      X-Ua-Compatible: 
      - IE=Edge,chrome=1
      Etag: 
      - "\"0740e405984c8c469805427f1401318a\""
      X-Request-Id: 
      - 09a3f239b3c0265c5529775f90267ffa
      X-Runtime: 
      - "1.058380"
      X-Content-Digest: 
      - 30115f678ea6529d0e75f6e3e4c06a36e807d987
      X-Rack-Cache: 
      - miss, ignore, store
      Content-Length: 
      - "25125"
      X-Varnish: 
      - "645221594"
      Age: 
      - "0"
      Via: 
      - 1.1 varnish
    body: 
      encoding: US-ASCII
      string: "{\"count\":566,\"pagination\":{\"previous\":\"\",\"next\":\"http://www.viki.com/api/v3/music_videos.json?page=2&watchable_in=sg\"},\"response\":[{\"id\":71584,\"title\":\"I Feel Like I'm Dying\",\"description\":null,\"uri\":\"http://www.viki.com/api/v3/music_videos/71584.json\",\"created_at\":\"June 13, 2012 07:04\",\"origin_country\":\"Korea\",\"image\":\"http://m1.viki.com/aHR0cDovL2MxLnZpa2lhc3NldHMuY29tL3VwbG9hZHMvbWVkaWFfcmVzb3VyY2UvdGh1bWJuYWlsLzE5MDAxOC80Yzk4MWQ2OTAxYWJjMWVlNGQ2ODBmZjNkY2E3MjM3MGIzNTk1YTU5LnBuZw==\",\"artist\":{\"id\":8375,\"uri\":\"http://www.viki.com/api/v3/artists/8375.json\",\"name\":\"Kim Dong Hee\"},\"formats\":{\"flash_embed\":\"http://a3.vikiassets.com/1339812536/swfs/vikiplayer.swf?media_id=71584&host=www.viki.com&auto_play=true&source=api_v3&language_codes=en&partner=13\",\"m3u8\":\"http://wpc.354a.edgecastcdn.net/00354A/videos/encoded/71584/ios.m3u8\",\"res-150p\":\"http://wpc.354a.edgecastcdn.net/00354A/videos/encoded/71584_mp4cell_150.mp4\",\"res-240p\":\"http://wpc.354a.edgecastcdn.net/00354A/videos/encoded/71584_240p.mp4\",\"res-270p\":\"http://wpc.354a.edgecastcdn.net/00354A/videos/encoded/71584_270p.mp4\",\"res-360p\":\"http://wpc.354a.edgecastcdn.net/00354A/videos/encoded/71584_360p.mp4\",\"res-480p\":\"http://wpc.354a.edgecastcdn.net/00354A/videos/encoded/71584_480p.mp4\",\"res-720p\":\"http://wpc.354a.edgecastcdn.net/00354A/videos/encoded/71584_720p.mp4\"}},{\"id\":71579,\"title\":\"The Gloomy Song\",\"description\":null,\"uri\":\"http://www.viki.com/api/v3/music_videos/71579.json\",\"created_at\":\"June 13, 2012 05:30\",\"origin_country\":\"Korea\",\"image\":\"http://m0.viki.com/aHR0cDovL2MzLnZpa2lhc3NldHMuY29tL3VwbG9hZHMvbWVkaWFfcmVzb3VyY2UvdGh1bWJuYWlsLzE5MDAwMy80MGVhYjk4YmQzY2Q3NzBjZTQ2NjNlYWUzMTUyZDQ1MDY4ZjNlOTQ1LnBuZw==\",\"artist\":{\"id\":8316,\"uri\":\"http://www.viki.com/api/v3/artists/8316.json\",\"name\":\"Defconn\"},\"formats\":{\"flash_embed\":\"http://a3.vikiassets.com/1339812536/swfs/vikiplayer.swf?media_id=71579&host=www.viki.com&auto_play=true&source=api_v3&language_codes=en&partner=13\",\"m3u8\":\"http://wpc.354a.edgecastcdn.net/00354A/videos/encoded/71579/ios.m3u8\",\"res-150p\":\"http://wpc.354a.edgecastcdn.net/00354A/videos/encoded/71579_mp4cell_150.mp4\",\"res-240p\":\"http://wpc.354a.edgecastcdn.net/00354A/videos/encoded/71579_240p.mp4\",\"res-270p\":\"http://wpc.354a.edgecastcdn.net/00354A/videos/encoded/71579_270p.mp4\",\"res-360p\":\"http://wpc.354a.edgecastcdn.net/00354A/videos/encoded/71579_360p.mp4\",\"res-480p\":\"http://wpc.354a.edgecastcdn.net/00354A/videos/encoded/71579_480p.mp4\",\"res-720p\":\"http://wpc.354a.edgecastcdn.net/00354A/videos/encoded/71579_720p.mp4\"}},{\"id\":71578,\"title\":\"Hanshim Cart Bar (feat.Boni)\",\"description\":null,\"uri\":\"http://www.viki.com/api/v3/music_videos/71578.json\",\"created_at\":\"June 13, 2012 05:28\",\"origin_country\":\"Korea\",\"image\":\"http://m0.viki.com/aHR0cDovL2MyLnZpa2lhc3NldHMuY29tL3VwbG9hZHMvbWVkaWFfcmVzb3VyY2UvdGh1bWJuYWlsLzE5MDAwMi80ZmFkYTMwNjJiMWY1MTMzMWY1NjI2MTk3ZjRkOGQyNzc2NjQ2NmNkLnBuZw==\",\"artist\":{\"id\":8316,\"uri\":\"http://www.viki.com/api/v3/artists/8316.json\",\"name\":\"Defconn\"},\"formats\":{\"flash_embed\":\"http://a3.vikiassets.com/1339812536/swfs/vikiplayer.swf?media_id=71578&host=www.viki.com&auto_play=true&source=api_v3&language_codes=en&partner=13\",\"m3u8\":\"http://wpc.354a.edgecastcdn.net/00354A/videos/encoded/71578/ios.m3u8\",\"res-150p\":\"http://wpc.354a.edgecastcdn.net/00354A/videos/encoded/71578_mp4cell_150.mp4\",\"res-240p\":\"http://wpc.354a.edgecastcdn.net/00354A/videos/encoded/71578_240p.mp4\",\"res-270p\":\"http://wpc.354a.edgecastcdn.net/00354A/videos/encoded/71578_270p.mp4\",\"res-360p\":\"http://wpc.354a.edgecastcdn.net/00354A/videos/encoded/71578_360p.mp4\",\"res-480p\":\"http://wpc.354a.edgecastcdn.net/00354A/videos/encoded/71578_480p.mp4\",\"res-720p\":\"http://wpc.354a.edgecastcdn.net/00354A/videos/encoded/71578_720p.mp4\"}},{\"id\":71574,\"title\":\"A-ing\\u2661\",\"description\":null,\"uri\":\"http://www.viki.com/api/v3/music_videos/71574.json\",\"created_at\":\"June 13, 2012 03:56\",\"origin_country\":\"Korea\",\"image\":\"http://m0.viki.com/aHR0cDovL2MwLnZpa2lhc3NldHMuY29tL3VwbG9hZHMvbWVkaWFfcmVzb3VyY2UvdGh1bWJuYWlsLzE4OTk5OC9iNzAzMjJjMmQ4YWM5ZTliMDEwYjAzNWU0NmQ5MzNmYWZhOTZlNjdiLnBuZw==\",\"artist\":{\"id\":4044,\"uri\":\"http://www.viki.com/api/v3/artists/4044.json\",\"name\":\"Orange Caramel\"},\"formats\":{\"flash_embed\":\"http://a3.vikiassets.com/1339812536/swfs/vikiplayer.swf?media_id=71574&host=www.viki.com&auto_play=true&source=api_v3&language_codes=en&partner=13\",\"m3u8\":\"http://wpc.354a.edgecastcdn.net/00354A/videos/encoded/71574/ios.m3u8\",\"res-150p\":\"http://wpc.354a.edgecastcdn.net/00354A/videos/encoded/71574_mp4cell_150.mp4\",\"res-240p\":\"http://wpc.354a.edgecastcdn.net/00354A/videos/encoded/71574_240p.mp4\",\"res-270p\":\"http://wpc.354a.edgecastcdn.net/00354A/videos/encoded/71574_270p.mp4\",\"res-360p\":\"http://wpc.354a.edgecastcdn.net/00354A/videos/encoded/71574_360p.mp4\",\"res-480p\":\"http://wpc.354a.edgecastcdn.net/00354A/videos/encoded/71574_480p.mp4\",\"res-720p\":\"http://wpc.354a.edgecastcdn.net/00354A/videos/encoded/71574_720p.mp4\"}},{\"id\":71573,\"title\":\"A-ing\\u2661 (dance ver.)\",\"description\":null,\"uri\":\"http://www.viki.com/api/v3/music_videos/71573.json\",\"created_at\":\"June 13, 2012 03:56\",\"origin_country\":\"Korea\",\"image\":\"http://m0.viki.com/aHR0cDovL2MwLnZpa2lhc3NldHMuY29tL3VwbG9hZHMvbWVkaWFfcmVzb3VyY2UvdGh1bWJuYWlsLzE4OTk5Ny8yNzI0NmU5YTk0MzI4MjYwYTJjMTJjNWZhYjJlYjVjMDYxMWNlNTQ5LnBuZw==\",\"artist\":{\"id\":4044,\"uri\":\"http://www.viki.com/api/v3/artists/4044.json\",\"name\":\"Orange Caramel\"},\"formats\":{\"flash_embed\":\"http://a3.vikiassets.com/1339812536/swfs/vikiplayer.swf?media_id=71573&host=www.viki.com&auto_play=true&source=api_v3&language_codes=en&partner=13\",\"m3u8\":\"http://wpc.354a.edgecastcdn.net/00354A/videos/encoded/71573/ios.m3u8\",\"res-150p\":\"http://wpc.354a.edgecastcdn.net/00354A/videos/encoded/71573_mp4cell_150.mp4\",\"res-240p\":\"http://wpc.354a.edgecastcdn.net/00354A/videos/encoded/71573_240p.mp4\",\"res-270p\":\"http://wpc.354a.edgecastcdn.net/00354A/videos/encoded/71573_270p.mp4\",\"res-360p\":\"http://wpc.354a.edgecastcdn.net/00354A/videos/encoded/71573_360p.mp4\",\"res-480p\":\"http://wpc.354a.edgecastcdn.net/00354A/videos/encoded/71573_480p.mp4\",\"res-720p\":\"http://wpc.354a.edgecastcdn.net/00354A/videos/encoded/71573_720p.mp4\"}},{\"id\":71545,\"title\":\"Hello & Goodbye\",\"description\":null,\"uri\":\"http://www.viki.com/api/v3/music_videos/71545.json\",\"created_at\":\"June 12, 2012 16:24\",\"origin_country\":\"Korea\",\"image\":\"http://m0.viki.com/aHR0cDovL2MwLnZpa2lhc3NldHMuY29tL3VwbG9hZHMvbWVkaWFfcmVzb3VyY2UvdGh1bWJuYWlsLzE4OTk0OS9hYWMxZDAyMzgyMmE1ZDgyNzliNWI5MWQxOTVhYjllMTNhMjU2MjE0LnBuZw==\",\"artist\":{\"id\":8422,\"uri\":\"http://www.viki.com/api/v3/artists/8422.json\",\"name\":\"MYNAME\"},\"formats\":{\"flash_embed\":\"http://a3.vikiassets.com/1339812536/swfs/vikiplayer.swf?media_id=71545&host=www.viki.com&auto_play=true&source=api_v3&language_codes=en&partner=13\",\"m3u8\":\"http://wpc.354a.edgecastcdn.net/00354A/videos/encoded/71545/ios.m3u8\",\"res-150p\":\"http://wpc.354a.edgecastcdn.net/00354A/videos/encoded/71545_mp4cell_150.mp4\",\"res-240p\":\"http://wpc.354a.edgecastcdn.net/00354A/videos/encoded/71545_240p.mp4\",\"res-270p\":\"http://wpc.354a.edgecastcdn.net/00354A/videos/encoded/71545_270p.mp4\",\"res-360p\":\"http://wpc.354a.edgecastcdn.net/00354A/videos/encoded/71545_360p.mp4\",\"res-480p\":\"http://wpc.354a.edgecastcdn.net/00354A/videos/encoded/71545_480p.mp4\",\"res-720p\":\"http://wpc.354a.edgecastcdn.net/00354A/videos/encoded/71545_720p.mp4\"}},{\"id\":71542,\"title\":\"To You\",\"description\":null,\"uri\":\"http://www.viki.com/api/v3/music_videos/71542.json\",\"created_at\":\"June 12, 2012 16:21\",\"origin_country\":\"Korea\",\"image\":\"http://m3.viki.com/aHR0cDovL2MyLnZpa2lhc3NldHMuY29tL3VwbG9hZHMvbWVkaWFfcmVzb3VyY2UvdGh1bWJuYWlsLzE4OTk0Ni84YmY2ZTFhNTk3MTNjYTBiYjU1NDc2Mjk3MDRlZDBjYzY0MTk1MjU0LnBuZw==\",\"artist\":{\"id\":8471,\"uri\":\"http://www.viki.com/api/v3/artists/8471.json\",\"name\":\"TEEN TOP\"},\"formats\":{\"flash_embed\":\"http://a3.vikiassets.com/1339812536/swfs/vikiplayer.swf?media_id=71542&host=www.viki.com&auto_play=true&source=api_v3&language_codes=en&partner=13\",\"m3u8\":\"http://wpc.354a.edgecastcdn.net/00354A/videos/encoded/71542/ios.m3u8\",\"res-150p\":\"http://wpc.354a.edgecastcdn.net/00354A/videos/encoded/71542_mp4cell_150.mp4\",\"res-240p\":\"http://wpc.354a.edgecastcdn.net/00354A/videos/encoded/71542_240p.mp4\",\"res-270p\":\"http://wpc.354a.edgecastcdn.net/00354A/videos/encoded/71542_270p.mp4\",\"res-360p\":\"http://wpc.354a.edgecastcdn.net/00354A/videos/encoded/71542_360p.mp4\",\"res-480p\":\"http://wpc.354a.edgecastcdn.net/00354A/videos/encoded/71542_480p.mp4\",\"res-720p\":\"http://wpc.354a.edgecastcdn.net/00354A/videos/encoded/71542_720p.mp4\"}},{\"id\":71537,\"title\":\"Olympic Expressway (feat.MC NalYoo)\",\"description\":null,\"uri\":\"http://www.viki.com/api/v3/music_videos/71537.json\",\"created_at\":\"June 12, 2012 16:17\",\"origin_country\":\"Korea\",\"image\":\"http://m1.viki.com/aHR0cDovL2MyLnZpa2lhc3NldHMuY29tL3VwbG9hZHMvbWVkaWFfcmVzb3VyY2UvdGh1bWJuYWlsLzE4OTk0MS82ZmQzZWRhZmQwNzE2OTNkOGE2NTdhZDRmOGFhMWI4NjFmZDk1MDg3LnBuZw==\",\"artist\":{\"id\":8316,\"uri\":\"http://www.viki.com/api/v3/artists/8316.json\",\"name\":\"Defconn\"},\"formats\":{\"flash_embed\":\"http://a3.vikiassets.com/1339812536/swfs/vikiplayer.swf?media_id=71537&host=www.viki.com&auto_play=true&source=api_v3&language_codes=en&partner=13\",\"m3u8\":\"http://wpc.354a.edgecastcdn.net/00354A/videos/encoded/71537/ios.m3u8\",\"res-150p\":\"http://wpc.354a.edgecastcdn.net/00354A/videos/encoded/71537_mp4cell_150.mp4\",\"res-240p\":\"http://wpc.354a.edgecastcdn.net/00354A/videos/encoded/71537_240p.mp4\",\"res-270p\":\"http://wpc.354a.edgecastcdn.net/00354A/videos/encoded/71537_270p.mp4\",\"res-360p\":\"http://wpc.354a.edgecastcdn.net/00354A/videos/encoded/71537_360p.mp4\",\"res-480p\":\"http://wpc.354a.edgecastcdn.net/00354A/videos/encoded/71537_480p.mp4\",\"res-720p\":\"http://wpc.354a.edgecastcdn.net/00354A/videos/encoded/71537_720p.mp4\"}},{\"id\":71535,\"title\":\"Crying\",\"description\":null,\"uri\":\"http://www.viki.com/api/v3/music_videos/71535.json\",\"created_at\":\"June 12, 2012 16:16\",\"origin_country\":\"Korea\",\"image\":\"http://m3.viki.com/aHR0cDovL2MyLnZpa2lhc3NldHMuY29tL3VwbG9hZHMvbWVkaWFfcmVzb3VyY2UvdGh1bWJuYWlsLzE4OTkzOS8xNjNhMzMwN2RhZDllMzIyZTYyMWRjYzc4YzY2ODI1MzBkNWFhOTcxLnBuZw==\",\"artist\":{\"id\":8344,\"uri\":\"http://www.viki.com/api/v3/artists/8344.json\",\"name\":\"Heo Young Saeng\"},\"formats\":{\"flash_embed\":\"http://a3.vikiassets.com/1339812536/swfs/vikiplayer.swf?media_id=71535&host=www.viki.com&auto_play=true&source=api_v3&language_codes=en&partner=13\",\"m3u8\":\"http://wpc.354a.edgecastcdn.net/00354A/videos/encoded/71535/ios.m3u8\",\"res-150p\":\"http://wpc.354a.edgecastcdn.net/00354A/videos/encoded/71535_mp4cell_150.mp4\",\"res-240p\":\"http://wpc.354a.edgecastcdn.net/00354A/videos/encoded/71535_240p.mp4\",\"res-270p\":\"http://wpc.354a.edgecastcdn.net/00354A/videos/encoded/71535_270p.mp4\",\"res-360p\":\"http://wpc.354a.edgecastcdn.net/00354A/videos/encoded/71535_360p.mp4\",\"res-480p\":\"http://wpc.354a.edgecastcdn.net/00354A/videos/encoded/71535_480p.mp4\",\"res-720p\":\"http://wpc.354a.edgecastcdn.net/00354A/videos/encoded/71535_720p.mp4\"}},{\"id\":71533,\"title\":\"Pursuing The Happiness [Feat. Jo Hyuna of Urban Zakapa] \",\"description\":null,\"uri\":\"http://www.viki.com/api/v3/music_videos/71533.json\",\"created_at\":\"June 12, 2012 16:11\",\"origin_country\":\"Korea\",\"image\":\"http://m2.viki.com/aHR0cDovL2MzLnZpa2lhc3NldHMuY29tL3VwbG9hZHMvbWVkaWFfcmVzb3VyY2UvdGh1bWJuYWlsLzE4OTkzNy9lNGE4ZjVkM2RmMmQ1N2MwNTkyYzliOWJmYmRmNzI3NjFjNWFhYmJlLnBuZw==\",\"artist\":{\"id\":8402,\"uri\":\"http://www.viki.com/api/v3/artists/8402.json\",\"name\":\"LeeSSang\"},\"formats\":{\"flash_embed\":\"http://a3.vikiassets.com/1339812536/swfs/vikiplayer.swf?media_id=71533&host=www.viki.com&auto_play=true&source=api_v3&language_codes=en&partner=13\",\"m3u8\":\"http://wpc.354a.edgecastcdn.net/00354A/videos/encoded/71533/ios.m3u8\",\"res-150p\":\"http://wpc.354a.edgecastcdn.net/00354A/videos/encoded/71533_mp4cell_150.mp4\",\"res-240p\":\"http://wpc.354a.edgecastcdn.net/00354A/videos/encoded/71533_240p.mp4\",\"res-270p\":\"http://wpc.354a.edgecastcdn.net/00354A/videos/encoded/71533_270p.mp4\",\"res-360p\":\"http://wpc.354a.edgecastcdn.net/00354A/videos/encoded/71533_360p.mp4\",\"res-480p\":\"http://wpc.354a.edgecastcdn.net/00354A/videos/encoded/71533_480p.mp4\",\"res-720p\":\"http://wpc.354a.edgecastcdn.net/00354A/videos/encoded/71533_720p.mp4\"}},{\"id\":71532,\"title\":\"Hard To Be Humble\",\"description\":null,\"uri\":\"http://www.viki.com/api/v3/music_videos/71532.json\",\"created_at\":\"June 12, 2012 16:09\",\"origin_country\":\"Korea\",\"image\":\"http://m2.viki.com/aHR0cDovL2MxLnZpa2lhc3NldHMuY29tL3VwbG9hZHMvbWVkaWFfcmVzb3VyY2UvdGh1bWJuYWlsLzE4OTkzNi8zZTBhZjJlYTA0NDY3ZjdjZThhOWFjMGQ2YmVmYjQwYjNlZDk3NmYyLnBuZw==\",\"artist\":{\"id\":8402,\"uri\":\"http://www.viki.com/api/v3/artists/8402.json\",\"name\":\"LeeSSang\"},\"formats\":{\"flash_embed\":\"http://a3.vikiassets.com/1339812536/swfs/vikiplayer.swf?media_id=71532&host=www.viki.com&auto_play=true&source=api_v3&language_codes=en&partner=13\",\"m3u8\":\"http://wpc.354a.edgecastcdn.net/00354A/videos/encoded/71532/ios.m3u8\",\"res-150p\":\"http://wpc.354a.edgecastcdn.net/00354A/videos/encoded/71532_mp4cell_150.mp4\",\"res-240p\":\"http://wpc.354a.edgecastcdn.net/00354A/videos/encoded/71532_240p.mp4\",\"res-270p\":\"http://wpc.354a.edgecastcdn.net/00354A/videos/encoded/71532_270p.mp4\",\"res-360p\":\"http://wpc.354a.edgecastcdn.net/00354A/videos/encoded/71532_360p.mp4\",\"res-480p\":\"http://wpc.354a.edgecastcdn.net/00354A/videos/encoded/71532_480p.mp4\",\"res-720p\":\"http://wpc.354a.edgecastcdn.net/00354A/videos/encoded/71532_720p.mp4\"}},{\"id\":71531,\"title\":\"Someday [Feat. Yoon Do Hyun of YB] \",\"description\":null,\"uri\":\"http://www.viki.com/api/v3/music_videos/71531.json\",\"created_at\":\"June 12, 2012 16:07\",\"origin_country\":\"Korea\",\"image\":\"http://m2.viki.com/aHR0cDovL2MzLnZpa2lhc3NldHMuY29tL3VwbG9hZHMvbWVkaWFfcmVzb3VyY2UvdGh1bWJuYWlsLzE4OTkzNS9hYjRkZGJkMTZkOTRiZDczZTY4NWE0ZDkxODg5MWRhZTA2MWExZmMxLnBuZw==\",\"artist\":{\"id\":8402,\"uri\":\"http://www.viki.com/api/v3/artists/8402.json\",\"name\":\"LeeSSang\"},\"formats\":{\"flash_embed\":\"http://a3.vikiassets.com/1339812536/swfs/vikiplayer.swf?media_id=71531&host=www.viki.com&auto_play=true&source=api_v3&language_codes=en&partner=13\",\"m3u8\":\"http://wpc.354a.edgecastcdn.net/00354A/videos/encoded/71531/ios.m3u8\",\"res-150p\":\"http://wpc.354a.edgecastcdn.net/00354A/videos/encoded/71531_mp4cell_150.mp4\",\"res-240p\":\"http://wpc.354a.edgecastcdn.net/00354A/videos/encoded/71531_240p.mp4\",\"res-270p\":\"http://wpc.354a.edgecastcdn.net/00354A/videos/encoded/71531_270p.mp4\",\"res-360p\":\"http://wpc.354a.edgecastcdn.net/00354A/videos/encoded/71531_360p.mp4\",\"res-480p\":\"http://wpc.354a.edgecastcdn.net/00354A/videos/encoded/71531_480p.mp4\",\"res-720p\":\"http://wpc.354a.edgecastcdn.net/00354A/videos/encoded/71531_720p.mp4\"}},{\"id\":71528,\"title\":\"Good Boy (feat Yong Jun Hyung of BEAST) \",\"description\":null,\"uri\":\"http://www.viki.com/api/v3/music_videos/71528.json\",\"created_at\":\"June 12, 2012 16:02\",\"origin_country\":\"Korea\",\"image\":\"http://m3.viki.com/aHR0cDovL2MzLnZpa2lhc3NldHMuY29tL3VwbG9hZHMvbWVkaWFfcmVzb3VyY2UvdGh1bWJuYWlsLzE4OTkzMi80NzY3Nzg4MDNkNmM2NTI0OTg1YjkyYTAxNzM5ZTM3ZDNhZjE3YzUyLnBuZw==\",\"artist\":{\"id\":8292,\"uri\":\"http://www.viki.com/api/v3/artists/8292.json\",\"name\":\"Baek Ji Young\"},\"formats\":{\"flash_embed\":\"http://a3.vikiassets.com/1339812536/swfs/vikiplayer.swf?media_id=71528&host=www.viki.com&auto_play=true&source=api_v3&language_codes=en&partner=13\",\"m3u8\":\"http://wpc.354a.edgecastcdn.net/00354A/videos/encoded/71528/ios.m3u8\",\"res-150p\":\"http://wpc.354a.edgecastcdn.net/00354A/videos/encoded/71528_mp4cell_150.mp4\",\"res-240p\":\"http://wpc.354a.edgecastcdn.net/00354A/videos/encoded/71528_240p.mp4\",\"res-270p\":\"http://wpc.354a.edgecastcdn.net/00354A/videos/encoded/71528_270p.mp4\",\"res-360p\":\"http://wpc.354a.edgecastcdn.net/00354A/videos/encoded/71528_360p.mp4\",\"res-480p\":\"http://wpc.354a.edgecastcdn.net/00354A/videos/encoded/71528_480p.mp4\",\"res-720p\":\"http://wpc.354a.edgecastcdn.net/00354A/videos/encoded/71528_720p.mp4\"}},{\"id\":71524,\"title\":\"Sorry But I\",\"description\":null,\"uri\":\"http://www.viki.com/api/v3/music_videos/71524.json\",\"created_at\":\"June 12, 2012 16:00\",\"origin_country\":\"Korea\",\"image\":\"http://m2.viki.com/aHR0cDovL2MyLnZpa2lhc3NldHMuY29tL3VwbG9hZHMvbWVkaWFfcmVzb3VyY2UvdGh1bWJuYWlsLzE4OTkyOC8yZjRiNjA3YTNmNDg4MmUwNDg3Y2Q2MjgyODBhYzFhNTcwYWVhOWRlLnBuZw==\",\"artist\":{\"id\":8304,\"uri\":\"http://www.viki.com/api/v3/artists/8304.json\",\"name\":\"C-REAL\"},\"formats\":{\"flash_embed\":\"http://a3.vikiassets.com/1339812536/swfs/vikiplayer.swf?media_id=71524&host=www.viki.com&auto_play=true&source=api_v3&language_codes=en&partner=13\",\"m3u8\":\"http://wpc.354a.edgecastcdn.net/00354A/videos/encoded/71524/ios.m3u8\",\"res-150p\":\"http://wpc.354a.edgecastcdn.net/00354A/videos/encoded/71524_mp4cell_150.mp4\",\"res-240p\":\"http://wpc.354a.edgecastcdn.net/00354A/videos/encoded/71524_240p.mp4\",\"res-270p\":\"http://wpc.354a.edgecastcdn.net/00354A/videos/encoded/71524_270p.mp4\",\"res-360p\":\"http://wpc.354a.edgecastcdn.net/00354A/videos/encoded/71524_360p.mp4\",\"res-480p\":\"http://wpc.354a.edgecastcdn.net/00354A/videos/encoded/71524_480p.mp4\",\"res-720p\":\"http://wpc.354a.edgecastcdn.net/00354A/videos/encoded/71524_720p.mp4\"}},{\"id\":71515,\"title\":\"Heo Young Saeng - CRYING\",\"description\":\"Nuevo single de su nuevo minialbum \\\"SOLO\\\"\",\"uri\":\"http://www.viki.com/api/v3/music_videos/71515.json\",\"created_at\":\"June 12, 2012 12:28\",\"origin_country\":\"Korea\",\"image\":\"http://m3.viki.com/aHR0cDovL2MxLnZpa2lhc3NldHMuY29tL3VwbG9hZHMvbWVkaWFfcmVzb3VyY2UvdGh1bWJuYWlsLzE4OTkwOS84Y2FmODljYjE0NWY1MjZiNWRjNjkzYjU4YmNkN2E2ZDg2ZGQ0YzI0LmpwZw==\",\"artist\":{\"id\":8344,\"uri\":\"http://www.viki.com/api/v3/artists/8344.json\",\"name\":\"Heo Young Saeng\"},\"formats\":{\"flash_embed\":\"http://a3.vikiassets.com/1339812536/swfs/vikiplayer.swf?video_id=189909&host=www.viki.com&auto_play=true&source=api_v3&language_codes=en&partner=13\"}},{\"id\":71514,\"title\":\"Heo Young Saeng - RAINY HEART \",\"description\":null,\"uri\":\"http://www.viki.com/api/v3/music_videos/71514.json\",\"created_at\":\"June 12, 2012 12:23\",\"origin_country\":\"Korea\",\"image\":\"http://m2.viki.com/aHR0cDovL2MwLnZpa2lhc3NldHMuY29tL3VwbG9hZHMvbWVkaWFfcmVzb3VyY2UvdGh1bWJuYWlsLzE4OTkwOC9lOWNhNjEwMTZkYWYyMDVkY2NjMTU4NThlNTZjYTQyNTM0NzM0NDYwLmpwZw==\",\"artist\":{\"id\":8344,\"uri\":\"http://www.viki.com/api/v3/artists/8344.json\",\"name\":\"Heo Young Saeng\"},\"formats\":{\"flash_embed\":\"http://a3.vikiassets.com/1339812536/swfs/vikiplayer.swf?video_id=189908&host=www.viki.com&auto_play=true&source=api_v3&language_codes=en&partner=13\"}},{\"id\":71513,\"title\":\"Heo Young Saeng - LET IT GO\",\"description\":\"Single del primer minialbum en solitario de Heo Young Saeng \\\"Let it go\\\" en 2011\",\"uri\":\"http://www.viki.com/api/v3/music_videos/71513.json\",\"created_at\":\"June 12, 2012 12:20\",\"origin_country\":\"Korea\",\"image\":\"http://m0.viki.com/aHR0cDovL2MyLnZpa2lhc3NldHMuY29tL3VwbG9hZHMvbWVkaWFfcmVzb3VyY2UvdGh1bWJuYWlsLzE4OTkwNy8xMTVmZDY2N2YxYmRkZjBhZDBkM2FkZjJkYmZjY2JkZjA5OTU3OGU3LmpwZw==\",\"artist\":{\"id\":8344,\"uri\":\"http://www.viki.com/api/v3/artists/8344.json\",\"name\":\"Heo Young Saeng\"},\"formats\":{\"flash_embed\":\"http://a3.vikiassets.com/1339812536/swfs/vikiplayer.swf?video_id=189907&host=www.viki.com&auto_play=true&source=api_v3&language_codes=en&partner=13\"}},{\"id\":71112,\"title\":\"Only Hard For Me\",\"description\":null,\"uri\":\"http://www.viki.com/api/v3/music_videos/71112.json\",\"created_at\":\"June 04, 2012 03:34\",\"origin_country\":\"Korea\",\"image\":\"http://m0.viki.com/aHR0cDovL2MwLnZpa2lhc3NldHMuY29tL3VwbG9hZHMvbWVkaWFfcmVzb3VyY2UvdGh1bWJuYWlsLzE4OTE5OS8xZjk3OGIyOTE5MGQ3MTM4ODdmMTYyYjk0ZDBkMTJmMjMzOTk1Zjk1LnBuZw==\",\"artist\":{\"id\":8546,\"uri\":\"http://www.viki.com/api/v3/artists/8546.json\",\"name\":\"M.I.B.\"},\"formats\":{\"flash_embed\":\"http://a3.vikiassets.com/1339812536/swfs/vikiplayer.swf?media_id=71112&host=www.viki.com&auto_play=true&source=api_v3&language_codes=en&partner=13\",\"m3u8\":\"http://wpc.354a.edgecastcdn.net/00354A/videos/encoded/71112/ios.m3u8\",\"res-150p\":\"http://wpc.354a.edgecastcdn.net/00354A/videos/encoded/71112_mp4cell_150.mp4\",\"res-240p\":\"http://wpc.354a.edgecastcdn.net/00354A/videos/encoded/71112_240p.mp4\",\"res-270p\":\"http://wpc.354a.edgecastcdn.net/00354A/videos/encoded/71112_270p.mp4\",\"res-360p\":\"http://wpc.354a.edgecastcdn.net/00354A/videos/encoded/71112_360p.mp4\",\"res-480p\":\"http://wpc.354a.edgecastcdn.net/00354A/videos/encoded/71112_480p.mp4\",\"res-720p\":\"http://wpc.354a.edgecastcdn.net/00354A/videos/encoded/71112_720p.mp4\"}},{\"id\":70642,\"title\":\"Hello\",\"description\":\"feat. Yong Jun Hyung (B2ST/BEAST)\",\"uri\":\"http://www.viki.com/api/v3/music_videos/70642.json\",\"created_at\":\"May 29, 2012 11:01\",\"origin_country\":\"Korea\",\"image\":\"\",\"artist\":{\"id\":8349,\"uri\":\"http://www.viki.com/api/v3/artists/8349.json\",\"name\":\"Huh Gak\"},\"formats\":\"\"},{\"id\":70486,\"title\":\"A Night Like This\",\"description\":\"Davichi feat. 2BIC\",\"uri\":\"http://www.viki.com/api/v3/music_videos/70486.json\",\"created_at\":\"May 26, 2012 14:13\",\"origin_country\":\"Korea\",\"image\":\"http://m1.viki.com/aHR0cDovL2MwLnZpa2lhc3NldHMuY29tL3VwbG9hZHMvbWVkaWFfcmVzb3VyY2UvdGh1bWJuYWlsLzE4ODA0OC8zOWJkMmUwZmFiZDgwODg0N2I0MGRkYjEwMGRiMGViYjM1YjcyMTc3LmpwZw==\",\"artist\":{\"id\":8315,\"uri\":\"http://www.viki.com/api/v3/artists/8315.json\",\"name\":\"Davichi\"},\"formats\":{\"flash_embed\":\"http://a3.vikiassets.com/1339812536/swfs/vikiplayer.swf?video_id=188048&host=www.viki.com&auto_play=true&source=api_v3&language_codes=en&partner=13\"}},{\"id\":70460,\"title\":\"Guess I Didn't Know Love \",\"description\":\"featuring Dynamic Duo\",\"uri\":\"http://www.viki.com/api/v3/music_videos/70460.json\",\"created_at\":\"May 25, 2012 22:43\",\"origin_country\":\"Korea\",\"image\":\"http://m2.viki.com/aHR0cDovL2MxLnZpa2lhc3NldHMuY29tL3VwbG9hZHMvbWVkaWFfcmVzb3VyY2UvdGh1bWJuYWlsLzE4ODAwOC9hNWExZjBhMWQ3NmE4MDc0NGUzMTViOWZhNmU5NmU2Y2U0MGFhZjA3LmpwZw==\",\"artist\":{\"id\":8443,\"uri\":\"http://www.viki.com/api/v3/artists/8443.json\",\"name\":\"Piggy Dolls\"},\"formats\":{\"flash_embed\":\"http://a3.vikiassets.com/1339812536/swfs/vikiplayer.swf?video_id=188008&host=www.viki.com&auto_play=true&source=api_v3&language_codes=en&partner=13\"}},{\"id\":70459,\"title\":\"What is love\",\"description\":\"Featuring Simon D\",\"uri\":\"http://www.viki.com/api/v3/music_videos/70459.json\",\"created_at\":\"May 25, 2012 22:40\",\"origin_country\":\"Korea\",\"image\":\"http://m0.viki.com/aHR0cDovL2MxLnZpa2lhc3NldHMuY29tL3VwbG9hZHMvbWVkaWFfcmVzb3VyY2UvdGh1bWJuYWlsLzE4ODAwNy8zNWIyNTMxOTE0OTg3OWJjNmU1NGRhYjZmMmQ5YTM5YmEwMjI3NDA3LmpwZw==\",\"artist\":{\"id\":8443,\"uri\":\"http://www.viki.com/api/v3/artists/8443.json\",\"name\":\"Piggy Dolls\"},\"formats\":{\"flash_embed\":\"http://a3.vikiassets.com/1339812536/swfs/vikiplayer.swf?video_id=188007&host=www.viki.com&auto_play=true&source=api_v3&language_codes=en&partner=13\"}},{\"id\":70289,\"title\":\"Birthday Killer\",\"description\":\"In the 'birthday killer' MV, Kwang-Yeon suffers from the comments from his anti-fans and this leads to him deciding to commit a suicide. While the other members of LEDApple search for him, the music video depicts the idea of 'lets look for hope and freedom for others around you rather than commiting a suicide' as well as criticizing the anti-fans who leave heart-breaking comments these days. \",\"uri\":\"http://www.viki.com/api/v3/music_videos/70289.json\",\"created_at\":\"May 24, 2012 23:05\",\"origin_country\":\"Korea\",\"image\":\"http://m3.viki.com/aHR0cDovL2MwLnZpa2lhc3NldHMuY29tL3VwbG9hZHMvbWVkaWFfcmVzb3VyY2UvdGh1bWJuYWlsLzE4NzgyNi8xNzIwMjljMjVmNzE3YWExZDE3ZTU2OTJkYTdlZDViNmE4NTEzYzQ4LmpwZw==\",\"artist\":{\"id\":8391,\"uri\":\"http://www.viki.com/api/v3/artists/8391.json\",\"name\":\"LEDApple\"},\"formats\":{\"flash_embed\":\"http://a3.vikiassets.com/1339812536/swfs/vikiplayer.swf?video_id=187826&host=www.viki.com&auto_play=true&source=api_v3&language_codes=en&partner=13\"}},{\"id\":70288,\"title\":\"SADNESS (\\uc0c8\\ub4dc\\ub2c8\\uc2a4)\",\"description\":\"With an attractive melody that stands out, \\\"SADNESS\\\" contains the longings of a man who hopes that the letter he has received from his lover telling him goodbye is merely a nightmare and that she will come back to him.\",\"uri\":\"http://www.viki.com/api/v3/music_videos/70288.json\",\"created_at\":\"May 24, 2012 22:58\",\"origin_country\":\"Korea\",\"image\":\"http://m3.viki.com/aHR0cDovL2MxLnZpa2lhc3NldHMuY29tL3VwbG9hZHMvbWVkaWFfcmVzb3VyY2UvdGh1bWJuYWlsLzE4NzgyNS9lZTIxNWQwZDQyMTViYjlhYzliYjBkMDIwYzJmODgxMmFjMThjMGE4LmpwZw==\",\"artist\":{\"id\":8391,\"uri\":\"http://www.viki.com/api/v3/artists/8391.json\",\"name\":\"LEDApple\"},\"formats\":{\"flash_embed\":\"http://a3.vikiassets.com/1339812536/swfs/vikiplayer.swf?video_id=187825&host=www.viki.com&auto_play=true&source=api_v3&language_codes=en&partner=13\"}},{\"id\":70287,\"title\":\"Time is up\",\"description\":\" 'Time is up' can be expected Led apple's own style of music with further upgraded great performance.\",\"uri\":\"http://www.viki.com/api/v3/music_videos/70287.json\",\"created_at\":\"May 24, 2012 22:55\",\"origin_country\":\"Korea\",\"image\":\"http://m2.viki.com/aHR0cDovL2MxLnZpa2lhc3NldHMuY29tL3VwbG9hZHMvbWVkaWFfcmVzb3VyY2UvdGh1bWJuYWlsLzE4NzgyNC82NDVhNTcxOTQ2ZmJlOTM2M2ZiOTBhNTllY2FjMjJjNjBiMTRjZDM4LmpwZw==\",\"artist\":{\"id\":8391,\"uri\":\"http://www.viki.com/api/v3/artists/8391.json\",\"name\":\"LEDApple\"},\"formats\":{\"flash_embed\":\"http://a3.vikiassets.com/1339812536/swfs/vikiplayer.swf?video_id=187824&host=www.viki.com&auto_play=true&source=api_v3&language_codes=en&partner=13\"}}]}"
    http_version: 
  recorded_at: Mon, 18 Jun 2012 06:42:09 GMT
recorded_with: VCR 2.2.2
