--- 
http_interactions: 
- request: 
    method: get
    uri: http://viki.com/api/v3/artists.json?access_token=1b080a6b3a94ed4503e04e252500ca87f6e7dc55061cec92b627ef1fbec44c70&platform=mobile&watchable_in=sg
    body: 
      encoding: US-ASCII
      string: ""
    headers: {}

  response: 
    status: 
      code: 301
      message: Moved Permanently
    headers: 
      Server: 
      - nginx
      Date: 
      - Mon, 18 Jun 2012 07:09:43 GMT
      Content-Type: 
      - text/plain
      Connection: 
      - keep-alive
      Location: 
      - http://www.viki.com/api/v3/artists.json?platform=mobile&watchable_in=sg&access_token=1b080a6b3a94ed4503e04e252500ca87f6e7dc55061cec92b627ef1fbec44c70
      X-Rack-Cache: 
      - miss
      Content-Length: 
      - "9"
      X-Varnish: 
      - "573683754"
      Age: 
      - "0"
      Via: 
      - 1.1 varnish
    body: 
      encoding: US-ASCII
      string: "moved to "
    http_version: 
  recorded_at: Mon, 18 Jun 2012 07:09:43 GMT
- request: 
    method: get
    uri: http://www.viki.com/api/v3/artists.json?access_token=1b080a6b3a94ed4503e04e252500ca87f6e7dc55061cec92b627ef1fbec44c70&platform=mobile&watchable_in=sg
    body: 
      encoding: US-ASCII
      string: ""
    headers: {}

  response: 
    status: 
      code: 200
      message: OK
    headers: 
      Server: 
      - nginx
      Date: 
      - Mon, 18 Jun 2012 07:09:44 GMT
      Content-Type: 
      - application/json; charset=utf-8
      Connection: 
      - keep-alive
      Cache-Control: 
      - public, max-age=3600
      Expires: 
      - Mon, 18 Jun 2012 08:09:44 GMT
      X-Ua-Compatible: 
      - IE=Edge,chrome=1
      Etag: 
      - "\"8abf5a9dec1063771937d7a9b300698d\""
      X-Request-Id: 
      - 859c0400e8731c2f6ab4bf647e3530b1
      X-Runtime: 
      - "0.556776"
      X-Content-Digest: 
      - 770b7ef8777d1d0061520f1d95426c00c5982c01
      X-Rack-Cache: 
      - miss, ignore, store
      Content-Length: 
      - "19905"
      X-Varnish: 
      - "645412657"
      Age: 
      - "0"
      Via: 
      - 1.1 varnish
    body: 
      encoding: US-ASCII
      string: "{\"count\":31,\"pagination\":{\"previous\":\"\",\"next\":\"http://www.viki.com/api/v3/artists.json?page=2&platform=mobile&watchable_in=sg\"},\"response\":[{\"id\":8548,\"name\":\"Yoon Mirae\",\"description\":\"Yoon Mirae, also known as Tasha Reid, is one of the most influential Korean American hip hop artists and is known as the \\u201cQueen of Soul.\\u201d She was born as Natasha Shanta Reid in Portland, Texas, on May 31, 1981, to a Korean mother and an African American father. She debuted at the age of 16 with the R&B group Uptown. She is married to hip hop pioneer Tiger JK. Watch the music videos of her songs \\u201cGet It In,\\u201d \\u201cMy Time,\\u201d \\u201cBlack Happiness\\u201d and \\u201cGoodbye Sadness, Hello Happiness\\u201d.\",\"created_at\":\"May 16, 2012 12:32\",\"uri\":\"http://www.viki.com/api/v3/artists/8548.json\",\"image\":\"http://m0.viki.com/aHR0cDovL2MxLnZpa2lhc3NldHMuY29tL3VwbG9hZHMvY2hhbm5lbC90aHVtYm5haWwvODU0OC9mMjY4MDkwZWYzMDc4ODAyMmVjODQ2NjQzZDIxZWU0N2QxMTMxYzNjLnBuZw==\",\"origin_country\":\"Korea\",\"roles\":[\"Musician\"],\"music_videos\":{\"count\":4,\"uri\":\"http://www.viki.com/api/v3/artists/8548/music_videos.json\"}},{\"id\":8547,\"name\":\"Tiger JK\",\"description\":\"Tiger JK is a highly respected Korean American rapper, considered as one of the true pioneers of hip hop music in Korea. Born as Seo Jung Kwon in Los Angeles, California, he is one of the founding members of the hip hop group Drunken Tiger. He also is the founder and former CEO of Jungle Entertainment. His brand extends to products and clothing. Watch the music videos of his songs \\u201cCongrats,\\u201d \\u201cDoDoDoWababaroo,\\u201d \\u201c8:45 Heaven,\\u201d \\u201cMonster\\u201d, \\u201cCongrats\\u201d and \\u201cIsolated Ones, Left Foot Forward, March\\u201d.\",\"created_at\":\"May 16, 2012 12:31\",\"uri\":\"http://www.viki.com/api/v3/artists/8547.json\",\"image\":\"http://m1.viki.com/aHR0cDovL2MzLnZpa2lhc3NldHMuY29tL3VwbG9hZHMvY2hhbm5lbC90aHVtYm5haWwvODU0Ny9hMjNmMjhmN2MzMDAwZTI4YjA1OTg0MDA0ZjRlNTdjZjcyN2YwNDcxLnBuZw==\",\"origin_country\":\"Korea\",\"roles\":[\"Musician\"],\"music_videos\":{\"count\":5,\"uri\":\"http://www.viki.com/api/v3/artists/8547/music_videos.json\"}},{\"id\":8546,\"name\":\"M.I.B.\",\"description\":\"MIB, which stands for \\u201cMost Incredible Busters,\\u201d is a South Korean hip hop group that debuted in 2011. The four members of the group are 5zic (Kim Han Gil, July 26, 1988), Cream (Kim Gi Seok, February 14, 1990, SIMS (Sim Jong Su, February 27, 1991) and Kang Nam (Namekawa Yasuo, March 23, 1987). Their debut album showcased each of the four members\\u2019 solo singing abilities. Watch the music videos of his songs \\u201cCelebrate,\\u201d \\u201cG.D.M.,\\u201d \\u201cBeautiful Day,\\u201d \\u201cDo U Like Me,\\u201d \\u201cHands Up\\u201d and \\u201cSay My Name.\\u201d\",\"created_at\":\"May 16, 2012 12:30\",\"uri\":\"http://www.viki.com/api/v3/artists/8546.json\",\"image\":\"http://m2.viki.com/aHR0cDovL2MzLnZpa2lhc3NldHMuY29tL3VwbG9hZHMvY2hhbm5lbC90aHVtYm5haWwvODU0Ni8yNjJjY2ExMGE5OTU3MjgyYTRkZDgyNTA2OWRiYTMxMTIzYWFhNzhmLmpwZw==\",\"origin_country\":\"Korea\",\"roles\":[\"Musician\"],\"music_videos\":{\"count\":7,\"uri\":\"http://www.viki.com/api/v3/artists/8546/music_videos.json\"}},{\"id\":8545,\"name\":\"Clazzi\",\"description\":\"Clazzi, also known as DJ Clazzi, is the stage name of Kim Sung Hoon, a South Korean composer, mixer and producer considered the mastermind behind the electronica acid pop group Clazziquai. Born on November 15, 1974, Clazzi released his first solo album in early 2012 that features a number of guest singers. Watch the music videos of his solo songs \\u201cLove & Hate\\u201d and \\u201cHow We Feel.\\u201d\",\"created_at\":\"May 16, 2012 12:29\",\"uri\":\"http://www.viki.com/api/v3/artists/8545.json\",\"image\":\"http://m0.viki.com/aHR0cDovL2MyLnZpa2lhc3NldHMuY29tL3VwbG9hZHMvY2hhbm5lbC90aHVtYm5haWwvODU0NS9jMTM0OGEyYThhZTdkODZlYzMxZTJjMjMwNTMzNGViZmJhOTcwOWViLmpwZw==\",\"origin_country\":\"Korea\",\"roles\":[\"Musician\"],\"music_videos\":{\"count\":2,\"uri\":\"http://www.viki.com/api/v3/artists/8545/music_videos.json\"}},{\"id\":8544,\"name\":\"J'Kyun\",\"description\":\"J\\u2019Kyun is a South Korean rapper and singer who is known as the \\u201chip hop prince.\\u201d He is popular for his quick rhymes and funny lyrics. His solo albums have been very successful and he is a popular collaborator with other singers and rappers. When he did a parody to Big Bang\\u2019s \\u201cFantastic Baby,\\u201d naming it \\u201cFantastic Soon Kyu\\u201d as a love dedication to Girls\\u2019 Generation\\u2019s Sunny, it was very well received. Watch the music videos of his songs \\u201cLately,\\u201d \\u201c2 Job Hustle,\\u201d \\u201cGroovy J\\u201d and \\u201cRap Dealers.\",\"created_at\":\"May 16, 2012 12:29\",\"uri\":\"http://www.viki.com/api/v3/artists/8544.json\",\"image\":\"http://m2.viki.com/aHR0cDovL2MwLnZpa2lhc3NldHMuY29tL3VwbG9hZHMvY2hhbm5lbC90aHVtYm5haWwvODU0NC8xOWQ4MzFhNDAwNTI5MmVlYTU5NmI0ZTkxOGUwNmE2ZDA2ZTUyMjFlLnBuZw==\",\"origin_country\":\"Korea\",\"roles\":[\"Musician\"],\"music_videos\":{\"count\":5,\"uri\":\"http://www.viki.com/api/v3/artists/8544/music_videos.json\"}},{\"id\":8543,\"name\":\"BTOB\",\"description\":\"BTOB, which stands for \\u201cBorn to Beat,\\u201d is a South Korean boy band that debuted in 2012 and have already impressed audiences with their great dance skills. The seven members are Peniel (Shin Peniel D.), Changsub (Lee Chang Sub), Eunkwang (Seo Eun Kwang), Minhyuk (Lee Min Hyuk), Ilhoon (Jung Il Hoon), Sungjae (Yook Sung Jae), and Hyunsik (Lim Hyun Sik). The members were born between 1990 and 1995. Watch the music videos of their debut songs \\u201cInsane\\u201d and \\u201cFather.\\u201d\",\"created_at\":\"May 16, 2012 12:28\",\"uri\":\"http://www.viki.com/api/v3/artists/8543.json\",\"image\":\"http://m0.viki.com/aHR0cDovL2MxLnZpa2lhc3NldHMuY29tL3VwbG9hZHMvY2hhbm5lbC90aHVtYm5haWwvODU0My8xYjg4ZmUyYzNiOTJkYzc4MmE0MzE4ZmM0YzU2ZWFhM2IwOTdkZTFmLmpwZw==\",\"origin_country\":\"Korea\",\"roles\":[\"Musician\"],\"music_videos\":{\"count\":2,\"uri\":\"http://www.viki.com/api/v3/artists/8543/music_videos.json\"}},{\"id\":7226,\"name\":\"Ailee\",\"description\":\"Ailee is the stage name of Lee Ye Jin, a Korean American R&B singer and actress who debuted in 2012. Born in New Jersey on May 30, 1989, she also is known as Amy Lee. She is featured on the soundtrack for the popular television drama \\u201cDream High 2,\\u201d which also marked her acting debut as a member of a fictional K-pop group called HerShe. Watch the music video of Ailee\\u2019s first single \\u201cHeaven.\\u201d\",\"created_at\":\"February 19, 2012 10:56\",\"uri\":\"http://www.viki.com/api/v3/artists/7226.json\",\"image\":\"http://m2.viki.com/aHR0cDovL2MzLnZpa2lhc3NldHMuY29tL3VwbG9hZHMvY2hhbm5lbC90aHVtYm5haWwvNzIyNi84MWJkMzhiZjQ4NTVkZDljNTkwZTRhNWI2MGUwMjZiOGE2Y2RjZWQ5LmpwZw==\",\"origin_country\":\"Various\",\"roles\":[\"Musician\"],\"music_videos\":{\"count\":1,\"uri\":\"http://www.viki.com/api/v3/artists/7226/music_videos.json\"}},{\"id\":7153,\"name\":\"B.A.P\",\"description\":\"B.A.P., a South Korean hip hop boy band that debuted in early 2012, is known for their perfect dance moves, charisma and great voices. The group\\u2019s name is an acronym for \\u201cBest Absolute Perfect.\\u201d The group\\u2019 six members \\u2013 Bang Yong Guk, Kim Him Chan, Jung Dae Hyun, Yoo Young Jae, Moon Jong Up and Choi Jun Hong (Zelo) \\u2013 have tried to distinguish themselves from other boy bands by cultivated a \\u201cbad boy\\u201d image. Watch the music video for their hit song \\u201cWarrior.\\u201d\",\"created_at\":\"February 13, 2012 20:14\",\"uri\":\"http://www.viki.com/api/v3/artists/7153.json\",\"image\":\"http://m0.viki.com/aHR0cDovL2MyLnZpa2lhc3NldHMuY29tL3VwbG9hZHMvY2hhbm5lbC90aHVtYm5haWwvNzE1My85YWFkYjQ0NzQ5ZWU4NWY5NjY3OWFmNzI0YzIwZDk4NzVlZTczM2MzLmpwZw==\",\"origin_country\":\"Korea\",\"roles\":[\"Musician\"],\"music_videos\":{\"count\":2,\"uri\":\"http://www.viki.com/api/v3/artists/7153/music_videos.json\"}},{\"id\":6705,\"name\":\"F.cuz\",\"description\":\"F.CUZ, which stands for \\u201cFocus,\\u201d is a South Korean boy band that debuted in 2010 and is known just as much for the members\\u2019 pop art fashion style as their popular songs. The group started with four members, but after the departure of its lead singer in 2011, it added two more members and currently has five members. They are Jinon (Kim Jin Cheol), Kan (Choi Yeong Hak), Yejun (Shim Ye Jun), Rae Hyun (Kim Rae Hyun) and Dae Gun (Kim Dae Gun). Watch the music video of the group\\u2019s hit songs.\",\"created_at\":\"December 27, 2011 19:16\",\"uri\":\"http://www.viki.com/api/v3/artists/6705.json\",\"image\":\"http://m1.viki.com/aHR0cDovL2MwLnZpa2lhc3NldHMuY29tL3VwbG9hZHMvY2hhbm5lbC90aHVtYm5haWwvNjcwNS8xY2U4Mjg3MDJiNzI2YjVhYjFkZDQ0NTU2M2RjNDRlYzQ1OTM4MzVhLmpwZw==\",\"origin_country\":\"Korea\",\"roles\":[\"Musician\"],\"music_videos\":{\"count\":1,\"uri\":\"http://www.viki.com/api/v3/artists/6705/music_videos.json\"}},{\"id\":6181,\"name\":\"SunnyHill\",\"description\":\"Sunny Hill (Korean: \\uc368\\ub2c8\\ud790) is a band from South Korea. It originally had three members \\u2014 Janghyun, Seungah, and Jubee, then added a fourth member, named Kota, and later in 2011 a fifth, named Misung.\",\"created_at\":\"November 03, 2011 09:33\",\"uri\":\"http://www.viki.com/api/v3/artists/6181.json\",\"image\":\"http://m3.viki.com/aHR0cDovL2MwLnZpa2lhc3NldHMuY29tL3VwbG9hZHMvY2hhbm5lbC90aHVtYm5haWwvNjE4MS8wM2RlNDgwOTEyYTM2MmMzNzljNjNjNWMwNjZiNDliMmViYzA3OTIwLmpwZw==\",\"origin_country\":\"Korea\",\"roles\":[\"Musician\"],\"music_videos\":{\"count\":4,\"uri\":\"http://www.viki.com/api/v3/artists/6181/music_videos.json\"}},{\"id\":6155,\"name\":\"Narsha\",\"description\":\"Narsha (born December 28, 1981), born Park Hyo-jin, is a Korean singer and dancer, who is part of the Korean girl group Brown Eyed Girls. She made her solo debut in 2010. The name Narsha comes from an old Korean word meaning \\\"to fly\\\"\",\"created_at\":\"October 31, 2011 17:20\",\"uri\":\"http://www.viki.com/api/v3/artists/6155.json\",\"image\":\"http://m3.viki.com/aHR0cDovL2MyLnZpa2lhc3NldHMuY29tL3VwbG9hZHMvY2hhbm5lbC90aHVtYm5haWwvNjE1NS85OTk0ZDcxYWFlZTViMjU0ODMwYTgxOTMzNjhjNzY2ZTAwOWIzZTFjLmpwZw==\",\"origin_country\":\"Korea\",\"roles\":[\"Musician\"],\"music_videos\":{\"count\":2,\"uri\":\"http://www.viki.com/api/v3/artists/6155/music_videos.json\"}},{\"id\":5892,\"name\":\"Lena Park\",\"description\":null,\"created_at\":\"September 29, 2011 17:36\",\"uri\":\"http://www.viki.com/api/v3/artists/5892.json\",\"image\":\"http://m1.viki.com/aHR0cDovL2MzLnZpa2lhc3NldHMuY29tL3VwbG9hZHMvY2hhbm5lbC90aHVtYm5haWwvNTg5Mi9iNzBlYmI5MDE2YTlmOGU0NWJlODA5YmRhY2ZhMjFjMDZiNmZkMWYxLmpwZw==\",\"origin_country\":\"Korea\",\"roles\":[\"Musician\"],\"music_videos\":{\"count\":1,\"uri\":\"http://www.viki.com/api/v3/artists/5892/music_videos.json\"}},{\"id\":5393,\"name\":\"Secret\",\"description\":\"Secret, a South Korean girl group that debuted in 2009, popularized the \\u201csuspender dance\\u201d through the music video for its hit song \\u201cMagic.\\u201d With members Jeon Hyosung, Jung Hana, Song Jieun and Han Sunhwa, it is only the third girl group (behind Kara and Girls\\u2019 Generation) to debut in the top 10 on the Oricon charts in Japan. It won the Newcomer Award at the 25th Golden Disk Awards in 2010. Watch the music videos of the group\\u2019s hit songs \\u201cI Want You Back,\\u201d \\u201cMadonna,\\u201d \\u201cLove Is Move\\u201d and \\u201cMagic\\u201d.\",\"created_at\":\"August 19, 2011 05:31\",\"uri\":\"http://www.viki.com/api/v3/artists/5393.json\",\"image\":\"http://m2.viki.com/aHR0cDovL2MyLnZpa2lhc3NldHMuY29tL3VwbG9hZHMvY2hhbm5lbC90aHVtYm5haWwvNTM5My83NWI5ZDcxZjE4OTA4ZDdlODQyMmU0YWZhNjllMDRiMTg5ZjM3NDdkLmpwZw==\",\"origin_country\":\"Korea\",\"roles\":[\"Musician\"],\"music_videos\":{\"count\":4,\"uri\":\"http://www.viki.com/api/v3/artists/5393/music_videos.json\"}},{\"id\":4259,\"name\":\"Jang Na Ra  \",\"description\":\"Jang Na-ra (Korean: \\uc7a5\\ub098\\ub77c, born March 18, 1981) is a South Korean singer and actress. She also sings in Chinese, and is known in China by her transliterated Chinese name (simplified Chinese: \\u5f20\\u5a1c\\u62c9; traditional Chinese: \\u5f35\\u5a1c\\u62c9; pinyin: Zh\\u0101ng N\\u00e0l\\u0101).\",\"created_at\":\"May 20, 2011 07:48\",\"uri\":\"http://www.viki.com/api/v3/artists/4259.json\",\"image\":\"http://m0.viki.com/aHR0cDovL2MzLnZpa2lhc3NldHMuY29tL3VwbG9hZHMvY2hhbm5lbC90aHVtYm5haWwvNDI1OS9lZjM5OTY4M2JjZGU0YjNiMjVmNWMyZmI0OGFlMWM2MjZjODZkZDZjLmpwZw==\",\"origin_country\":\"Korea\",\"roles\":[\"Musician\"],\"music_videos\":{\"count\":4,\"uri\":\"http://www.viki.com/api/v3/artists/4259/music_videos.json\"}},{\"id\":4175,\"name\":\"Han Hye Jin\",\"description\":\"Han Hye-jin (Hangul: \\ud55c\\ud61c\\uc9c4; born October 27, 1981) is a South Korean actress, known for her leading role as Soseono in Jumong.\",\"created_at\":\"May 19, 2011 06:37\",\"uri\":\"http://www.viki.com/api/v3/artists/4175.json\",\"image\":\"http://m3.viki.com/aHR0cDovL2MwLnZpa2lhc3NldHMuY29tL3VwbG9hZHMvY2hhbm5lbC90aHVtYm5haWwvNDE3NS9lMzZkYjVhYjdjMGMzZmRhMWQ3Y2E5MmU4YjM0NGE1N2MxOTBkN2UxLmpwZw==\",\"origin_country\":\"Korea\",\"roles\":[\"Musician\"],\"music_videos\":{\"count\":1,\"uri\":\"http://www.viki.com/api/v3/artists/4175/music_videos.json\"}},{\"id\":4156,\"name\":\"Song Hye Kyo\",\"description\":null,\"created_at\":\"May 18, 2011 05:18\",\"uri\":\"http://www.viki.com/api/v3/artists/4156.json\",\"image\":\"http://m1.viki.com/aHR0cDovL2MzLnZpa2lhc3NldHMuY29tL3VwbG9hZHMvY2hhbm5lbC90aHVtYm5haWwvNDE1Ni83YmViMTJlMWQ2M2UzZjc2MDRhYzJmMTcyY2Y3ZTExYmU2NDM0YmY3LmpwZw==\",\"origin_country\":\"Korea\",\"roles\":[\"Musician\"],\"music_videos\":{\"count\":4,\"uri\":\"http://www.viki.com/api/v3/artists/4156/music_videos.json\"}},{\"id\":4111,\"name\":\"Daniel Henney\",\"description\":null,\"created_at\":\"May 18, 2011 04:03\",\"uri\":\"http://www.viki.com/api/v3/artists/4111.json\",\"image\":\"http://m0.viki.com/aHR0cDovL2MyLnZpa2lhc3NldHMuY29tL3VwbG9hZHMvY2hhbm5lbC90aHVtYm5haWwvNDExMS8zNWRiMWJiZDQyMGM5OTlhZThiNjQ1NTM0ZDRiNTlhN2I0ZTMwYTYxLnBuZw==\",\"origin_country\":\"Korea\",\"roles\":[\"Musician\"],\"music_videos\":{\"count\":1,\"uri\":\"http://www.viki.com/api/v3/artists/4111/music_videos.json\"}},{\"id\":4098,\"name\":\"5 Dolls \",\"description\":\"5Dolls is the female sub-unit of the 12-member South Korean dance-pop group Coed Education, which debuted in 2010. The current members of the group are Nayeon (Han Na Yeon), Chanmi (Heo Chan Mi), Hyoyoung (Ryu Hyo Young), Hyewon (Jin Hye Won) and Eunkyo (Seo Eun Kyo). They have branched into acting after been cast in a few television dramas since the release of a few singles. Watch the music video of the group\\u2019s song \\u201cThis and That.\\u201d\",\"created_at\":\"May 16, 2011 19:07\",\"uri\":\"http://www.viki.com/api/v3/artists/4098.json\",\"image\":\"http://m1.viki.com/aHR0cDovL2MzLnZpa2lhc3NldHMuY29tL3VwbG9hZHMvY2hhbm5lbC90aHVtYm5haWwvNDA5OC9WSUtJLVMzLVBST0NFU1NJTkc=\",\"origin_country\":\"Korea\",\"roles\":[\"Musician\"],\"music_videos\":{\"count\":1,\"uri\":\"http://www.viki.com/api/v3/artists/4098/music_videos.json\"}},{\"id\":4044,\"name\":\"Orange Caramel\",\"description\":\"Orange Caramel, made up of the trio, Nana, Raina and Lizzy. A sub-unit of the girl group, After School, they shot to fame with their cute and innocent image. Having released 2 mini albums in 2010 alone and with their latest single 'Bangkok City', released in April 2011, it only proves they can't stop! \",\"created_at\":\"May 12, 2011 10:48\",\"uri\":\"http://www.viki.com/api/v3/artists/4044.json\",\"image\":\"http://m0.viki.com/aHR0cDovL2MyLnZpa2lhc3NldHMuY29tL3VwbG9hZHMvY2hhbm5lbC90aHVtYm5haWwvNDA0NC8yODIzNTI1ZWYzZDMxMDlhYzc1Y2Q2ZjFiMzdlNTAwZTMxYjA5OTcxLmpwZw==\",\"origin_country\":\"Korea\",\"roles\":[\"Musician\"],\"music_videos\":{\"count\":3,\"uri\":\"http://www.viki.com/api/v3/artists/4044/music_videos.json\"}},{\"id\":3860,\"name\":\"Block B\",\"description\":\"Block B is a South Korean hip hop boy band created in 2011 by Cho PD, a well-known record producer and rapper, under his label Brand New Stardom. All seven members \\u2013 Zico (Woo Ji Ho), Lee Tae Il, B-Bomb (Lee Min Hyuk), Ahn Jae Hyo, U-Kwon (Kim Yu Kwon), Park Kyung and P.O (Pyo Ji Hoon) \\u2013 come to the group with dancing, rapping, composing and singing experience. It was named the Best New Male Group at the 2011 German Korean Entertainment Awards. Watch the music video of the song \\u201cDon\\u2019t Move!\\u201d\",\"created_at\":\"April 22, 2011 18:00\",\"uri\":\"http://www.viki.com/api/v3/artists/3860.json\",\"image\":\"http://m2.viki.com/aHR0cDovL2MwLnZpa2lhc3NldHMuY29tL3VwbG9hZHMvY2hhbm5lbC90aHVtYm5haWwvMzg2MC9lYzJlZjljNzkzZDQxYTkxZTIyMjVjYWIzYmMxMjI4MTA3YmMyZGE2LmpwZw==\",\"origin_country\":\"Korea\",\"roles\":[\"Musician\"],\"music_videos\":{\"count\":3,\"uri\":\"http://www.viki.com/api/v3/artists/3860/music_videos.json\"}},{\"id\":3859,\"name\":\"X-5\",\"description\":\"5 member male group from Open World Entertainment.\",\"created_at\":\"April 22, 2011 17:58\",\"uri\":\"http://www.viki.com/api/v3/artists/3859.json\",\"image\":\"http://m2.viki.com/aHR0cDovL2MxLnZpa2lhc3NldHMuY29tL3VwbG9hZHMvY2hhbm5lbC90aHVtYm5haWwvMzg1OS85NGJkYWU3MmQwOWYwYWIyMzAyMDVjMTdkYmZmMTE0NzQxNGM3ZjkyLmpwZw==\",\"origin_country\":\"Korea\",\"roles\":[\"Musician\"],\"music_videos\":{\"count\":1,\"uri\":\"http://www.viki.com/api/v3/artists/3859/music_videos.json\"}},{\"id\":3616,\"name\":\"G.NA\",\"description\":\"Gina Choi (Hangul: \\ucd5c\\uc9c0\\ub098), better known by her stage name G.NA, is a Canadian-born South Korean singer under Cube Entertainment, born on September 13, 1987. \",\"created_at\":\"March 25, 2011 16:57\",\"uri\":\"http://www.viki.com/api/v3/artists/3616.json\",\"image\":\"http://m1.viki.com/aHR0cDovL2MyLnZpa2lhc3NldHMuY29tL3VwbG9hZHMvY2hhbm5lbC90aHVtYm5haWwvMzYxNi9lZDAxZWE2YTgwOWU1MmU4MmFkYmNiZGJkMjk4NzI5MDZmNzM3OWIyLmpwZw==\",\"origin_country\":\"Korea\",\"roles\":[\"Musician\"],\"music_videos\":{\"count\":1,\"uri\":\"http://www.viki.com/api/v3/artists/3616/music_videos.json\"}},{\"id\":3600,\"name\":\" Brown Eyed Girls\",\"description\":\"Brown Eyed Girls, also known as B.E.G., is a popular South Korean girl group. Debuting in 2006 with an R&B and pop sound, the group has expanded its musical genres in recent years into electronica and \\u201crhapsody-inspired soul hybrid.\\u201d The four members \\u2013 JeA, Miryo, Narsha and Ga In \\u2013 also each have produced popular solo work. Watch the music videos of the group\\u2019s hit songs \\u201cCleansing Cream,\\u201d Sixth Sense,\\u201d \\u201cLove Action\\u201d (featuring Cho PD) and \\u201cLove\\u201d.\",\"created_at\":\"March 24, 2011 16:18\",\"uri\":\"http://www.viki.com/api/v3/artists/3600.json\",\"image\":\"http://m3.viki.com/aHR0cDovL2MwLnZpa2lhc3NldHMuY29tL3VwbG9hZHMvY2hhbm5lbC90aHVtYm5haWwvMzYwMC9lMTI1MTg4YWYzY2UwMTMyMzU4MThjMjUxYmVmM2IxODZkN2EwNjk0LmpwZw==\",\"origin_country\":\"Korea\",\"roles\":[\"Musician\"],\"music_videos\":{\"count\":4,\"uri\":\"http://www.viki.com/api/v3/artists/3600/music_videos.json\"}},{\"id\":3539,\"name\":\" Kim Junsu / Xiah\",\"description\":\"Ger\\u00e7ek isim: Kim Jun Su \\r\\nMeslek : \\u015eark\\u0131c\\u0131, Akt\\u00f6r\\r\\nDo\\u011fum Yeri: Gyeonggi/G\\u00fcney Kore\\r\\nDo\\u011fum Tarihi : 15 Aral\\u0131k 1986\\r\\nBoy: 178 cm\\r\\n\\r\\n\",\"created_at\":\"March 16, 2011 17:05\",\"uri\":\"http://www.viki.com/api/v3/artists/3539.json\",\"image\":\"http://m2.viki.com/aHR0cDovL2MyLnZpa2lhc3NldHMuY29tL3VwbG9hZHMvY2hhbm5lbC90aHVtYm5haWwvMzUzOS82NDUxYjFiYTQ5YjNmYTY5YjhkMGNkMDdlNDE5Y2RlNzAxOGI3MGQ0LmpwZw==\",\"origin_country\":\"Korea\",\"roles\":[\"Musician\"],\"music_videos\":{\"count\":1,\"uri\":\"http://www.viki.com/api/v3/artists/3539/music_videos.json\"}},{\"id\":3180,\"name\":\"IU\",\"description\":\"IU is the stage name of Lee Ji Eun, a popular South Korean pop singer and actress. Born on May 16, 1993, her name is derived from \\u201cI and You.\\u201d A number of her songs have been featured on the soundtracks for popular television dramas, and she has collaborated with a number of other popular artists. She also has won numerous Singer of the Year and Song of the Year awards since 2010. Watch the music videos of her hit songs, including \\u201cBoo,\\u201d \\u201cLast Fantasy,\\u201d \\u201cMarshmallow,\\u201d and \\u201cGood Day\\u201d.\",\"created_at\":\"February 11, 2011 02:42\",\"uri\":\"http://www.viki.com/api/v3/artists/3180.json\",\"image\":\"http://m0.viki.com/aHR0cDovL2MyLnZpa2lhc3NldHMuY29tL3VwbG9hZHMvY2hhbm5lbC90aHVtYm5haWwvMzE4MC9kZGIxZTAzMzhkOGNlM2NlYzcxMTM5YzJlMTgyM2U4MWNlZGE2ZGIyLmpwZw==\",\"origin_country\":\"Korea\",\"roles\":[\"Musician\"],\"music_videos\":{\"count\":9,\"uri\":\"http://www.viki.com/api/v3/artists/3180/music_videos.json\"}}]}"
    http_version: 
  recorded_at: Mon, 18 Jun 2012 07:09:45 GMT
recorded_with: VCR 2.2.2
