--- 
http_interactions: 
- request: 
    method: get
    uri: http://viki.com/api/v3/artists.json?access_token=1b080a6b3a94ed4503e04e252500ca87f6e7dc55061cec92b627ef1fbec44c70&subtitle_language=fr
    body: 
      encoding: US-ASCII
      string: ""
    headers: {}

  response: 
    status: 
      code: 301
      message: Moved Permanently
    headers: 
      Server: 
      - nginx
      Date: 
      - Mon, 18 Jun 2012 07:09:36 GMT
      Content-Type: 
      - text/plain
      Connection: 
      - keep-alive
      Location: 
      - http://www.viki.com/api/v3/artists.json?subtitle_language=fr&access_token=1b080a6b3a94ed4503e04e252500ca87f6e7dc55061cec92b627ef1fbec44c70
      X-Rack-Cache: 
      - miss
      Content-Length: 
      - "9"
      X-Varnish: 
      - "1911087635"
      Age: 
      - "0"
      Via: 
      - 1.1 varnish
    body: 
      encoding: US-ASCII
      string: "moved to "
    http_version: 
  recorded_at: Mon, 18 Jun 2012 07:09:37 GMT
- request: 
    method: get
    uri: http://www.viki.com/api/v3/artists.json?access_token=1b080a6b3a94ed4503e04e252500ca87f6e7dc55061cec92b627ef1fbec44c70&subtitle_language=fr
    body: 
      encoding: US-ASCII
      string: ""
    headers: {}

  response: 
    status: 
      code: 200
      message: OK
    headers: 
      Server: 
      - nginx
      Date: 
      - Mon, 18 Jun 2012 07:09:37 GMT
      Content-Type: 
      - application/json; charset=utf-8
      Connection: 
      - keep-alive
      Cache-Control: 
      - public, max-age=3600
      Expires: 
      - Mon, 18 Jun 2012 08:09:37 GMT
      X-Ua-Compatible: 
      - IE=Edge,chrome=1
      Etag: 
      - "\"2151a1bba70846b11a1a631dd15bce86\""
      X-Request-Id: 
      - 4a8f497c39d9962e8098fdda1540e8a4
      X-Runtime: 
      - "0.368127"
      X-Content-Digest: 
      - db878e2efddfe328b41bf2ecaeab19f225c81393
      X-Rack-Cache: 
      - miss, ignore, store
      Content-Length: 
      - "22143"
      X-Varnish: 
      - "645411925"
      Age: 
      - "0"
      Via: 
      - 1.1 varnish
    body: 
      encoding: US-ASCII
      string: "{\"count\":272,\"pagination\":{\"previous\":\"\",\"next\":\"http://www.viki.com/api/v3/artists.json?page=2&subtitle_language=fr\"},\"response\":[{\"id\":8615,\"name\":\"Michelle Branch\",\"description\":\"Michelle Branch is an American singer-songwriter, guitarist and actress known for her folksy country pop songs. Born July 2, 1983, in Phoenix, Arizona, Michelle was part of the country duo The Wreckers with country singer Jessica Harp from 2005 to 2007 but disbanded to continue working as a solo artist. She won a Grammy Award in 2003. Watch the music videos of her hit songs \\u201cGoodbye to You,\\u201d \\u201cAre You Happy Now?\\u201d  \\u201cEverywhere\\u201d and \\u201cAll You Wanted\\u201d.\",\"created_at\":\"May 21, 2012 19:04\",\"uri\":\"http://www.viki.com/api/v3/artists/8615.json\",\"image\":\"http://m2.viki.com/aHR0cDovL2MzLnZpa2lhc3NldHMuY29tL3VwbG9hZHMvY2hhbm5lbC90aHVtYm5haWwvODYxNS84ODIxMWJhYmNhYzc3YjNhMGM1MDBlMWQ3ZjU3YjNkOTg1OTUxNWRkLmpwZw==\",\"origin_country\":\"United States\",\"roles\":[\"Musician\"],\"music_videos\":{\"count\":4,\"uri\":\"http://www.viki.com/api/v3/artists/8615/music_videos.json\"}},{\"id\":8614,\"name\":\"Michael Bubl\\u00e9\",\"description\":\"Michael Bubl\\u00e9 is an Italian-Canadian singer-songwriter known for his smooth jazzy vocals. Born on September 9, 1975, in Burnaby, British Columbia, Michael\\u2019s velvety voice has covered many standard jazz tunes on his successful albums, as well as original songs he helped to write. He has won many Grammy and Juno awards and featured on movie soundtracks since he debuted in 1996. Watch the music videos of his popular songs \\u201cWhen a Man Loves a Woman,\\u201d \\u201cMe and Mrs. Jones,\\u201d and \\u201cCrazy Love\\u201d.\",\"created_at\":\"May 21, 2012 19:03\",\"uri\":\"http://www.viki.com/api/v3/artists/8614.json\",\"image\":\"http://m0.viki.com/aHR0cDovL2MxLnZpa2lhc3NldHMuY29tL3VwbG9hZHMvY2hhbm5lbC90aHVtYm5haWwvODYxNC85YTYxNDU1ZGY0NWM2YmEyNTUxN2ViZTRlMzVlMWQwMjlhNWQxMzdjLmpwZw==\",\"origin_country\":\"Canada\",\"roles\":[\"Musician\"],\"music_videos\":{\"count\":1,\"uri\":\"http://www.viki.com/api/v3/artists/8614/music_videos.json\"}},{\"id\":8613,\"name\":\"Madonna\",\"description\":\"Madonna, an American singer-songwriter, actress and entrepreneur, is a true pop music icon who is known around the world. Born on August 16, 1958, as Madonna Louise Ciccone, she is recognized as the world\\u2019s top-selling female recording artist of all time by the Guinness World Records. In 2008, she was inducted into the Rock and Roll Hall of Fame. In 2012, she was crowned the \\u201cGreatest Woman in Music\\u201d by VH1. Watch the music videos of her hit songs \\u201cVogue\\u201d and \\u201cEverybody\\u201d.\",\"created_at\":\"May 21, 2012 19:01\",\"uri\":\"http://www.viki.com/api/v3/artists/8613.json\",\"image\":\"http://m2.viki.com/aHR0cDovL2MzLnZpa2lhc3NldHMuY29tL3VwbG9hZHMvY2hhbm5lbC90aHVtYm5haWwvODYxMy85NDVhMTQ0MjVlMmMyY2JhOTcyNzQ4ZWJjZjhlMjkzNmQwMGQ0OTA3LmpwZw==\",\"origin_country\":\"United States\",\"roles\":[\"Musician\"],\"music_videos\":{\"count\":2,\"uri\":\"http://www.viki.com/api/v3/artists/8613/music_videos.json\"}},{\"id\":8612,\"name\":\"Simple Plan\",\"description\":\"Simple Plan is a popular Canadian punk pop band that has won numerous Juno and other awards since its debut in 1999. The members of the band are Pierre Bouvier (lead vocals), Jeff Stinco (lead guitar), S\\u00e9bastien Lefebvre (rhythm guitar, backing vocals), David Desrosiers (bass guitar, backing vocals) and Chuck Comeau (drums and percussion). Watch the music videos of their hit songs \\u201cShut Up!\\u201d \\u201cCrazy,\\u201d and \\u201cWelcome to My Life\\u201d.\",\"created_at\":\"May 21, 2012 19:00\",\"uri\":\"http://www.viki.com/api/v3/artists/8612.json\",\"image\":\"http://m0.viki.com/aHR0cDovL2MyLnZpa2lhc3NldHMuY29tL3VwbG9hZHMvY2hhbm5lbC90aHVtYm5haWwvODYxMi8zZjBjNDI2ZjdhMTc2NjMwZWNjMTY5YmZkODVmYTlhNGZhZjBiOWUxLmpwZw==\",\"origin_country\":\"Canada\",\"roles\":[\"Musician\"],\"music_videos\":{\"count\":3,\"uri\":\"http://www.viki.com/api/v3/artists/8612/music_videos.json\"}},{\"id\":8611,\"name\":\"Green Day\",\"description\":\"Green Day, an American punk rock band that formed in 1987, is credited for helping to bring mainstream interest to punk rock music. The band has won numerous Grammy Awards and sold millions of records. The band members are Billie Joe Armstrong (lead vocalist and guitarist), Mike Dirnt (bassist and backing vocalist) and Tre Cool (drummer). Watch the music videos of their hit songs, including \\u201cBoulevard of Broken Dreams,\\u201d \\u201cAmerican Idiot,\\u201d \\u201cBasket Case,\\u201d \\u201cHoliday\\u201d and \\u201cKnow Your Enemy\\u201d.\",\"created_at\":\"May 21, 2012 18:58\",\"uri\":\"http://www.viki.com/api/v3/artists/8611.json\",\"image\":\"http://m2.viki.com/aHR0cDovL2MzLnZpa2lhc3NldHMuY29tL3VwbG9hZHMvY2hhbm5lbC90aHVtYm5haWwvODYxMS9mOTI0ZjRiOGExOGQ1ZmNiODg0ODQ3ODE4MzEzNGYwNzlhNTgzMThmLmpwZw==\",\"origin_country\":\"United States\",\"roles\":[\"Musician\"],\"music_videos\":{\"count\":13,\"uri\":\"http://www.viki.com/api/v3/artists/8611/music_videos.json\"}},{\"id\":8610,\"name\":\"Paramore\",\"description\":\"Paramore is an American rock band that debuted in 2004 in Tennessee while the founding members were still teens or tweens. The band\\u2019s musical style is \\u201cemo\\u201d and \\u201cpop punk.\\u201d The band started with five members but today consists of Hayley Williams (lead vocalist), Jeremy Davis (bassist) and Taylor York (guitarist). Their songs have been featured on video games and movies. Watch music videos of their hit songs, including \\u201cIgnorance,\\u201d \\u201cEmergency,\\u201d Pressure,\\u201d \\u201cAll We Know\\u201d and \\u201cThe Only Exception.\\u201d\",\"created_at\":\"May 21, 2012 18:54\",\"uri\":\"http://www.viki.com/api/v3/artists/8610.json\",\"image\":\"http://m2.viki.com/aHR0cDovL2MxLnZpa2lhc3NldHMuY29tL3VwbG9hZHMvY2hhbm5lbC90aHVtYm5haWwvODYxMC9kY2RmOTQ3NTEyYTJmZTFiNWI0NWM5M2MwNDNhYjA2YmRjODExMWViLmpwZw==\",\"origin_country\":\"United States\",\"roles\":[\"Musician\"],\"music_videos\":{\"count\":8,\"uri\":\"http://www.viki.com/api/v3/artists/8610/music_videos.json\"}},{\"id\":8604,\"name\":\"Rhythm King\",\"description\":\"Rhythm King is a South Korean R&B group known for their urban soul sound. Watch the music videos of their songs \\\"Love Song\\\" and \\\"Butterfly\\\". \",\"created_at\":\"May 21, 2012 10:00\",\"uri\":\"http://www.viki.com/api/v3/artists/8604.json\",\"image\":\"http://m3.viki.com/aHR0cDovL2MzLnZpa2lhc3NldHMuY29tL3VwbG9hZHMvY2hhbm5lbC90aHVtYm5haWwvODYwNC9kNjEyZDQxZTFiOTc5MDMxZmNkYjNhZGViYTUwODdlNDE3MTI5ZWZlLmpwZw==\",\"origin_country\":\"Korea\",\"roles\":[\"Musician\"],\"music_videos\":{\"count\":0,\"uri\":\"http://www.viki.com/api/v3/artists/8604/music_videos.json\"}},{\"id\":8555,\"name\":\"General Luna\",\"description\":\"General Luna is an all-girl Filipino heavy rock and progressive rock band that debuted in 2010. The members of the group \\u2013 Alexis Montemayor, Audry Mae G. Dionisio, Bea Lao, Caren Tevanny K. Mangaran and Nicole L. Asensio \\u2013 are all accomplished musicians who have been feature on television shows or in musical theater. Watch the music video of their song \\u201cNandito\\u201d.\",\"created_at\":\"May 16, 2012 12:49\",\"uri\":\"http://www.viki.com/api/v3/artists/8555.json\",\"image\":\"http://m3.viki.com/aHR0cDovL2MxLnZpa2lhc3NldHMuY29tL3VwbG9hZHMvY2hhbm5lbC90aHVtYm5haWwvODU1NS9kM2FmZmU3ZjE1ZGM3OGYzODdiNzkyMWQwMGZlNjgyNGJjOTgzYzM0LmpwZw==\",\"origin_country\":\"Philippines\",\"roles\":[\"Musician\"],\"music_videos\":{\"count\":1,\"uri\":\"http://www.viki.com/api/v3/artists/8555/music_videos.json\"}},{\"id\":8554,\"name\":\"Rico Blanco\",\"description\":\"Rico Blanco is a talented Filipino singer-songwriter, record producer, actor and entrepreneur. He plays multiple instruments, including keyboards, synthesizer, drums, bass and guitars. Born as Rico Rene Granados Blanco in the Manila, Philippines, he was a founding member of the rock band Rivermaya in 1993 before leaving the group in 2007 to launch a clothing line and pursue a solo career. He was named \\u201cVocalist of the Year\\u201d at the NU Rock Awards in 2008. Watch the music video of his song \\u201cAyuz\\u201d.\",\"created_at\":\"May 16, 2012 12:48\",\"uri\":\"http://www.viki.com/api/v3/artists/8554.json\",\"image\":\"http://m1.viki.com/aHR0cDovL2MyLnZpa2lhc3NldHMuY29tL3VwbG9hZHMvY2hhbm5lbC90aHVtYm5haWwvODU1NC8xMzc2ODg0YWJjZjlhMzExNDdiODkyNzkyNWJhMGEzYzk2YmU5MzhhLmpwZw==\",\"origin_country\":\"Philippines\",\"roles\":[\"Musician\"],\"music_videos\":{\"count\":1,\"uri\":\"http://www.viki.com/api/v3/artists/8554/music_videos.json\"}},{\"id\":8553,\"name\":\"Kangen Band\",\"description\":\"Kangen Band is an Indonesian pop music band that debuted in 2005. The six members of the band are Dodhy, Andika, Tama, IIM, Bebe and Izzy. The group was considered an \\u201cunderdog\\u201d band that developed a strong fan base through pirated CDs and VCDs. In 2007, the members starred in a television show titled \\u201cAku Memang Kampungan,\\u201d which followed the history of the band. Watch the music video of their song \\u201cJangan Bertengkar Lagi\\u201d.\",\"created_at\":\"May 16, 2012 12:45\",\"uri\":\"http://www.viki.com/api/v3/artists/8553.json\",\"image\":\"http://m3.viki.com/aHR0cDovL2MwLnZpa2lhc3NldHMuY29tL3VwbG9hZHMvY2hhbm5lbC90aHVtYm5haWwvODU1My8yOWY4MmMzYmFhYjBmNmM3ZjA2YmI3M2I0MDg4ZTYxZTNjODIxYTM2LmpwZw==\",\"origin_country\":\"Indonesia\",\"roles\":[\"Musician\"],\"music_videos\":{\"count\":1,\"uri\":\"http://www.viki.com/api/v3/artists/8553/music_videos.json\"}},{\"id\":8552,\"name\":\"Kotak\",\"description\":\"Kotak is an Indonesian rock band from Jakarta that rose to fame after winning the \\u201cDream Band 2004\\u201d talent contest. Since then, the group has won many awards, including \\u201cMost Favorite Breakthrough Artist 2009\\u201d from MTV Indonesia Awards, and is popular in Indonesia, Malaysia and Singapore. With a few member changes over the years, the current members are Tantri Syalindri, Swasti Sabdastantri and Mario Marcella. Watch the music videos of their popular songs \\u201cPelan Pelan Saja\\u201d and \\u201cSelalu Cinta\\u201d.\",\"created_at\":\"May 16, 2012 12:44\",\"uri\":\"http://www.viki.com/api/v3/artists/8552.json\",\"image\":\"http://m0.viki.com/aHR0cDovL2MwLnZpa2lhc3NldHMuY29tL3VwbG9hZHMvY2hhbm5lbC90aHVtYm5haWwvODU1Mi8yZDkyZmJjYmMwM2Q1MTMwODg1ZmJkNjUxMDliNzVlZTBjMTZkMWE2LmpwZw==\",\"origin_country\":\"Indonesia\",\"roles\":[\"Musician\"],\"music_videos\":{\"count\":2,\"uri\":\"http://www.viki.com/api/v3/artists/8552/music_videos.json\"}},{\"id\":8551,\"name\":\"Wana\",\"description\":\"Wana is a Malaysian hip hop singer. Watch the music video of the song \\u201cCinta Benar Cinta\\u201d.\",\"created_at\":\"May 16, 2012 12:43\",\"uri\":\"http://www.viki.com/api/v3/artists/8551.json\",\"image\":\"http://m2.viki.com/aHR0cDovL2MxLnZpa2lhc3NldHMuY29tL3VwbG9hZHMvY2hhbm5lbC90aHVtYm5haWwvODU1MS85N2MwZDk0ZGVlY2I1OTkzNjVlMzBjZjlmZTMwZGYwNjEyMGQ1YjBhLmpwZw==\",\"origin_country\":\"Malaysia\",\"roles\":[\"Musician\"],\"music_videos\":{\"count\":1,\"uri\":\"http://www.viki.com/api/v3/artists/8551/music_videos.json\"}},{\"id\":8550,\"name\":\"Jam Hsiao\",\"description\":\"Jam Hsiao is a Taiwanese Mandopop singer who rose to fame after appearing in the first season of the talent show \\u201cOne Million Star,\\u201d the Taiwanese version of \\u201cAmerican Idol.\\u201d Born as Hsiao Ching Teng on March 30, 1987, he started working as a restaurant singer at the age of 17 when he was still in high school. He is praised for his wide vocal range and unique singing style. Watch the music video of his song \\u201cMiss You Forever\\u201d.\",\"created_at\":\"May 16, 2012 12:42\",\"uri\":\"http://www.viki.com/api/v3/artists/8550.json\",\"image\":\"http://m2.viki.com/aHR0cDovL2MxLnZpa2lhc3NldHMuY29tL3VwbG9hZHMvY2hhbm5lbC90aHVtYm5haWwvODU1MC9kNGQ2NTBiMjYxMjQ3MDAzODZmNDk3OTllNzZiYzRhOWM1MWM3MjEwLmpwZw==\",\"origin_country\":\"Taiwan\",\"roles\":[\"Musician\"],\"music_videos\":{\"count\":1,\"uri\":\"http://www.viki.com/api/v3/artists/8550/music_videos.json\"}},{\"id\":8549,\"name\":\"Khalil Fong\",\"description\":\"Khalil Fong is a Hong Kong-based soul and Mandopop singer-songwriter. Born in Hawaii on July 14, 1983, he moved at the age of 6 to Shanghai, where he lived for six years. He also lived in Guangzhou for two years before moving to Hong Kong. Khalil is self-taught on the guitar and piano. In addition to writing his own songs, which have garnered a number of awards, Khalil composes songs for a number of other popular artists. Watch the music video of his songs \\u201cHao Bu Rong Yi\\u201d and \\u201cYin Wei Ni\\u201d.\",\"created_at\":\"May 16, 2012 12:40\",\"uri\":\"http://www.viki.com/api/v3/artists/8549.json\",\"image\":\"http://m2.viki.com/aHR0cDovL2MwLnZpa2lhc3NldHMuY29tL3VwbG9hZHMvY2hhbm5lbC90aHVtYm5haWwvODU0OS9mZDhmOTUyYWI1NmY5ODNhN2QyNzU3NTdiZjhjZWE0MmY5OGNhODJhLmpwZw==\",\"origin_country\":\"Hong Kong\",\"roles\":[\"Musician\"],\"music_videos\":{\"count\":2,\"uri\":\"http://www.viki.com/api/v3/artists/8549/music_videos.json\"}},{\"id\":8548,\"name\":\"Yoon Mirae\",\"description\":\"Yoon Mirae, also known as Tasha Reid, is one of the most influential Korean American hip hop artists and is known as the \\u201cQueen of Soul.\\u201d She was born as Natasha Shanta Reid in Portland, Texas, on May 31, 1981, to a Korean mother and an African American father. She debuted at the age of 16 with the R&B group Uptown. She is married to hip hop pioneer Tiger JK. Watch the music videos of her songs \\u201cGet It In,\\u201d \\u201cMy Time,\\u201d \\u201cBlack Happiness\\u201d and \\u201cGoodbye Sadness, Hello Happiness\\u201d.\",\"created_at\":\"May 16, 2012 12:32\",\"uri\":\"http://www.viki.com/api/v3/artists/8548.json\",\"image\":\"http://m1.viki.com/aHR0cDovL2MyLnZpa2lhc3NldHMuY29tL3VwbG9hZHMvY2hhbm5lbC90aHVtYm5haWwvODU0OC9mMjY4MDkwZWYzMDc4ODAyMmVjODQ2NjQzZDIxZWU0N2QxMTMxYzNjLnBuZw==\",\"origin_country\":\"Korea\",\"roles\":[\"Musician\"],\"music_videos\":{\"count\":4,\"uri\":\"http://www.viki.com/api/v3/artists/8548/music_videos.json\"}},{\"id\":8547,\"name\":\"Tiger JK\",\"description\":\"Tiger JK is a highly respected Korean American rapper, considered as one of the true pioneers of hip hop music in Korea. Born as Seo Jung Kwon in Los Angeles, California, he is one of the founding members of the hip hop group Drunken Tiger. He also is the founder and former CEO of Jungle Entertainment. His brand extends to products and clothing. Watch the music videos of his songs \\u201cCongrats,\\u201d \\u201cDoDoDoWababaroo,\\u201d \\u201c8:45 Heaven,\\u201d \\u201cMonster\\u201d, \\u201cCongrats\\u201d and \\u201cIsolated Ones, Left Foot Forward, March\\u201d.\",\"created_at\":\"May 16, 2012 12:31\",\"uri\":\"http://www.viki.com/api/v3/artists/8547.json\",\"image\":\"http://m1.viki.com/aHR0cDovL2MzLnZpa2lhc3NldHMuY29tL3VwbG9hZHMvY2hhbm5lbC90aHVtYm5haWwvODU0Ny9hMjNmMjhmN2MzMDAwZTI4YjA1OTg0MDA0ZjRlNTdjZjcyN2YwNDcxLnBuZw==\",\"origin_country\":\"Korea\",\"roles\":[\"Musician\"],\"music_videos\":{\"count\":5,\"uri\":\"http://www.viki.com/api/v3/artists/8547/music_videos.json\"}},{\"id\":8546,\"name\":\"M.I.B.\",\"description\":\"MIB, which stands for \\u201cMost Incredible Busters,\\u201d is a South Korean hip hop group that debuted in 2011. The four members of the group are 5zic (Kim Han Gil, July 26, 1988), Cream (Kim Gi Seok, February 14, 1990, SIMS (Sim Jong Su, February 27, 1991) and Kang Nam (Namekawa Yasuo, March 23, 1987). Their debut album showcased each of the four members\\u2019 solo singing abilities. Watch the music videos of his songs \\u201cCelebrate,\\u201d \\u201cG.D.M.,\\u201d \\u201cBeautiful Day,\\u201d \\u201cDo U Like Me,\\u201d \\u201cHands Up\\u201d and \\u201cSay My Name.\\u201d\",\"created_at\":\"May 16, 2012 12:30\",\"uri\":\"http://www.viki.com/api/v3/artists/8546.json\",\"image\":\"http://m1.viki.com/aHR0cDovL2MyLnZpa2lhc3NldHMuY29tL3VwbG9hZHMvY2hhbm5lbC90aHVtYm5haWwvODU0Ni8yNjJjY2ExMGE5OTU3MjgyYTRkZDgyNTA2OWRiYTMxMTIzYWFhNzhmLmpwZw==\",\"origin_country\":\"Korea\",\"roles\":[\"Musician\"],\"music_videos\":{\"count\":7,\"uri\":\"http://www.viki.com/api/v3/artists/8546/music_videos.json\"}},{\"id\":8545,\"name\":\"Clazzi\",\"description\":\"Clazzi, also known as DJ Clazzi, is the stage name of Kim Sung Hoon, a South Korean composer, mixer and producer considered the mastermind behind the electronica acid pop group Clazziquai. Born on November 15, 1974, Clazzi released his first solo album in early 2012 that features a number of guest singers. Watch the music videos of his solo songs \\u201cLove & Hate\\u201d and \\u201cHow We Feel.\\u201d\",\"created_at\":\"May 16, 2012 12:29\",\"uri\":\"http://www.viki.com/api/v3/artists/8545.json\",\"image\":\"http://m2.viki.com/aHR0cDovL2MwLnZpa2lhc3NldHMuY29tL3VwbG9hZHMvY2hhbm5lbC90aHVtYm5haWwvODU0NS9jMTM0OGEyYThhZTdkODZlYzMxZTJjMjMwNTMzNGViZmJhOTcwOWViLmpwZw==\",\"origin_country\":\"Korea\",\"roles\":[\"Musician\"],\"music_videos\":{\"count\":2,\"uri\":\"http://www.viki.com/api/v3/artists/8545/music_videos.json\"}},{\"id\":8544,\"name\":\"J'Kyun\",\"description\":\"J\\u2019Kyun is a South Korean rapper and singer who is known as the \\u201chip hop prince.\\u201d He is popular for his quick rhymes and funny lyrics. His solo albums have been very successful and he is a popular collaborator with other singers and rappers. When he did a parody to Big Bang\\u2019s \\u201cFantastic Baby,\\u201d naming it \\u201cFantastic Soon Kyu\\u201d as a love dedication to Girls\\u2019 Generation\\u2019s Sunny, it was very well received. Watch the music videos of his songs \\u201cLately,\\u201d \\u201c2 Job Hustle,\\u201d \\u201cGroovy J\\u201d and \\u201cRap Dealers.\",\"created_at\":\"May 16, 2012 12:29\",\"uri\":\"http://www.viki.com/api/v3/artists/8544.json\",\"image\":\"http://m2.viki.com/aHR0cDovL2MwLnZpa2lhc3NldHMuY29tL3VwbG9hZHMvY2hhbm5lbC90aHVtYm5haWwvODU0NC8xOWQ4MzFhNDAwNTI5MmVlYTU5NmI0ZTkxOGUwNmE2ZDA2ZTUyMjFlLnBuZw==\",\"origin_country\":\"Korea\",\"roles\":[\"Musician\"],\"music_videos\":{\"count\":5,\"uri\":\"http://www.viki.com/api/v3/artists/8544/music_videos.json\"}},{\"id\":8543,\"name\":\"BTOB\",\"description\":\"BTOB, which stands for \\u201cBorn to Beat,\\u201d is a South Korean boy band that debuted in 2012 and have already impressed audiences with their great dance skills. The seven members are Peniel (Shin Peniel D.), Changsub (Lee Chang Sub), Eunkwang (Seo Eun Kwang), Minhyuk (Lee Min Hyuk), Ilhoon (Jung Il Hoon), Sungjae (Yook Sung Jae), and Hyunsik (Lim Hyun Sik). The members were born between 1990 and 1995. Watch the music videos of their debut songs \\u201cInsane\\u201d and \\u201cFather.\\u201d\",\"created_at\":\"May 16, 2012 12:28\",\"uri\":\"http://www.viki.com/api/v3/artists/8543.json\",\"image\":\"http://m3.viki.com/aHR0cDovL2MwLnZpa2lhc3NldHMuY29tL3VwbG9hZHMvY2hhbm5lbC90aHVtYm5haWwvODU0My8xYjg4ZmUyYzNiOTJkYzc4MmE0MzE4ZmM0YzU2ZWFhM2IwOTdkZTFmLmpwZw==\",\"origin_country\":\"Korea\",\"roles\":[\"Musician\"],\"music_videos\":{\"count\":2,\"uri\":\"http://www.viki.com/api/v3/artists/8543/music_videos.json\"}},{\"id\":8498,\"name\":\"ZIA\",\"description\":\"ZIA is a female South Korean pop singer who debuted in 2007. Born on July 21, 1986, she gained fame for being a \\u201cfaceless artist\\u201d because she did not show her face in any of her works. Watch the music videos of her songs \\u201cLike Her,\\u201d \\u201cBad Habit,\\u201d \\u201cCan You Hear Me,\\u201d \\u201cLaughter Only,\\u201d \\u201cLet\\u2019s Have a Drink,\\u201d \\u201cPlease Don\\u2019t Go\\u201d and \\u201cCrying Calling\\u201d (with 4Men).\",\"created_at\":\"May 11, 2012 07:50\",\"uri\":\"http://www.viki.com/api/v3/artists/8498.json\",\"image\":\"http://m2.viki.com/aHR0cDovL2MxLnZpa2lhc3NldHMuY29tL3VwbG9hZHMvY2hhbm5lbC90aHVtYm5haWwvODQ5OC9kOTliZGFkYTVhMzYzMDA2N2YxNzk4ZDkxZDZmY2YyNmQyNWVhMjU0LmpwZw==\",\"origin_country\":\"Korea\",\"roles\":[\"Musician\"],\"music_videos\":{\"count\":7,\"uri\":\"http://www.viki.com/api/v3/artists/8498/music_videos.json\"}},{\"id\":8497,\"name\":\"Yu Na Yeong\",\"description\":\"Yu Na Yeong is a South Korean pop singer specializing in ballads. Watch the music video of the song \\u201cSoul Special.\\u201d\",\"created_at\":\"May 11, 2012 07:50\",\"uri\":\"http://www.viki.com/api/v3/artists/8497.json\",\"image\":\"http://m1.viki.com/aHR0cDovL2MzLnZpa2lhc3NldHMuY29tL3VwbG9hZHMvY2hhbm5lbC90aHVtYm5haWwvODQ5Ny85ZThhNGI4OGJkYzFiZmNkZjhjMmEwZDI3M2EwMDJjNjEzNzU4YmEwLmpwZw==\",\"origin_country\":\"Korea\",\"roles\":[\"Musician\"],\"music_videos\":{\"count\":0,\"uri\":\"http://www.viki.com/api/v3/artists/8497/music_videos.json\"}},{\"id\":8496,\"name\":\"Younha\",\"description\":\"Younha is a South Korean pop singer who started her music career at the age of 16 in Japan and currently enjoys success in both Japan and Korea. Born as Go Yoon Ha on April 29, 1988, she developed an interest in Japanese television dramas at a young age and taught herself to speak Japanese. A number of her songs have been featured on animes and television dramas in both countries. Her stage name in Japan is Katakana. Watch the music videos of her songs \\u201cNonsense\\u201d and \\u201cPassword 486.\\u201d\",\"created_at\":\"May 11, 2012 07:50\",\"uri\":\"http://www.viki.com/api/v3/artists/8496.json\",\"image\":\"http://m0.viki.com/aHR0cDovL2MxLnZpa2lhc3NldHMuY29tL3VwbG9hZHMvY2hhbm5lbC90aHVtYm5haWwvODQ5Ni83MTVjZTA1NjFkN2VkNjdiOTcwY2UxZWJmYjNhNjEyZWI2N2EzNDkxLmpwZw==\",\"origin_country\":\"Korea\",\"roles\":[\"Musician\"],\"music_videos\":{\"count\":2,\"uri\":\"http://www.viki.com/api/v3/artists/8496/music_videos.json\"}},{\"id\":8495,\"name\":\"Young Jun\",\"description\":\"Young Jun (Ko Young Jun) is a South Korean R&B singer and a member of the popular R&B group Brown Eyed Soul. He is known for his smooth melody and emotive vocal delivery in his songs. Watch the music videos of his solo songs \\u201cForget\\u201d and \\u201cYou Than Flowers\\u201d (featuring Simon D of Supreme Team).\",\"created_at\":\"May 11, 2012 07:50\",\"uri\":\"http://www.viki.com/api/v3/artists/8495.json\",\"image\":\"http://m2.viki.com/aHR0cDovL2MzLnZpa2lhc3NldHMuY29tL3VwbG9hZHMvY2hhbm5lbC90aHVtYm5haWwvODQ5NS81NTA3ZWU1NWU1N2MxNGIwZWM2NmZiMmM0YjY4NjE4OWMyNWU1ZTg0LmpwZw==\",\"origin_country\":\"Korea\",\"roles\":[\"Musician\"],\"music_videos\":{\"count\":2,\"uri\":\"http://www.viki.com/api/v3/artists/8495/music_videos.json\"}},{\"id\":8494,\"name\":\"Yoon Seo Jin\",\"description\":\"Yoon Seo Jin is a South Korean ballad singer known for his flashy and quirky fashion sense. Watch the music videos of his songs \\u201cLove Is the Only Thing That We Have to Do\\u201d and \\u201cStupid.\\u201d\",\"created_at\":\"May 11, 2012 07:50\",\"uri\":\"http://www.viki.com/api/v3/artists/8494.json\",\"image\":\"http://m1.viki.com/aHR0cDovL2MyLnZpa2lhc3NldHMuY29tL3VwbG9hZHMvY2hhbm5lbC90aHVtYm5haWwvODQ5NC9iNWMwMDc2ZGY2ODNhNDljMTliNjQ1ODU1MTQyMTZjNWM1YThiMGU0LmpwZw==\",\"origin_country\":\"Korea\",\"roles\":[\"Musician\"],\"music_videos\":{\"count\":3,\"uri\":\"http://www.viki.com/api/v3/artists/8494/music_videos.json\"}}]}"
    http_version: 
  recorded_at: Mon, 18 Jun 2012 07:09:38 GMT
recorded_with: VCR 2.2.2
